[
  {
    "link_thumb": "https://live.staticflickr.com/65535/49893673207_d265e61fdf_n.jpg",
    "id_album": "-1703946758",
    "description": "ANIME_PIC_c8dd392832ab3d2c7e68c2a47b9a6b07",
    "title": "ANIME_PIC_c8dd392832ab3d2c7e68c2a47b9a6b07",
    "link_img": "https://live.staticflickr.com/65535/49893673207_5ceff306f4_o.jpg",
    "id_image": "ANIME_PIC_c8dd392832ab3d2c7e68c2a47b9a6b07",
    "count_view": 0
  },
  {
    "link_thumb": "https://live.staticflickr.com/65535/49711100743_9428f11c63_n.jpg",
    "id_album": "134100487",
    "description": "Elf_796466",
    "title": "Elf_796466",
    "link_img": "https://live.staticflickr.com/65535/49711100743_8d93c27e05_o.jpg",
    "id_image": "Elf_796466",
    "count_view": 0
  },
  {
    "link_thumb": "https://live.staticflickr.com/65535/49712298282_58e30458f5_n.jpg",
    "id_album": "-1284959130",
    "description": "LegendOfTheFiveRings_219860",
    "title": "LegendOfTheFiveRings_219860",
    "link_img": "https://live.staticflickr.com/65535/49712298282_63067c463c_o.jpg",
    "id_image": "LegendOfTheFiveRings_219860",
    "count_view": 0
  },
  {
    "link_thumb": "https://live.staticflickr.com/65535/49711032961_af1c1e2b79_n.jpg",
    "id_album": "-1541846310",
    "description": "Castle_146685",
    "title": "Castle_146685",
    "link_img": "https://live.staticflickr.com/65535/49711032961_63bd805d19_o.jpg",
    "id_image": "Castle_146685",
    "count_view": 0
  },
  {
    "link_thumb": "https://live.staticflickr.com/65535/49710364153_5ea29847e7_n.jpg",
    "id_album": "-1913845949",
    "description": "Animal_309325",
    "title": "Animal_309325",
    "link_img": "https://live.staticflickr.com/65535/49710364153_3ba5b69774_o.jpg",
    "id_image": "Animal_309325",
    "count_view": 0
  },
  {
    "link_thumb": "https://live.staticflickr.com/65535/49710376193_65d8006893_n.jpg",
    "id_album": "-1913845949",
    "description": "Animal_636067",
    "title": "Animal_636067",
    "link_img": "https://live.staticflickr.com/65535/49710376193_542434a1d4_o.jpg",
    "id_image": "Animal_636067",
    "count_view": 0
  },
  {
    "link_thumb": "https://live.staticflickr.com/65535/49711946088_9d3257412e_n.jpg",
    "id_album": "1861288871",
    "description": "Women_831524",
    "title": "Women_831524",
    "link_img": "https://live.staticflickr.com/65535/49711946088_82751644fc_o.jpg",
    "id_image": "Women_831524",
    "count_view": 0
  },
  {
    "link_thumb": "https://live.staticflickr.com/65535/49711529826_6609f1c3c1_n.jpg",
    "id_album": "850176884",
    "description": "Dragon_804098",
    "title": "Dragon_804098",
    "link_img": "https://live.staticflickr.com/65535/49711529826_235acaccb4_o.jpg",
    "id_image": "Dragon_804098",
    "count_view": 0
  },
  {
    "link_thumb": "https://live.staticflickr.com/65535/49712078616_9d5ff65db3_n.jpg",
    "id_album": "-1326601535",
    "description": "Phoenix_769632",
    "title": "Phoenix_769632",
    "link_img": "https://live.staticflickr.com/65535/49712078616_11991498cc_o.jpg",
    "id_image": "Phoenix_769632",
    "count_view": 0
  },
  {
    "link_thumb": "https://live.staticflickr.com/65535/49711772421_63f3ac12c5_n.jpg",
    "id_album": "1957967226",
    "description": "House_921692",
    "title": "House_921692",
    "link_img": "https://live.staticflickr.com/65535/49711772421_3fda39a0c0_o.jpg",
    "id_image": "House_921692",
    "count_view": 0
  },
  {
    "link_thumb": "https://live.staticflickr.com/65535/49711094638_fc981ff7a5_n.jpg",
    "id_album": "134100487",
    "description": "Elf_691929",
    "title": "Elf_691929",
    "link_img": "https://live.staticflickr.com/65535/49711094638_68c105a093_o.jpg",
    "id_image": "Elf_691929",
    "count_view": 0
  },
  {
    "link_thumb": "https://live.staticflickr.com/65535/49799137867_28e97b11c5_n.jpg",
    "id_album": "-1703946758",
    "description": "ANIME_PIC_9f0a888a049d9349b1c882acb04cc39a",
    "title": "ANIME_PIC_9f0a888a049d9349b1c882acb04cc39a",
    "link_img": "https://live.staticflickr.com/65535/49799137867_f92b576d5e_o.jpg",
    "id_image": "ANIME_PIC_9f0a888a049d9349b1c882acb04cc39a",
    "count_view": 0
  },
  {
    "link_thumb": "https://live.staticflickr.com/65535/49711691047_61db678d85_n.jpg",
    "id_album": "850176884",
    "description": "Dragon_129843",
    "title": "Dragon_129843",
    "link_img": "https://live.staticflickr.com/65535/49711691047_e0a1ac6cb8_o.jpg",
    "id_image": "Dragon_129843",
    "count_view": 0
  },
  {
    "link_thumb": "https://live.staticflickr.com/65535/49710973021_ffbc552998_n.jpg",
    "id_album": "523598895",
    "description": "Artistic_552923",
    "title": "Artistic_552923",
    "link_img": "https://live.staticflickr.com/65535/49710973021_37716e7784_o.jpg",
    "id_image": "Artistic_552923",
    "count_view": 0
  },
  {
    "link_thumb": "https://live.staticflickr.com/65535/49711685817_ddf878317a_n.jpg",
    "id_album": "850176884",
    "description": "Dragon_122314",
    "title": "Dragon_122314",
    "link_img": "https://live.staticflickr.com/65535/49711685817_a3238e8108_o.jpg",
    "id_image": "Dragon_122314",
    "count_view": 0
  },
  {
    "link_thumb": "https://live.staticflickr.com/65535/49710882563_a8166f98ee_n.jpg",
    "id_album": "850176884",
    "description": "Dragon_320297",
    "title": "Dragon_320297",
    "link_img": "https://live.staticflickr.com/65535/49710882563_864d8e9c7c_o.jpg",
    "id_image": "Dragon_320297",
    "count_view": 0
  },
  {
    "link_thumb": "https://live.staticflickr.com/65535/49710870038_5c911aaae4_n.jpg",
    "id_album": "850176884",
    "description": "Dragon_270109",
    "title": "Dragon_270109",
    "link_img": "https://live.staticflickr.com/65535/49710870038_d9c2439602_o.jpg",
    "id_image": "Dragon_270109",
    "count_view": 0
  },
  {
    "link_thumb": "https://live.staticflickr.com/65535/49711567051_7b4ecd3344_n.jpg",
    "id_album": "850176884",
    "description": "Dragon_921715",
    "title": "Dragon_921715",
    "link_img": "https://live.staticflickr.com/65535/49711567051_ac9311c3f0_o.jpg",
    "id_image": "Dragon_921715",
    "count_view": 0
  },
  {
    "link_thumb": "https://live.staticflickr.com/65535/49711841436_5f5080ffea_n.jpg",
    "id_album": "1402713104",
    "description": "Landscape_867646",
    "title": "Landscape_867646",
    "link_img": "https://live.staticflickr.com/65535/49711841436_21d5991933_o.jpg",
    "id_image": "Landscape_867646",
    "count_view": 0
  },
  {
    "link_thumb": "https://live.staticflickr.com/65535/49711619848_24b847dbd0_n.jpg",
    "id_album": "1186644325",
    "description": "Tattoo_568377",
    "title": "Tattoo_568377",
    "link_img": "https://live.staticflickr.com/65535/49711619848_b036ec2c58_o.jpg",
    "id_image": "Tattoo_568377",
    "count_view": 0
  },
  {
    "link_thumb": "https://live.staticflickr.com/65535/49711694586_f1cc66eb12_n.jpg",
    "id_album": "-1083189875",
    "description": "Forest_372820",
    "title": "Forest_372820",
    "link_img": "https://live.staticflickr.com/65535/49711694586_84c553f04d_o.jpg",
    "id_image": "Forest_372820",
    "count_view": 0
  },
  {
    "link_thumb": "https://live.staticflickr.com/65535/49799118842_47d151ef26_n.jpg",
    "id_album": "-1703946758",
    "description": "ANIME_PIC_42506ed6b24cb0286ac7e6e7c9311070",
    "title": "ANIME_PIC_42506ed6b24cb0286ac7e6e7c9311070",
    "link_img": "https://live.staticflickr.com/65535/49799118842_2b8eeb6cb3_o.jpg",
    "id_image": "ANIME_PIC_42506ed6b24cb0286ac7e6e7c9311070",
    "count_view": 0
  },
  {
    "link_thumb": "https://live.staticflickr.com/65535/49710379318_70f00307eb_n.jpg",
    "id_album": "-1913845949",
    "description": "Animal_636313",
    "title": "Animal_636313",
    "link_img": "https://live.staticflickr.com/65535/49710379318_d6784fa349_o.jpg",
    "id_image": "Animal_636313",
    "count_view": 0
  },
  {
    "link_thumb": "https://live.staticflickr.com/65535/49711394797_4818329640_n.jpg",
    "id_album": "-1741487325",
    "description": "Cat_698014",
    "title": "Cat_698014",
    "link_img": "https://live.staticflickr.com/65535/49711394797_ac1cfbe021_o.jpg",
    "id_image": "Cat_698014",
    "count_view": 0
  },
  {
    "link_thumb": "https://live.staticflickr.com/65535/49710892846_1459c17113_n.jpg",
    "id_album": "-1913845949",
    "description": "Animal_142655",
    "title": "Animal_142655",
    "link_img": "https://live.staticflickr.com/65535/49710892846_c4b80dedf3_o.jpg",
    "id_image": "Animal_142655",
    "count_view": 0
  },
  {
    "link_thumb": "https://live.staticflickr.com/65535/49711734842_b233bffde0_n.jpg",
    "id_album": "850176884",
    "description": "Dragon_297734",
    "title": "Dragon_297734",
    "link_img": "https://live.staticflickr.com/65535/49711734842_77ffd1e65e_o.jpg",
    "id_image": "Dragon_297734",
    "count_view": 0
  },
  {
    "link_thumb": "https://live.staticflickr.com/65535/49711159093_847e5bf608_n.jpg",
    "id_album": "-1083189875",
    "description": "Forest_331029",
    "title": "Forest_331029",
    "link_img": "https://live.staticflickr.com/65535/49711159093_e408b7061a_o.jpg",
    "id_image": "Forest_331029",
    "count_view": 0
  },
  {
    "link_thumb": "https://live.staticflickr.com/65535/49711672686_283ed82650_n.jpg",
    "id_album": "-1972042284",
    "description": "Fairy_680471",
    "title": "Fairy_680471",
    "link_img": "https://live.staticflickr.com/65535/49711672686_cb3548454a_o.jpg",
    "id_image": "Fairy_680471",
    "count_view": 0
  },
  {
    "link_thumb": "https://live.staticflickr.com/65535/49711416631_9fa68df7f1_n.jpg",
    "id_album": "850176884",
    "description": "Dragon_313324",
    "title": "Dragon_313324",
    "link_img": "https://live.staticflickr.com/65535/49711416631_ea55fe2ca0_o.jpg",
    "id_image": "Dragon_313324",
    "count_view": 0
  },
  {
    "link_thumb": "https://live.staticflickr.com/65535/49711784366_86ac85bb72_n.jpg",
    "id_album": "469960528",
    "description": "Knight_688749",
    "title": "Knight_688749",
    "link_img": "https://live.staticflickr.com/65535/49711784366_094458822b_o.jpg",
    "id_image": "Knight_688749",
    "count_view": 0
  },
  {
    "link_thumb": "https://live.staticflickr.com/65535/49712551376_97a2dc1fd9_n.jpg",
    "id_album": "-1675918237",
    "description": "WomenWarrior_265728",
    "title": "WomenWarrior_265728",
    "link_img": "https://live.staticflickr.com/65535/49712551376_fb74eca6bc_o.jpg",
    "id_image": "WomenWarrior_265728",
    "count_view": 0
  },
  {
    "link_thumb": "https://live.staticflickr.com/65535/49710715568_79d56533f9_n.jpg",
    "id_album": "-437872736",
    "description": "Creature_592378",
    "title": "Creature_592378",
    "link_img": "https://live.staticflickr.com/65535/49710715568_5682606bd2_o.jpg",
    "id_image": "Creature_592378",
    "count_view": 0
  },
  {
    "link_thumb": "https://live.staticflickr.com/65535/49712032121_85ec841e11_n.jpg",
    "id_album": "-14582214",
    "description": "Ocean_330324",
    "title": "Ocean_330324",
    "link_img": "https://live.staticflickr.com/65535/49712032121_4c8dd19727_o.jpg",
    "id_image": "Ocean_330324",
    "count_view": 0
  },
  {
    "link_thumb": "https://live.staticflickr.com/65535/49712741892_e0094fd0b0_n.jpg",
    "id_album": "295204930",
    "description": "Women_732257",
    "title": "Women_732257",
    "link_img": "https://live.staticflickr.com/65535/49712741892_04531d7a6d_o.jpg",
    "id_image": "Women_732257",
    "count_view": 0
  },
  {
    "link_thumb": "https://live.staticflickr.com/65535/49711861182_c4c6d14c8e_n.jpg",
    "id_album": "850176884",
    "description": "Dragon_863843",
    "title": "Dragon_863843",
    "link_img": "https://live.staticflickr.com/65535/49711861182_38c1e1550e_o.jpg",
    "id_image": "Dragon_863843",
    "count_view": 0
  },
  {
    "link_thumb": "https://live.staticflickr.com/65535/49712120758_993b37a755_n.jpg",
    "id_album": "-1675918237",
    "description": "WomenWarrior_694648",
    "title": "WomenWarrior_694648",
    "link_img": "https://live.staticflickr.com/65535/49712120758_45cdc8c4e2_o.jpg",
    "id_image": "WomenWarrior_694648",
    "count_view": 0
  },
  {
    "link_thumb": "https://live.staticflickr.com/65535/49711264621_d3721216ac_n.jpg",
    "id_album": "-437872736",
    "description": "Creature_720144",
    "title": "Creature_720144",
    "link_img": "https://live.staticflickr.com/65535/49711264621_559055fb12_o.jpg",
    "id_image": "Creature_720144",
    "count_view": 0
  },
  {
    "link_thumb": "https://live.staticflickr.com/65535/49711194708_36ef1921ac_n.jpg",
    "id_album": "402434752",
    "description": "Giant_15689",
    "title": "Giant_15689",
    "link_img": "https://live.staticflickr.com/65535/49711194708_f76dcd85a5_o.jpg",
    "id_image": "Giant_15689",
    "count_view": 0
  },
  {
    "link_thumb": "https://live.staticflickr.com/65535/49711680277_e93708e23c_n.jpg",
    "id_album": "850176884",
    "description": "Dragon_117378",
    "title": "Dragon_117378",
    "link_img": "https://live.staticflickr.com/65535/49711680277_6d45e1e9af_o.jpg",
    "id_image": "Dragon_117378",
    "count_view": 0
  },
  {
    "link_thumb": "https://live.staticflickr.com/65535/49711311486_73b0d59427_n.jpg",
    "id_album": "2021464556",
    "description": "Dark_101613",
    "title": "Dark_101613",
    "link_img": "https://live.staticflickr.com/65535/49711311486_c6f2d9dafa_o.jpg",
    "id_image": "Dark_101613",
    "count_view": 0
  },
  {
    "link_thumb": "https://live.staticflickr.com/65535/49713031277_de655fa619_n.jpg",
    "id_album": "-1207759647",
    "description": "Zodiac_67869",
    "title": "Zodiac_67869",
    "link_img": "https://live.staticflickr.com/65535/49713031277_6dbd111e5a_o.jpg",
    "id_image": "Zodiac_67869",
    "count_view": 0
  },
  {
    "link_thumb": "https://live.staticflickr.com/65535/49710357858_d18082d13d_n.jpg",
    "id_album": "-1000175186",
    "description": "AngelWarrior_993604",
    "title": "AngelWarrior_993604",
    "link_img": "https://live.staticflickr.com/65535/49710357858_3e47d892e6_o.jpg",
    "id_image": "AngelWarrior_993604",
    "count_view": 0
  },
  {
    "link_thumb": "https://live.staticflickr.com/65535/49711023761_abd16b1702_n.jpg",
    "id_album": "406431601",
    "description": "Building_299928",
    "title": "Building_299928",
    "link_img": "https://live.staticflickr.com/65535/49711023761_43010c3d35_o.jpg",
    "id_image": "Building_299928",
    "count_view": 0
  },
  {
    "link_thumb": "https://live.staticflickr.com/65535/49712012132_5082ebf05a_n.jpg",
    "id_album": "-1083189875",
    "description": "Forest_121944",
    "title": "Forest_121944",
    "link_img": "https://live.staticflickr.com/65535/49712012132_bc8e924645_o.jpg",
    "id_image": "Forest_121944",
    "count_view": 0
  },
  {
    "link_thumb": "https://live.staticflickr.com/65535/49712333097_43a19e0264_n.jpg",
    "id_album": "-447542718",
    "description": "Medusa_551731",
    "title": "Medusa_551731",
    "link_img": "https://live.staticflickr.com/65535/49712333097_8f0b2c3d63_o.jpg",
    "id_image": "Medusa_551731",
    "count_view": 0
  },
  {
    "link_thumb": "https://live.staticflickr.com/65535/49711113976_dfdd0cd668_n.jpg",
    "id_album": "-1964113117",
    "description": "City_700339",
    "title": "City_700339",
    "link_img": "https://live.staticflickr.com/65535/49711113976_57f668bfdd_o.jpg",
    "id_image": "City_700339",
    "count_view": 0
  },
  {
    "link_thumb": "https://live.staticflickr.com/65535/49712060672_52b2f369d3_n.jpg",
    "id_album": "402434752",
    "description": "Giant_878421",
    "title": "Giant_878421",
    "link_img": "https://live.staticflickr.com/65535/49712060672_5a2655f21e_o.jpg",
    "id_image": "Giant_878421",
    "count_view": 0
  },
  {
    "link_thumb": "https://live.staticflickr.com/65535/49710620708_efff975862_n.jpg",
    "id_album": "-437872736",
    "description": "Creature_205720",
    "title": "Creature_205720",
    "link_img": "https://live.staticflickr.com/65535/49710620708_40bb7e8ca2_o.jpg",
    "id_image": "Creature_205720",
    "count_view": 0
  },
  {
    "link_thumb": "https://live.staticflickr.com/65535/49711433797_f9f68c6ebb_n.jpg",
    "id_album": "-1964113117",
    "description": "City_618176",
    "title": "City_618176",
    "link_img": "https://live.staticflickr.com/65535/49711433797_41beceea0d_o.jpg",
    "id_image": "City_618176",
    "count_view": 0
  },
  {
    "link_thumb": "https://live.staticflickr.com/65535/49710985516_6726feecd7_n.jpg",
    "id_album": "1187037014",
    "description": "Battle_210742",
    "title": "Battle_210742",
    "link_img": "https://live.staticflickr.com/65535/49710985516_09f5b52f76_o.jpg",
    "id_image": "Battle_210742",
    "count_view": 0
  },
  {
    "link_thumb": "https://live.staticflickr.com/65535/49712292876_73ebab0080_n.jpg",
    "id_album": "-709711865",
    "description": "Wolf_876602",
    "title": "Wolf_876602",
    "link_img": "https://live.staticflickr.com/65535/49712292876_67aaa1dc62_o.jpg",
    "id_image": "Wolf_876602",
    "count_view": 0
  },
  {
    "link_thumb": "https://live.staticflickr.com/65535/49710359763_131ae79ff3_n.jpg",
    "id_album": "-1913845949",
    "description": "Animal_157827",
    "title": "Animal_157827",
    "link_img": "https://live.staticflickr.com/65535/49710359763_e0e2598990_o.jpg",
    "id_image": "Animal_157827",
    "count_view": 0
  },
  {
    "link_thumb": "https://live.staticflickr.com/65535/49711178423_4f5a089594_n.jpg",
    "id_album": "-1083189875",
    "description": "Forest_827404",
    "title": "Forest_827404",
    "link_img": "https://live.staticflickr.com/65535/49711178423_9e00c37e40_o.jpg",
    "id_image": "Forest_827404",
    "count_view": 0
  },
  {
    "link_thumb": "https://live.staticflickr.com/65535/49711264242_d24e85d198_n.jpg",
    "id_album": "523598895",
    "description": "Artistic_121148",
    "title": "Artistic_121148",
    "link_img": "https://live.staticflickr.com/65535/49711264242_0d93bb75f7_o.jpg",
    "id_image": "Artistic_121148",
    "count_view": 0
  },
  {
    "link_thumb": "https://live.staticflickr.com/65535/49710383913_0a57ded825_n.jpg",
    "id_album": "-1913845949",
    "description": "Animal_843351",
    "title": "Animal_843351",
    "link_img": "https://live.staticflickr.com/65535/49710383913_7021c2ebfa_o.jpg",
    "id_image": "Animal_843351",
    "count_view": 0
  },
  {
    "link_thumb": "https://live.staticflickr.com/65535/49711668627_b2b485d95e_n.jpg",
    "id_album": "7198985",
    "description": "Demon_993486",
    "title": "Demon_993486",
    "link_img": "https://live.staticflickr.com/65535/49711668627_229c66f9f8_o.jpg",
    "id_image": "Demon_993486",
    "count_view": 0
  },
  {
    "link_thumb": "https://live.staticflickr.com/65535/49711292566_7b83035169_n.jpg",
    "id_album": "-437872736",
    "description": "Creature_958882",
    "title": "Creature_958882",
    "link_img": "https://live.staticflickr.com/65535/49711292566_5fa86a3d28_o.jpg",
    "id_image": "Creature_958882",
    "count_view": 0
  },
  {
    "link_thumb": "https://live.staticflickr.com/65535/49711118363_b89c429667_n.jpg",
    "id_album": "-1972042284",
    "description": "Fairy_288312",
    "title": "Fairy_288312",
    "link_img": "https://live.staticflickr.com/65535/49711118363_594470aed3_o.jpg",
    "id_image": "Fairy_288312",
    "count_view": 0
  },
  {
    "link_thumb": "https://live.staticflickr.com/65535/49712104892_7ffc0e88c0_n.jpg",
    "id_album": "469960528",
    "description": "Knight_511167",
    "title": "Knight_511167",
    "link_img": "https://live.staticflickr.com/65535/49712104892_e9bd4fb90d_o.jpg",
    "id_image": "Knight_511167",
    "count_view": 0
  },
  {
    "link_thumb": "https://live.staticflickr.com/65535/49712596656_35bf612e2d_n.jpg",
    "id_album": "-1675918237",
    "description": "WomenWarrior_452219",
    "title": "WomenWarrior_452219",
    "link_img": "https://live.staticflickr.com/65535/49712596656_9e41878469_o.jpg",
    "id_image": "WomenWarrior_452219",
    "count_view": 0
  },
  {
    "link_thumb": "https://live.staticflickr.com/65535/49712141692_049b9fa09c_n.jpg",
    "id_album": "1402713104",
    "description": "Landscape_779583",
    "title": "Landscape_779583",
    "link_img": "https://live.staticflickr.com/65535/49712141692_6f146c82ea_o.jpg",
    "id_image": "Landscape_779583",
    "count_view": 0
  },
  {
    "link_thumb": "https://live.staticflickr.com/65535/49710547428_5d50922a03_n.jpg",
    "id_album": "430704260",
    "description": "Child_855573",
    "title": "Child_855573",
    "link_img": "https://live.staticflickr.com/65535/49710547428_49b4a36896_o.jpg",
    "id_image": "Child_855573",
    "count_view": 0
  },
  {
    "link_thumb": "https://live.staticflickr.com/65535/49712579322_49aa7a5213_n.jpg",
    "id_album": "478331085",
    "description": "Witch_221007",
    "title": "Witch_221007",
    "link_img": "https://live.staticflickr.com/65535/49712579322_1e1508f8cf_o.jpg",
    "id_image": "Witch_221007",
    "count_view": 0
  },
  {
    "link_thumb": "https://live.staticflickr.com/65535/49712855727_61c4e49787_n.jpg",
    "id_album": "-867594484",
    "description": "Women_682166",
    "title": "Women_682166",
    "link_img": "https://live.staticflickr.com/65535/49712855727_ce7d9a97bd_o.jpg",
    "id_image": "Women_682166",
    "count_view": 0
  },
  {
    "link_thumb": "https://live.staticflickr.com/65535/49712234721_73371ebc80_n.jpg",
    "id_album": "-1261420436",
    "description": "Warrior_913002",
    "title": "Warrior_913002",
    "link_img": "https://live.staticflickr.com/65535/49712234721_1609e5fcc4_o.jpg",
    "id_image": "Warrior_913002",
    "count_view": 0
  },
  {
    "link_thumb": "https://live.staticflickr.com/65535/49712532532_91ef357c4c_n.jpg",
    "id_album": "-1261420436",
    "description": "Warrior_552099",
    "title": "Warrior_552099",
    "link_img": "https://live.staticflickr.com/65535/49712532532_87313fafe3_o.jpg",
    "id_image": "Warrior_552099",
    "count_view": 0
  },
  {
    "link_thumb": "https://live.staticflickr.com/65535/49712282537_c754e81521_n.jpg",
    "id_album": "-833110404",
    "description": "Landscape_518874",
    "title": "Landscape_518874",
    "link_img": "https://live.staticflickr.com/65535/49712282537_bdb6073b7c_o.jpg",
    "id_image": "Landscape_518874",
    "count_view": 0
  },
  {
    "link_thumb": "https://live.staticflickr.com/65535/49710475298_7936ea2bdd_n.jpg",
    "id_album": "1187037014",
    "description": "Battle_779258",
    "title": "Battle_779258",
    "link_img": "https://live.staticflickr.com/65535/49710475298_168a130997_o.jpg",
    "id_image": "Battle_779258",
    "count_view": 0
  },
  {
    "link_thumb": "https://live.staticflickr.com/65535/49711597723_1d9c711fd3_n.jpg",
    "id_album": "-395228614",
    "description": "Ship_309767",
    "title": "Ship_309767",
    "link_img": "https://live.staticflickr.com/65535/49711597723_ece266a52f_o.jpg",
    "id_image": "Ship_309767",
    "count_view": 0
  },
  {
    "link_thumb": "https://live.staticflickr.com/65535/49710948281_57c27208de_n.jpg",
    "id_album": "523598895",
    "description": "Artistic_178859",
    "title": "Artistic_178859",
    "link_img": "https://live.staticflickr.com/65535/49710948281_47047961ec_o.jpg",
    "id_image": "Artistic_178859",
    "count_view": 0
  },
  {
    "link_thumb": "https://live.staticflickr.com/65535/49711261103_95db3559b8_n.jpg",
    "id_album": "1402713104",
    "description": "Landscape_659052",
    "title": "Landscape_659052",
    "link_img": "https://live.staticflickr.com/65535/49711261103_b0b99b274c_o.jpg",
    "id_image": "Landscape_659052",
    "count_view": 0
  },
  {
    "link_thumb": "https://live.staticflickr.com/65535/49711319882_0b06f2b6b3_n.jpg",
    "id_album": "1187037014",
    "description": "Battle_372726",
    "title": "Battle_372726",
    "link_img": "https://live.staticflickr.com/65535/49711319882_657667f9fa_o.jpg",
    "id_image": "Battle_372726",
    "count_view": 0
  },
  {
    "link_thumb": "https://live.staticflickr.com/65535/49710816623_89ed494569_n.jpg",
    "id_album": "850176884",
    "description": "DRAGON26101916502554",
    "title": "DRAGON26101916502554",
    "link_img": "https://live.staticflickr.com/65535/49710816623_71c24c758f_o.jpg",
    "id_image": "DRAGON26101916502554",
    "count_view": 0
  },
  {
    "link_thumb": "https://live.staticflickr.com/65535/49711748627_16eccfe9f4_n.jpg",
    "id_album": "850176884",
    "description": "Dragon_334095",
    "title": "Dragon_334095",
    "link_img": "https://live.staticflickr.com/65535/49711748627_1068fb7c82_o.jpg",
    "id_image": "Dragon_334095",
    "count_view": 0
  },
  {
    "link_thumb": "https://live.staticflickr.com/65535/49712168307_455efbfda8_n.jpg",
    "id_album": "1402713104",
    "description": "Landscape_870678",
    "title": "Landscape_870678",
    "link_img": "https://live.staticflickr.com/65535/49712168307_1dd18c18df_o.jpg",
    "id_image": "Landscape_870678",
    "count_view": 0
  },
  {
    "link_thumb": "https://live.staticflickr.com/65535/49711798117_76334307ac_n.jpg",
    "id_album": "850176884",
    "description": "Dragon_540471",
    "title": "Dragon_540471",
    "link_img": "https://live.staticflickr.com/65535/49711798117_ff615f2f30_o.jpg",
    "id_image": "Dragon_540471",
    "count_view": 0
  },
  {
    "link_thumb": "https://live.staticflickr.com/65535/49712162078_0f947bce06_n.jpg",
    "id_album": "-1675918237",
    "description": "WomenWarrior_899271",
    "title": "WomenWarrior_899271",
    "link_img": "https://live.staticflickr.com/65535/49712162078_b40bb6a60f_o.jpg",
    "id_image": "WomenWarrior_899271",
    "count_view": 0
  },
  {
    "link_thumb": "https://live.staticflickr.com/65535/49711904886_b1132e7d9f_n.jpg",
    "id_album": "-833110404",
    "description": "Landscape_274318",
    "title": "Landscape_274318",
    "link_img": "https://live.staticflickr.com/65535/49711904886_46ace73cb4_o.jpg",
    "id_image": "Landscape_274318",
    "count_view": 0
  },
  {
    "link_thumb": "https://live.staticflickr.com/65535/49712203721_4cd9c98052_n.jpg",
    "id_album": "-1261420436",
    "description": "Warrior_258101",
    "title": "Warrior_258101",
    "link_img": "https://live.staticflickr.com/65535/49712203721_b5d1bf7298_o.jpg",
    "id_image": "Warrior_258101",
    "count_view": 0
  },
  {
    "link_thumb": "https://live.staticflickr.com/65535/49712566627_25d4d6c968_n.jpg",
    "id_album": "1173975892",
    "description": "Werewolf_487348",
    "title": "Werewolf_487348",
    "link_img": "https://live.staticflickr.com/65535/49712566627_e00df5cf64_o.jpg",
    "id_image": "Werewolf_487348",
    "count_view": 0
  },
  {
    "link_thumb": "https://live.staticflickr.com/65535/49710928218_1bacb1fab0_n.jpg",
    "id_album": "850176884",
    "description": "Dragon_497602",
    "title": "Dragon_497602",
    "link_img": "https://live.staticflickr.com/65535/49710928218_f4194c420e_o.jpg",
    "id_image": "Dragon_497602",
    "count_view": 0
  },
  {
    "link_thumb": "https://live.staticflickr.com/65535/49711277758_c38ebe7ab6_n.jpg",
    "id_album": "1402713104",
    "description": "Landscape_726807",
    "title": "Landscape_726807",
    "link_img": "https://live.staticflickr.com/65535/49711277758_b1b9a85afe_o.jpg",
    "id_image": "Landscape_726807",
    "count_view": 0
  },
  {
    "link_thumb": "https://live.staticflickr.com/65535/49712698446_7e0c70f4c9_n.jpg",
    "id_album": "-1675918237",
    "description": "WomenWarrior_910706",
    "title": "WomenWarrior_910706",
    "link_img": "https://live.staticflickr.com/65535/49712698446_178c786600_o.jpg",
    "id_image": "WomenWarrior_910706",
    "count_view": 0
  },
  {
    "link_thumb": "https://live.staticflickr.com/65535/49712518066_0dd8107f1e_n.jpg",
    "id_album": "-867594484",
    "description": "Women_599814",
    "title": "Women_599814",
    "link_img": "https://live.staticflickr.com/65535/49712518066_c16b41bf15_o.jpg",
    "id_image": "Women_599814",
    "count_view": 0
  },
  {
    "link_thumb": "https://live.staticflickr.com/65535/49712322972_5aa88432dd_n.jpg",
    "id_album": "-1613076477",
    "description": "Magic_303904",
    "title": "Magic_303904",
    "link_img": "https://live.staticflickr.com/65535/49712322972_b50a50d99c_o.jpg",
    "id_image": "Magic_303904",
    "count_view": 0
  },
  {
    "link_thumb": "https://live.staticflickr.com/65535/49710972578_6cfe817788_n.jpg",
    "id_album": "850176884",
    "description": "Dragon_696441",
    "title": "Dragon_696441",
    "link_img": "https://live.staticflickr.com/65535/49710972578_1b14e928e4_o.jpg",
    "id_image": "Dragon_696441",
    "count_view": 0
  },
  {
    "link_thumb": "https://live.staticflickr.com/65535/49711819582_013cce4349_n.jpg",
    "id_album": "850176884",
    "description": "Dragon_626682",
    "title": "Dragon_626682",
    "link_img": "https://live.staticflickr.com/65535/49711819582_88b2350132_o.jpg",
    "id_image": "Dragon_626682",
    "count_view": 0
  },
  {
    "link_thumb": "https://live.staticflickr.com/65535/49710856618_9ec0568159_n.jpg",
    "id_album": "850176884",
    "description": "Dragon_235815",
    "title": "Dragon_235815",
    "link_img": "https://live.staticflickr.com/65535/49710856618_efa36583ed_o.jpg",
    "id_image": "Dragon_235815",
    "count_view": 0
  },
  {
    "link_thumb": "https://live.staticflickr.com/65535/49712273516_70651c9ed3_n.jpg",
    "id_album": "-709711865",
    "description": "Wolf_347987",
    "title": "Wolf_347987",
    "link_img": "https://live.staticflickr.com/65535/49712273516_8cd6e0c9d6_o.jpg",
    "id_image": "Wolf_347987",
    "count_view": 0
  },
  {
    "link_thumb": "https://live.staticflickr.com/65535/49711163788_3ce3cedf26_n.jpg",
    "id_album": "-1083189875",
    "description": "Forest_507356",
    "title": "Forest_507356",
    "link_img": "https://live.staticflickr.com/65535/49711163788_9548bc7d81_o.jpg",
    "id_image": "Forest_507356",
    "count_view": 0
  },
  {
    "link_thumb": "https://live.staticflickr.com/65535/49711043283_cca4456f35_n.jpg",
    "id_album": "850176884",
    "description": "Dragon_958215",
    "title": "Dragon_958215",
    "link_img": "https://live.staticflickr.com/65535/49711043283_c6a3bdaf92_o.jpg",
    "id_image": "Dragon_958215",
    "count_view": 0
  },
  {
    "link_thumb": "https://live.staticflickr.com/65535/49710487873_38877bcf6e_n.jpg",
    "id_album": "406431601",
    "description": "Building_151174",
    "title": "Building_151174",
    "link_img": "https://live.staticflickr.com/65535/49710487873_b602dc836f_o.jpg",
    "id_image": "Building_151174",
    "count_view": 0
  },
  {
    "link_thumb": "https://live.staticflickr.com/65535/49712067256_9333742619_n.jpg",
    "id_album": "-639976841",
    "description": "Pegasus_886608",
    "title": "Pegasus_886608",
    "link_img": "https://live.staticflickr.com/65535/49712067256_c61eda3193_o.jpg",
    "id_image": "Pegasus_886608",
    "count_view": 0
  },
  {
    "link_thumb": "https://live.staticflickr.com/65535/49710918471_214b558d3c_n.jpg",
    "id_album": "-1913845949",
    "description": "Animal_858509",
    "title": "Animal_858509",
    "link_img": "https://live.staticflickr.com/65535/49710918471_f196754ca0_o.jpg",
    "id_image": "Animal_858509",
    "count_view": 0
  },
  {
    "link_thumb": "https://live.staticflickr.com/65535/49711485306_9c5aa22b74_n.jpg",
    "id_album": "850176884",
    "description": "Dragon_568746",
    "title": "Dragon_568746",
    "link_img": "https://live.staticflickr.com/65535/49711485306_f27ae950f4_o.jpg",
    "id_image": "Dragon_568746",
    "count_view": 0
  },
  {
    "link_thumb": "https://live.staticflickr.com/65535/49711357517_89bf0b0e06_n.jpg",
    "id_album": "-1541846310",
    "description": "Castle_159289",
    "title": "Castle_159289",
    "link_img": "https://live.staticflickr.com/65535/49711357517_78e7956a1b_o.jpg",
    "id_image": "Castle_159289",
    "count_view": 0
  },
  {
    "link_thumb": "https://live.staticflickr.com/65535/49711403191_d822970f3b_n.jpg",
    "id_album": "850176884",
    "description": "Dragon_259886",
    "title": "Dragon_259886",
    "link_img": "https://live.staticflickr.com/65535/49711403191_77a2ecfff4_o.jpg",
    "id_image": "Dragon_259886",
    "count_view": 0
  },
  {
    "link_thumb": "https://live.staticflickr.com/65535/49711570136_e66ba669bb_n.jpg",
    "id_album": "850176884",
    "description": "Dragon_930293",
    "title": "Dragon_930293",
    "link_img": "https://live.staticflickr.com/65535/49711570136_eba6e79647_o.jpg",
    "id_image": "Dragon_930293",
    "count_view": 0
  },
  {
    "link_thumb": "https://live.staticflickr.com/65535/49711707398_f40be7fc69_n.jpg",
    "id_album": "1173975892",
    "description": "Werewolf_237307",
    "title": "Werewolf_237307",
    "link_img": "https://live.staticflickr.com/65535/49711707398_a4ec0de98e_o.jpg",
    "id_image": "Werewolf_237307",
    "count_view": 0
  },
  {
    "link_thumb": "https://live.staticflickr.com/65535/49712571272_42c1d24294_n.jpg",
    "id_album": "786934945",
    "description": "Whale_185667",
    "title": "Whale_185667",
    "link_img": "https://live.staticflickr.com/65535/49712571272_04ed32e9c0_o.jpg",
    "id_image": "Whale_185667",
    "count_view": 0
  },
  {
    "link_thumb": "https://live.staticflickr.com/65535/49711057648_49e956bf35_n.jpg",
    "id_album": "850176884",
    "description": "Dragon_991383",
    "title": "Dragon_991383",
    "link_img": "https://live.staticflickr.com/65535/49711057648_2f9e2e26c1_o.jpg",
    "id_image": "Dragon_991383",
    "count_view": 0
  },
  {
    "link_thumb": "https://live.staticflickr.com/65535/49711244488_044af030f3_n.jpg",
    "id_album": "469960528",
    "description": "Knight_314704",
    "title": "Knight_314704",
    "link_img": "https://live.staticflickr.com/65535/49711244488_84e2f4ce15_o.jpg",
    "id_image": "Knight_314704",
    "count_view": 0
  },
  {
    "link_thumb": "https://live.staticflickr.com/65535/49710569923_3d710e6cc5_n.jpg",
    "id_album": "-1964113117",
    "description": "City_527922",
    "title": "City_527922",
    "link_img": "https://live.staticflickr.com/65535/49710569923_497208d6a5_o.jpg",
    "id_image": "City_527922",
    "count_view": 0
  },
  {
    "link_thumb": "https://live.staticflickr.com/65535/49711747388_d1f4f85b32_n.jpg",
    "id_album": "-709711865",
    "description": "Wolf_644210",
    "title": "Wolf_644210",
    "link_img": "https://live.staticflickr.com/65535/49711747388_b413bc052b_o.jpg",
    "id_image": "Wolf_644210",
    "count_view": 0
  },
  {
    "link_thumb": "https://live.staticflickr.com/65535/49712191402_4b2fa6b09d_n.jpg",
    "id_album": "1402713104",
    "description": "Landscape_952443",
    "title": "Landscape_952443",
    "link_img": "https://live.staticflickr.com/65535/49712191402_00b0f8d4cb_o.jpg",
    "id_image": "Landscape_952443",
    "count_view": 0
  },
  {
    "link_thumb": "https://live.staticflickr.com/65535/49711208452_47dba6decc_n.jpg",
    "id_album": "-1000175186",
    "description": "AngelWarrior_605436",
    "title": "AngelWarrior_605436",
    "link_img": "https://live.staticflickr.com/65535/49711208452_8862ac4ab7_o.jpg",
    "id_image": "AngelWarrior_605436",
    "count_view": 0
  },
  {
    "link_thumb": "https://live.staticflickr.com/65535/49711448597_cf1018e64c_n.jpg",
    "id_album": "-1964113117",
    "description": "City_870386",
    "title": "City_870386",
    "link_img": "https://live.staticflickr.com/65535/49711448597_847194ddf3_o.jpg",
    "id_image": "City_870386",
    "count_view": 0
  },
  {
    "link_thumb": "https://live.staticflickr.com/65535/49711768272_101f96e87b_n.jpg",
    "id_album": "850176884",
    "description": "Dragon_441584",
    "title": "Dragon_441584",
    "link_img": "https://live.staticflickr.com/65535/49711768272_508637eefe_o.jpg",
    "id_image": "Dragon_441584",
    "count_view": 0
  },
  {
    "link_thumb": "https://live.staticflickr.com/65535/49711480973_bf7d526fd6_n.jpg",
    "id_album": "-222719689",
    "description": "Men_552111",
    "title": "Men_552111",
    "link_img": "https://live.staticflickr.com/65535/49711480973_a568f1eac9_o.jpg",
    "id_image": "Men_552111",
    "count_view": 0
  },
  {
    "link_thumb": "https://live.staticflickr.com/65535/49712793837_e4e2184df0_n.jpg",
    "id_album": "1861288871",
    "description": "Women_789296",
    "title": "Women_789296",
    "link_img": "https://live.staticflickr.com/65535/49712793837_a34f8b276d_o.jpg",
    "id_image": "Women_789296",
    "count_view": 0
  },
  {
    "link_thumb": "https://live.staticflickr.com/65535/49712178597_d2cb0225c3_n.jpg",
    "id_album": "1402713104",
    "description": "Landscape_911857",
    "title": "Landscape_911857",
    "link_img": "https://live.staticflickr.com/65535/49712178597_af950570b1_o.jpg",
    "id_image": "Landscape_911857",
    "count_view": 0
  },
  {
    "link_thumb": "https://live.staticflickr.com/65535/49711240246_a50afe5977_n.jpg",
    "id_album": "-437872736",
    "description": "Creature_511762",
    "title": "Creature_511762",
    "link_img": "https://live.staticflickr.com/65535/49711240246_4f5b917dd1_o.jpg",
    "id_image": "Creature_511762",
    "count_view": 0
  },
  {
    "link_thumb": "https://live.staticflickr.com/65535/49710638173_1f6d0af11a_n.jpg",
    "id_album": "-437872736",
    "description": "Creature_271149",
    "title": "Creature_271149",
    "link_img": "https://live.staticflickr.com/65535/49710638173_d2f4cef46a_o.jpg",
    "id_image": "Creature_271149",
    "count_view": 0
  },
  {
    "link_thumb": "https://live.staticflickr.com/65535/49712190062_c9ff30e061_n.jpg",
    "id_album": "1402713104",
    "description": "Landscape_947447",
    "title": "Landscape_947447",
    "link_img": "https://live.staticflickr.com/65535/49712190062_7e3e1ec37b_o.jpg",
    "id_image": "Landscape_947447",
    "count_view": 0
  },
  {
    "link_thumb": "https://live.staticflickr.com/65535/49711745207_015d548e58_n.jpg",
    "id_album": "850176884",
    "description": "Dragon_328330",
    "title": "Dragon_328330",
    "link_img": "https://live.staticflickr.com/65535/49711745207_37905ab5ee_o.jpg",
    "id_image": "Dragon_328330",
    "count_view": 0
  },
  {
    "link_thumb": "https://live.staticflickr.com/65535/49712248542_ed346a26f2_n.jpg",
    "id_album": "-833110404",
    "description": "Landscape_310357",
    "title": "Landscape_310357",
    "link_img": "https://live.staticflickr.com/65535/49712248542_6d32dc202a_o.jpg",
    "id_image": "Landscape_310357",
    "count_view": 0
  },
  {
    "link_thumb": "https://live.staticflickr.com/65535/49711310677_6412c15d88_n.jpg",
    "id_album": "1187037014",
    "description": "Battle_239864",
    "title": "Battle_239864",
    "link_img": "https://live.staticflickr.com/65535/49711310677_d00e961ce1_o.jpg",
    "id_image": "Battle_239864",
    "count_view": 0
  },
  {
    "link_thumb": "https://live.staticflickr.com/65535/49711780207_a89aaf670d_n.jpg",
    "id_album": "850176884",
    "description": "Dragon_481266",
    "title": "Dragon_481266",
    "link_img": "https://live.staticflickr.com/65535/49711780207_0ef9354bf1_o.jpg",
    "id_image": "Dragon_481266",
    "count_view": 0
  },
  {
    "link_thumb": "https://live.staticflickr.com/65535/49711288392_c09818bd8e_n.jpg",
    "id_album": "523598895",
    "description": "Artistic_376357",
    "title": "Artistic_376357",
    "link_img": "https://live.staticflickr.com/65535/49711288392_1921a131c7_o.jpg",
    "id_image": "Artistic_376357",
    "count_view": 0
  },
  {
    "link_thumb": "https://live.staticflickr.com/65535/49711382222_6ffd329fe2_n.jpg",
    "id_album": "-1541846310",
    "description": "Castle_854312",
    "title": "Castle_854312",
    "link_img": "https://live.staticflickr.com/65535/49711382222_c1d8a7ac8d_o.jpg",
    "id_image": "Castle_854312",
    "count_view": 0
  },
  {
    "link_thumb": "https://live.staticflickr.com/65535/49711517443_4968710cc4_n.jpg",
    "id_album": "1892085513",
    "description": "Oriental_981688",
    "title": "Oriental_981688",
    "link_img": "https://live.staticflickr.com/65535/49711517443_5e9ac946dd_o.jpg",
    "id_image": "Oriental_981688",
    "count_view": 0
  },
  {
    "link_thumb": "https://live.staticflickr.com/65535/49711351192_9ee8124ce5_n.jpg",
    "id_album": "406431601",
    "description": "Building_872966",
    "title": "Building_872966",
    "link_img": "https://live.staticflickr.com/65535/49711351192_f5d64d7906_o.jpg",
    "id_image": "Building_872966",
    "count_view": 0
  },
  {
    "link_thumb": "https://live.staticflickr.com/65535/49711436446_915beaccbd_n.jpg",
    "id_album": "850176884",
    "description": "Dragon_376613",
    "title": "Dragon_376613",
    "link_img": "https://live.staticflickr.com/65535/49711436446_0985fd92d1_o.jpg",
    "id_image": "Dragon_376613",
    "count_view": 0
  },
  {
    "link_thumb": "https://live.staticflickr.com/65535/49711078601_1d5150e7b8_n.jpg",
    "id_album": "430704260",
    "description": "Child_708923",
    "title": "Child_708923",
    "link_img": "https://live.staticflickr.com/65535/49711078601_56396dc15f_o.jpg",
    "id_image": "Child_708923",
    "count_view": 0
  },
  {
    "link_thumb": "https://live.staticflickr.com/65535/49710662673_0782dda43e_n.jpg",
    "id_album": "-437872736",
    "description": "Creature_327563",
    "title": "Creature_327563",
    "link_img": "https://live.staticflickr.com/65535/49710662673_c3d87b0016_o.jpg",
    "id_image": "Creature_327563",
    "count_view": 0
  },
  {
    "link_thumb": "https://live.staticflickr.com/65535/49711346291_600a292410_n.jpg",
    "id_album": "850176884",
    "description": "DRAGON2610191649378",
    "title": "DRAGON2610191649378",
    "link_img": "https://live.staticflickr.com/65535/49711346291_eaa9873888_o.jpg",
    "id_image": "DRAGON2610191649378",
    "count_view": 0
  },
  {
    "link_thumb": "https://live.staticflickr.com/65535/49711931032_a27fde8935_n.jpg",
    "id_album": "134100487",
    "description": "Elf_301145",
    "title": "Elf_301145",
    "link_img": "https://live.staticflickr.com/65535/49711931032_f4d9a6e342_o.jpg",
    "id_image": "Elf_301145",
    "count_view": 0
  },
  {
    "link_thumb": "https://live.staticflickr.com/65535/49710945741_be1b52ce41_n.jpg",
    "id_album": "523598895",
    "description": "Artistic_155114",
    "title": "Artistic_155114",
    "link_img": "https://live.staticflickr.com/65535/49710945741_aca49f3ef6_o.jpg",
    "id_image": "Artistic_155114",
    "count_view": 0
  },
  {
    "link_thumb": "https://live.staticflickr.com/65535/49711782897_2da5735d71_n.jpg",
    "id_album": "850176884",
    "description": "Dragon_493970",
    "title": "Dragon_493970",
    "link_img": "https://live.staticflickr.com/65535/49711782897_77f6271dfc_o.jpg",
    "id_image": "Dragon_493970",
    "count_view": 0
  },
  {
    "link_thumb": "https://live.staticflickr.com/65535/49712068527_0d4f507927_n.jpg",
    "id_album": "1131236559",
    "description": "Gods_520085",
    "title": "Gods_520085",
    "link_img": "https://live.staticflickr.com/65535/49712068527_1f1639a6c2_o.jpg",
    "id_image": "Gods_520085",
    "count_view": 0
  },
  {
    "link_thumb": "https://live.staticflickr.com/65535/49710433023_1fe249a95c_n.jpg",
    "id_album": "523598895",
    "description": "Artistic_400774",
    "title": "Artistic_400774",
    "link_img": "https://live.staticflickr.com/65535/49710433023_fee687ed94_o.jpg",
    "id_image": "Artistic_400774",
    "count_view": 0
  },
  {
    "link_thumb": "https://live.staticflickr.com/65535/49712459042_1f0b445702_n.jpg",
    "id_album": "-395228614",
    "description": "Ship_597355",
    "title": "Ship_597355",
    "link_img": "https://live.staticflickr.com/65535/49712459042_5aeef7266c_o.jpg",
    "id_image": "Ship_597355",
    "count_view": 0
  },
  {
    "link_thumb": "https://live.staticflickr.com/65535/49711857396_15a8bebc81_n.jpg",
    "id_album": "1402713104",
    "description": "Landscape_917845",
    "title": "Landscape_917845",
    "link_img": "https://live.staticflickr.com/65535/49711857396_314290fc19_o.jpg",
    "id_image": "Landscape_917845",
    "count_view": 0
  },
  {
    "link_thumb": "https://live.staticflickr.com/65535/49712038882_d601d6c523_n.jpg",
    "id_album": "-1083189875",
    "description": "Forest_864944",
    "title": "Forest_864944",
    "link_img": "https://live.staticflickr.com/65535/49712038882_f8fc2a1211_o.jpg",
    "id_image": "Forest_864944",
    "count_view": 0
  },
  {
    "link_thumb": "https://live.staticflickr.com/65535/49710822593_7c96c920e3_n.jpg",
    "id_album": "850176884",
    "description": "Dragon_118776",
    "title": "Dragon_118776",
    "link_img": "https://live.staticflickr.com/65535/49710822593_f8b20d047c_o.jpg",
    "id_image": "Dragon_118776",
    "count_view": 0
  },
  {
    "link_thumb": "https://live.staticflickr.com/65535/49712282277_60db3e77f8_n.jpg",
    "id_album": "-833110404",
    "description": "Landscape_518869",
    "title": "Landscape_518869",
    "link_img": "https://live.staticflickr.com/65535/49712282277_4f97150090_o.jpg",
    "id_image": "Landscape_518869",
    "count_view": 0
  },
  {
    "link_thumb": "https://live.staticflickr.com/65535/49711910062_ed8cd8884e_n.jpg",
    "id_album": "850176884",
    "description": "Dragon_980317",
    "title": "Dragon_980317",
    "link_img": "https://live.staticflickr.com/65535/49711910062_365b5877b2_o.jpg",
    "id_image": "Dragon_980317",
    "count_view": 0
  },
  {
    "link_thumb": "https://live.staticflickr.com/65535/49711072336_b726cb8310_n.jpg",
    "id_album": "-1741487325",
    "description": "Cat_856407",
    "title": "Cat_856407",
    "link_img": "https://live.staticflickr.com/65535/49711072336_a36428996d_o.jpg",
    "id_image": "Cat_856407",
    "count_view": 0
  },
  {
    "link_thumb": "https://live.staticflickr.com/65535/49711186522_ac00c84148_n.jpg",
    "id_album": "-2109465612",
    "description": "Adventure_244177",
    "title": "Adventure_244177",
    "link_img": "https://live.staticflickr.com/65535/49711186522_1f02be5673_o.jpg",
    "id_image": "Adventure_244177",
    "count_view": 0
  },
  {
    "link_thumb": "https://live.staticflickr.com/65535/49710853318_dee21bbf14_n.jpg",
    "id_album": "850176884",
    "description": "Dragon_229717",
    "title": "Dragon_229717",
    "link_img": "https://live.staticflickr.com/65535/49710853318_3b8e963856_o.jpg",
    "id_image": "Dragon_229717",
    "count_view": 0
  },
  {
    "link_thumb": "https://live.staticflickr.com/65535/49712301647_9967a4a303_n.jpg",
    "id_album": "416744915",
    "description": "Lion_113745",
    "title": "Lion_113745",
    "link_img": "https://live.staticflickr.com/65535/49712301647_0748474fbd_o.jpg",
    "id_image": "Lion_113745",
    "count_view": 0
  },
  {
    "link_thumb": "https://live.staticflickr.com/65535/49710502808_fec7e80f52_n.jpg",
    "id_album": "-1541846310",
    "description": "Castle_202493",
    "title": "Castle_202493",
    "link_img": "https://live.staticflickr.com/65535/49710502808_201075923e_o.jpg",
    "id_image": "Castle_202493",
    "count_view": 0
  },
  {
    "link_thumb": "https://live.staticflickr.com/65535/49711878482_e6f91bdcd4_n.jpg",
    "id_album": "850176884",
    "description": "Dragon_905116",
    "title": "Dragon_905116",
    "link_img": "https://live.staticflickr.com/65535/49711878482_d237a33641_o.jpg",
    "id_image": "Dragon_905116",
    "count_view": 0
  },
  {
    "link_thumb": "https://live.staticflickr.com/65535/49710569263_27e56f100e_n.jpg",
    "id_album": "-1964113117",
    "description": "City_523389",
    "title": "City_523389",
    "link_img": "https://live.staticflickr.com/65535/49710569263_d38a3e3732_o.jpg",
    "id_image": "City_523389",
    "count_view": 0
  },
  {
    "link_thumb": "https://live.staticflickr.com/65535/49710647948_a5286a9457_n.jpg",
    "id_album": "-437872736",
    "description": "Creature_303673",
    "title": "Creature_303673",
    "link_img": "https://live.staticflickr.com/65535/49710647948_4b8811b9e1_o.jpg",
    "id_image": "Creature_303673",
    "count_view": 0
  },
  {
    "link_thumb": "https://live.staticflickr.com/65535/49710989891_99fdea0f7e_n.jpg",
    "id_album": "1187037014",
    "description": "Battle_291387",
    "title": "Battle_291387",
    "link_img": "https://live.staticflickr.com/65535/49710989891_05f161af55_o.jpg",
    "id_image": "Battle_291387",
    "count_view": 0
  },
  {
    "link_thumb": "https://live.staticflickr.com/65535/49711739527_527029f7ba_n.jpg",
    "id_album": "850176884",
    "description": "Dragon_317052",
    "title": "Dragon_317052",
    "link_img": "https://live.staticflickr.com/65535/49711739527_c7d03ec843_o.jpg",
    "id_image": "Dragon_317052",
    "count_view": 0
  },
  {
    "link_thumb": "https://live.staticflickr.com/65535/49711837258_115299f694_n.jpg",
    "id_album": "295204930",
    "description": "Women_280736",
    "title": "Women_280736",
    "link_img": "https://live.staticflickr.com/65535/49711837258_5540eb38ba_o.jpg",
    "id_image": "Women_280736",
    "count_view": 0
  },
  {
    "link_thumb": "https://live.staticflickr.com/65535/49711226221_2c16cf9b12_n.jpg",
    "id_album": "-437872736",
    "description": "Creature_394079",
    "title": "Creature_394079",
    "link_img": "https://live.staticflickr.com/65535/49711226221_3470c9e93d_o.jpg",
    "id_image": "Creature_394079",
    "count_view": 0
  },
  {
    "link_thumb": "https://live.staticflickr.com/65535/49711508716_8d237d614d_n.jpg",
    "id_album": "850176884",
    "description": "Dragon_694115",
    "title": "Dragon_694115",
    "link_img": "https://live.staticflickr.com/65535/49711508716_7777e963ed_o.jpg",
    "id_image": "Dragon_694115",
    "count_view": 0
  },
  {
    "link_thumb": "https://live.staticflickr.com/65535/49711752537_81ea87a260_n.jpg",
    "id_album": "850176884",
    "description": "Dragon_353790",
    "title": "Dragon_353790",
    "link_img": "https://live.staticflickr.com/65535/49711752537_e4fdf21158_o.jpg",
    "id_image": "Dragon_353790",
    "count_view": 0
  },
  {
    "link_thumb": "https://live.staticflickr.com/65535/49710424723_73b112d03e_n.jpg",
    "id_album": "523598895",
    "description": "Artistic_273187",
    "title": "Artistic_273187",
    "link_img": "https://live.staticflickr.com/65535/49710424723_71f22a98dd_o.jpg",
    "id_image": "Artistic_273187",
    "count_view": 0
  },
  {
    "link_thumb": "https://live.staticflickr.com/65535/49712695412_a2ed536b9a_n.jpg",
    "id_album": "295204930",
    "description": "Women_291937",
    "title": "Women_291937",
    "link_img": "https://live.staticflickr.com/65535/49712695412_845f3fd70f_o.jpg",
    "id_image": "Women_291937",
    "count_view": 0
  },
  {
    "link_thumb": "https://live.staticflickr.com/65535/49711481052_dc65e49616_n.jpg",
    "id_album": "-437872736",
    "description": "Creature_196133",
    "title": "Creature_196133",
    "link_img": "https://live.staticflickr.com/65535/49711481052_c76411875b_o.jpg",
    "id_image": "Creature_196133",
    "count_view": 0
  },
  {
    "link_thumb": "https://live.staticflickr.com/65535/49712524522_18a35be476_n.jpg",
    "id_album": "-1261420436",
    "description": "Warrior_249374",
    "title": "Warrior_249374",
    "link_img": "https://live.staticflickr.com/65535/49712524522_7e9f0e4dc7_o.jpg",
    "id_image": "Warrior_249374",
    "count_view": 0
  },
  {
    "link_thumb": "https://live.staticflickr.com/65535/49711237733_a75a0ab42b_n.jpg",
    "id_album": "1957967226",
    "description": "House_941426",
    "title": "House_941426",
    "link_img": "https://live.staticflickr.com/65535/49711237733_d2db66bcfe_o.jpg",
    "id_image": "House_941426",
    "count_view": 0
  },
  {
    "link_thumb": "https://live.staticflickr.com/65535/49711941881_3f283b06c6_n.jpg",
    "id_album": "-833110404",
    "description": "Landscape_418515",
    "title": "Landscape_418515",
    "link_img": "https://live.staticflickr.com/65535/49711941881_0092b582fa_o.jpg",
    "id_image": "Landscape_418515",
    "count_view": 0
  },
  {
    "link_thumb": "https://live.staticflickr.com/65535/49712022287_279471593c_n.jpg",
    "id_album": "-1083189875",
    "description": "Forest_526737",
    "title": "Forest_526737",
    "link_img": "https://live.staticflickr.com/65535/49712022287_d71b433631_o.jpg",
    "id_image": "Forest_526737",
    "count_view": 0
  },
  {
    "link_thumb": "https://live.staticflickr.com/65535/49711693501_43aca658a8_n.jpg",
    "id_album": "-1083189875",
    "description": "Forest_331653",
    "title": "Forest_331653",
    "link_img": "https://live.staticflickr.com/65535/49711693501_0a5d416c70_o.jpg",
    "id_image": "Forest_331653",
    "count_view": 0
  },
  {
    "link_thumb": "https://live.staticflickr.com/65535/49711435268_bf20780d88_n.jpg",
    "id_album": "-833110404",
    "description": "Landscape_557530",
    "title": "Landscape_557530",
    "link_img": "https://live.staticflickr.com/65535/49711435268_45ddb3afe8_o.jpg",
    "id_image": "Landscape_557530",
    "count_view": 0
  },
  {
    "link_thumb": "https://live.staticflickr.com/65535/49712309862_cf13a98d7c_n.jpg",
    "id_album": "1006968559",
    "description": "LordoftheRings_172383",
    "title": "LordoftheRings_172383",
    "link_img": "https://live.staticflickr.com/65535/49712309862_39d5e5c178_o.jpg",
    "id_image": "LordoftheRings_172383",
    "count_view": 0
  },
  {
    "link_thumb": "https://live.staticflickr.com/65535/49710340123_efb49e24e5_n.jpg",
    "id_album": "-1000175186",
    "description": "AngelWarrior_142063",
    "title": "AngelWarrior_142063",
    "link_img": "https://live.staticflickr.com/65535/49710340123_2821a071bb_o.jpg",
    "id_image": "AngelWarrior_142063",
    "count_view": 0
  },
  {
    "link_thumb": "https://live.staticflickr.com/65535/49711979833_f70eda2e64_n.jpg",
    "id_album": "-867594484",
    "description": "Women_582006",
    "title": "Women_582006",
    "link_img": "https://live.staticflickr.com/65535/49711979833_9904e22407_o.jpg",
    "id_image": "Women_582006",
    "count_view": 0
  },
  {
    "link_thumb": "https://live.staticflickr.com/65535/49711632021_9d38d41d48_n.jpg",
    "id_album": "134100487",
    "description": "Elf_749928",
    "title": "Elf_749928",
    "link_img": "https://live.staticflickr.com/65535/49711632021_1cc6ce9c35_o.jpg",
    "id_image": "Elf_749928",
    "count_view": 0
  },
  {
    "link_thumb": "https://live.staticflickr.com/65535/49710902301_0630c0c7da_n.jpg",
    "id_album": "-1913845949",
    "description": "Animal_511061",
    "title": "Animal_511061",
    "link_img": "https://live.staticflickr.com/65535/49710902301_337c66a295_o.jpg",
    "id_image": "Animal_511061",
    "count_view": 0
  },
  {
    "link_thumb": "https://live.staticflickr.com/65535/49712594246_0a7cbd597f_n.jpg",
    "id_album": "-1675918237",
    "description": "WomenWarrior_391422",
    "title": "WomenWarrior_391422",
    "link_img": "https://live.staticflickr.com/65535/49712594246_04eba9c960_o.jpg",
    "id_image": "WomenWarrior_391422",
    "count_view": 0
  },
  {
    "link_thumb": "https://live.staticflickr.com/65535/49711101266_7464629380_n.jpg",
    "id_album": "-1964113117",
    "description": "City_452837",
    "title": "City_452837",
    "link_img": "https://live.staticflickr.com/65535/49711101266_cf332f4579_o.jpg",
    "id_image": "City_452837",
    "count_view": 0
  },
  {
    "link_thumb": "https://live.staticflickr.com/65535/49713001147_1d22b96c1e_n.jpg",
    "id_album": "-1675918237",
    "description": "WomenWarrior_808507",
    "title": "WomenWarrior_808507",
    "link_img": "https://live.staticflickr.com/65535/49713001147_c711e7916a_o.jpg",
    "id_image": "WomenWarrior_808507",
    "count_view": 0
  },
  {
    "link_thumb": "https://live.staticflickr.com/65535/49711900723_5881165135_n.jpg",
    "id_album": "1861288871",
    "description": "Women_226294",
    "title": "Women_226294",
    "link_img": "https://live.staticflickr.com/65535/49711900723_ebeee2cd4f_o.jpg",
    "id_image": "Women_226294",
    "count_view": 0
  },
  {
    "link_thumb": "https://live.staticflickr.com/65535/49711385792_79df0fc4d4_n.jpg",
    "id_album": "-1541846310",
    "description": "Castle_867885",
    "title": "Castle_867885",
    "link_img": "https://live.staticflickr.com/65535/49711385792_5e4ff2c4c8_o.jpg",
    "id_image": "Castle_867885",
    "count_view": 0
  },
  {
    "link_thumb": "https://live.staticflickr.com/65535/49710996536_5c0e7f967d_n.jpg",
    "id_album": "1187037014",
    "description": "Battle_383435",
    "title": "Battle_383435",
    "link_img": "https://live.staticflickr.com/65535/49710996536_2838f06749_o.jpg",
    "id_image": "Battle_383435",
    "count_view": 0
  },
  {
    "link_thumb": "https://live.staticflickr.com/65535/49710527763_f5861265bd_n.jpg",
    "id_album": "-1541846310",
    "description": "Castle_869602",
    "title": "Castle_869602",
    "link_img": "https://live.staticflickr.com/65535/49710527763_077a087ce2_o.jpg",
    "id_image": "Castle_869602",
    "count_view": 0
  },
  {
    "link_thumb": "https://live.staticflickr.com/65535/49710906418_e139e8709b_n.jpg",
    "id_album": "850176884",
    "description": "Dragon_413626",
    "title": "Dragon_413626",
    "link_img": "https://live.staticflickr.com/65535/49710906418_3625a0924c_o.jpg",
    "id_image": "Dragon_413626",
    "count_view": 0
  },
  {
    "link_thumb": "https://live.staticflickr.com/65535/49710653613_10afcc0f1c_n.jpg",
    "id_album": "-437872736",
    "description": "Creature_312987",
    "title": "Creature_312987",
    "link_img": "https://live.staticflickr.com/65535/49710653613_f531661853_o.jpg",
    "id_image": "Creature_312987",
    "count_view": 0
  },
  {
    "link_thumb": "https://live.staticflickr.com/65535/49712134938_44e7c2e0db_n.jpg",
    "id_album": "-1675918237",
    "description": "WomenWarrior_777156",
    "title": "WomenWarrior_777156",
    "link_img": "https://live.staticflickr.com/65535/49712134938_e8e83dbab7_o.jpg",
    "id_image": "WomenWarrior_777156",
    "count_view": 0
  },
  {
    "link_thumb": "https://live.staticflickr.com/65535/49711933697_2a0150d14b_n.jpg",
    "id_album": "134100487",
    "description": "Elf_386701",
    "title": "Elf_386701",
    "link_img": "https://live.staticflickr.com/65535/49711933697_3769b6cc4e_o.jpg",
    "id_image": "Elf_386701",
    "count_view": 0
  },
  {
    "link_thumb": "https://live.staticflickr.com/65535/49710715823_1777a5d19c_n.jpg",
    "id_album": "-437872736",
    "description": "Creature_598096",
    "title": "Creature_598096",
    "link_img": "https://live.staticflickr.com/65535/49710715823_3ec6549db6_o.jpg",
    "id_image": "Creature_598096",
    "count_view": 0
  },
  {
    "link_thumb": "https://live.staticflickr.com/65535/49711979578_44300aa648_n.jpg",
    "id_album": "-867594484",
    "description": "Women_581998",
    "title": "Women_581998",
    "link_img": "https://live.staticflickr.com/65535/49711979578_186207d70a_o.jpg",
    "id_image": "Women_581998",
    "count_view": 0
  },
  {
    "link_thumb": "https://live.staticflickr.com/65535/49711961611_f098b2d786_n.jpg",
    "id_album": "-833110404",
    "description": "Landscape_526204",
    "title": "Landscape_526204",
    "link_img": "https://live.staticflickr.com/65535/49711961611_0e7fa0b5e5_o.jpg",
    "id_image": "Landscape_526204",
    "count_view": 0
  },
  {
    "link_thumb": "https://live.staticflickr.com/65535/49712165638_39e58236be_n.jpg",
    "id_album": "-1675918237",
    "description": "WomenWarrior_921987",
    "title": "WomenWarrior_921987",
    "link_img": "https://live.staticflickr.com/65535/49712165638_ff15dc53e6_o.jpg",
    "id_image": "WomenWarrior_921987",
    "count_view": 0
  },
  {
    "link_thumb": "https://live.staticflickr.com/65535/49712783157_5b5b1fb480_n.jpg",
    "id_album": "1861288871",
    "description": "Women_765660",
    "title": "Women_765660",
    "link_img": "https://live.staticflickr.com/65535/49712783157_7c21aaf172_o.jpg",
    "id_image": "Women_765660",
    "count_view": 0
  },
  {
    "link_thumb": "https://live.staticflickr.com/65535/49711730402_90a6c0769f_n.jpg",
    "id_album": "850176884",
    "description": "Dragon_273939",
    "title": "Dragon_273939",
    "link_img": "https://live.staticflickr.com/65535/49711730402_5c0803e750_o.jpg",
    "id_image": "Dragon_273939",
    "count_view": 0
  },
  {
    "link_thumb": "https://live.staticflickr.com/65535/49712182522_3625c66c4c_n.jpg",
    "id_album": "1402713104",
    "description": "Landscape_931948",
    "title": "Landscape_931948",
    "link_img": "https://live.staticflickr.com/65535/49712182522_0fa016deca_o.jpg",
    "id_image": "Landscape_931948",
    "count_view": 0
  },
  {
    "link_thumb": "https://live.staticflickr.com/65535/49710723878_80212a3de0_n.jpg",
    "id_album": "-437872736",
    "description": "Creature_683407",
    "title": "Creature_683407",
    "link_img": "https://live.staticflickr.com/65535/49710723878_c7d93b4707_o.jpg",
    "id_image": "Creature_683407",
    "count_view": 0
  },
  {
    "link_thumb": "https://live.staticflickr.com/65535/49712674012_50ff816647_n.jpg",
    "id_album": "-1126835654",
    "description": "Women_993988",
    "title": "Women_993988",
    "link_img": "https://live.staticflickr.com/65535/49712674012_a3d8f544bf_o.jpg",
    "id_image": "Women_993988",
    "count_view": 0
  },
  {
    "link_thumb": "https://live.staticflickr.com/65535/49711923352_5d81198df8_n.jpg",
    "id_album": "134100487",
    "description": "Elf_107006",
    "title": "Elf_107006",
    "link_img": "https://live.staticflickr.com/65535/49711923352_255dafb204_o.jpg",
    "id_image": "Elf_107006",
    "count_view": 0
  },
  {
    "link_thumb": "https://live.staticflickr.com/65535/49710774623_62165772e9_n.jpg",
    "id_album": "2021464556",
    "description": "Dark_123547",
    "title": "Dark_123547",
    "link_img": "https://live.staticflickr.com/65535/49710774623_720949c947_o.jpg",
    "id_image": "Dark_123547",
    "count_view": 0
  },
  {
    "link_thumb": "https://live.staticflickr.com/65535/49711355478_5ff6943576_n.jpg",
    "id_album": "-833110404",
    "description": "Landscape_182952",
    "title": "Landscape_182952",
    "link_img": "https://live.staticflickr.com/65535/49711355478_ece6828dd1_o.jpg",
    "id_image": "Landscape_182952",
    "count_view": 0
  },
  {
    "link_thumb": "https://live.staticflickr.com/65535/49711950823_f6bfe5aeb0_n.jpg",
    "id_album": "-867594484",
    "description": "Women_502229",
    "title": "Women_502229",
    "link_img": "https://live.staticflickr.com/65535/49711950823_279b6c1a44_o.jpg",
    "id_image": "Women_502229",
    "count_view": 0
  },
  {
    "link_thumb": "https://live.staticflickr.com/65535/49711154791_339f540a3b_n.jpg",
    "id_album": "-437872736",
    "description": "Creature_187720",
    "title": "Creature_187720",
    "link_img": "https://live.staticflickr.com/65535/49711154791_6279fb4cce_o.jpg",
    "id_image": "Creature_187720",
    "count_view": 0
  },
  {
    "link_thumb": "https://live.staticflickr.com/65535/49712276936_045f862238_n.jpg",
    "id_album": "-709711865",
    "description": "Wolf_558908",
    "title": "Wolf_558908",
    "link_img": "https://live.staticflickr.com/65535/49712276936_858ccb4ec5_o.jpg",
    "id_image": "Wolf_558908",
    "count_view": 0
  },
  {
    "link_thumb": "https://live.staticflickr.com/65535/49711170703_1722a459ea_n.jpg",
    "id_album": "-1083189875",
    "description": "Forest_694868",
    "title": "Forest_694868",
    "link_img": "https://live.staticflickr.com/65535/49711170703_e963312ae9_o.jpg",
    "id_image": "Forest_694868",
    "count_view": 0
  },
  {
    "link_thumb": "https://live.staticflickr.com/65535/49711848777_93f4ecb263_n.jpg",
    "id_album": "850176884",
    "description": "Dragon_78873",
    "title": "Dragon_78873",
    "link_img": "https://live.staticflickr.com/65535/49711848777_1b6533acc3_o.jpg",
    "id_image": "Dragon_78873",
    "count_view": 0
  },
  {
    "link_thumb": "https://live.staticflickr.com/65535/49711056656_dd81d72253_n.jpg",
    "id_album": "-1541846310",
    "description": "Castle_753976",
    "title": "Castle_753976",
    "link_img": "https://live.staticflickr.com/65535/49711056656_f52a8ffc2f_o.jpg",
    "id_image": "Castle_753976",
    "count_view": 0
  },
  {
    "link_thumb": "https://live.staticflickr.com/65535/49711495692_1d3caf4e59_n.jpg",
    "id_album": "-437872736",
    "description": "Creature_267598",
    "title": "Creature_267598",
    "link_img": "https://live.staticflickr.com/65535/49711495692_f93645984c_o.jpg",
    "id_image": "Creature_267598",
    "count_view": 0
  },
  {
    "link_thumb": "https://live.staticflickr.com/65535/49712109961_cccf8cd3ae_n.jpg",
    "id_album": "-1611961467",
    "description": "Samurai_711448",
    "title": "Samurai_711448",
    "link_img": "https://live.staticflickr.com/65535/49712109961_0809b8c369_o.jpg",
    "id_image": "Samurai_711448",
    "count_view": 0
  },
  {
    "link_thumb": "https://live.staticflickr.com/65535/49711186923_323ec7494d_n.jpg",
    "id_album": "-1083189875",
    "description": "Forest_933971",
    "title": "Forest_933971",
    "link_img": "https://live.staticflickr.com/65535/49711186923_41e55c9282_o.jpg",
    "id_image": "Forest_933971",
    "count_view": 0
  },
  {
    "link_thumb": "https://live.staticflickr.com/65535/49710976326_e79cf28d88_n.jpg",
    "id_album": "523598895",
    "description": "Artistic_618357",
    "title": "Artistic_618357",
    "link_img": "https://live.staticflickr.com/65535/49710976326_737b9d3a7c_o.jpg",
    "id_image": "Artistic_618357",
    "count_view": 0
  },
  {
    "link_thumb": "https://live.staticflickr.com/65535/49710982138_338855a727_n.jpg",
    "id_album": "850176884",
    "description": "Dragon_732346",
    "title": "Dragon_732346",
    "link_img": "https://live.staticflickr.com/65535/49710982138_0fa9d39a1b_o.jpg",
    "id_image": "Dragon_732346",
    "count_view": 0
  },
  {
    "link_thumb": "https://live.staticflickr.com/65535/49711673147_8451bb3fc5_n.jpg",
    "id_album": "850176884",
    "description": "DRAGON26101916500741",
    "title": "DRAGON26101916500741",
    "link_img": "https://live.staticflickr.com/65535/49711673147_52d5bcb178_o.jpg",
    "id_image": "DRAGON26101916500741",
    "count_view": 0
  },
  {
    "link_thumb": "https://live.staticflickr.com/65535/49711671447_11251e4e14_n.jpg",
    "id_album": "850176884",
    "description": "DRAGON26101916494512",
    "title": "DRAGON26101916494512",
    "link_img": "https://live.staticflickr.com/65535/49711671447_61d5dab6d8_o.jpg",
    "id_image": "DRAGON26101916494512",
    "count_view": 0
  },
  {
    "link_thumb": "https://live.staticflickr.com/65535/49711522907_aeac241bb4_n.jpg",
    "id_album": "-437872736",
    "description": "Creature_326048",
    "title": "Creature_326048",
    "link_img": "https://live.staticflickr.com/65535/49711522907_84d6999227_o.jpg",
    "id_image": "Creature_326048",
    "count_view": 0
  },
  {
    "link_thumb": "https://live.staticflickr.com/65535/49710521113_b352f12480_n.jpg",
    "id_album": "-1541846310",
    "description": "Castle_772048",
    "title": "Castle_772048",
    "link_img": "https://live.staticflickr.com/65535/49710521113_184dec9421_o.jpg",
    "id_image": "Castle_772048",
    "count_view": 0
  },
  {
    "link_thumb": "https://live.staticflickr.com/65535/49711278647_a1a491b7c8_n.jpg",
    "id_album": "523598895",
    "description": "Artistic_221476",
    "title": "Artistic_221476",
    "link_img": "https://live.staticflickr.com/65535/49711278647_78295fccf7_o.jpg",
    "id_image": "Artistic_221476",
    "count_view": 0
  },
  {
    "link_thumb": "https://live.staticflickr.com/65535/49710963638_2150406204_n.jpg",
    "id_album": "850176884",
    "description": "Dragon_638942",
    "title": "Dragon_638942",
    "link_img": "https://live.staticflickr.com/65535/49710963638_462e69b9fe_o.jpg",
    "id_image": "Dragon_638942",
    "count_view": 0
  },
  {
    "link_thumb": "https://live.staticflickr.com/65535/49711575176_f1ba371c9e_n.jpg",
    "id_album": "850176884",
    "description": "Dragon_949807",
    "title": "Dragon_949807",
    "link_img": "https://live.staticflickr.com/65535/49711575176_a77f61a1e5_o.jpg",
    "id_image": "Dragon_949807",
    "count_view": 0
  },
  {
    "link_thumb": "https://live.staticflickr.com/65535/49711901621_742e5bfcd6_n.jpg",
    "id_album": "-833110404",
    "description": "Landscape_264527",
    "title": "Landscape_264527",
    "link_img": "https://live.staticflickr.com/65535/49711901621_303c202275_o.jpg",
    "id_image": "Landscape_264527",
    "count_view": 0
  },
  {
    "link_thumb": "https://live.staticflickr.com/65535/49711133476_cc476b8f63_n.jpg",
    "id_album": "-1964113117",
    "description": "City_954008",
    "title": "City_954008",
    "link_img": "https://live.staticflickr.com/65535/49711133476_ed1e72d59d_o.jpg",
    "id_image": "City_954008",
    "count_view": 0
  },
  {
    "link_thumb": "https://live.staticflickr.com/65535/49711855867_5dc898bb15_n.jpg",
    "id_album": "850176884",
    "description": "Dragon_84834",
    "title": "Dragon_84834",
    "link_img": "https://live.staticflickr.com/65535/49711855867_b5a161f705_o.jpg",
    "id_image": "Dragon_84834",
    "count_view": 0
  },
  {
    "link_thumb": "https://live.staticflickr.com/65535/49711219206_559fd46e05_n.jpg",
    "id_album": "-437872736",
    "description": "Creature_375681",
    "title": "Creature_375681",
    "link_img": "https://live.staticflickr.com/65535/49711219206_294a513ff6_o.jpg",
    "id_image": "Creature_375681",
    "count_view": 0
  },
  {
    "link_thumb": "https://live.staticflickr.com/65535/49711445911_f389b13bf2_n.jpg",
    "id_album": "850176884",
    "description": "Dragon_438459",
    "title": "Dragon_438459",
    "link_img": "https://live.staticflickr.com/65535/49711445911_592f4cb410_o.jpg",
    "id_image": "Dragon_438459",
    "count_view": 0
  },
  {
    "link_thumb": "https://live.staticflickr.com/65535/49712466941_6d9f0361c3_n.jpg",
    "id_album": "1861288871",
    "description": "Women_783853",
    "title": "Women_783853",
    "link_img": "https://live.staticflickr.com/65535/49712466941_b9a18b7c80_o.jpg",
    "id_image": "Women_783853",
    "count_view": 0
  },
  {
    "link_thumb": "https://live.staticflickr.com/65535/49712270307_de5fcc6fc7_n.jpg",
    "id_album": "-833110404",
    "description": "Landscape_446823",
    "title": "Landscape_446823",
    "link_img": "https://live.staticflickr.com/65535/49712270307_841dcee034_o.jpg",
    "id_image": "Landscape_446823",
    "count_view": 0
  },
  {
    "link_thumb": "https://live.staticflickr.com/65535/49711409747_ca0d8c1b17_n.jpg",
    "id_album": "430704260",
    "description": "Child_938170",
    "title": "Child_938170",
    "link_img": "https://live.staticflickr.com/65535/49711409747_f4def5d852_o.jpg",
    "id_image": "Child_938170",
    "count_view": 0
  },
  {
    "link_thumb": "https://live.staticflickr.com/65535/49712458402_cdc78f44e8_n.jpg",
    "id_album": "-395228614",
    "description": "Ship_542652",
    "title": "Ship_542652",
    "link_img": "https://live.staticflickr.com/65535/49712458402_baa6a190c3_o.jpg",
    "id_image": "Ship_542652",
    "count_view": 0
  },
  {
    "link_thumb": "https://live.staticflickr.com/65535/49710641263_6f0357e3ab_n.jpg",
    "id_album": "-437872736",
    "description": "Creature_284817",
    "title": "Creature_284817",
    "link_img": "https://live.staticflickr.com/65535/49710641263_2f4f65276f_o.jpg",
    "id_image": "Creature_284817",
    "count_view": 0
  },
  {
    "link_thumb": "https://live.staticflickr.com/65535/49710904236_4110c43ede_n.jpg",
    "id_album": "-1913845949",
    "description": "Animal_618367",
    "title": "Animal_618367",
    "link_img": "https://live.staticflickr.com/65535/49710904236_49c4fb0962_o.jpg",
    "id_image": "Animal_618367",
    "count_view": 0
  },
  {
    "link_thumb": "https://live.staticflickr.com/65535/49711992202_7ee78a999d_n.jpg",
    "id_album": "-1972042284",
    "description": "Fairy_494078",
    "title": "Fairy_494078",
    "link_img": "https://live.staticflickr.com/65535/49711992202_a2b9bbbcf1_o.jpg",
    "id_image": "Fairy_494078",
    "count_view": 0
  },
  {
    "link_thumb": "https://live.staticflickr.com/65535/49710551868_0480b6bea7_n.jpg",
    "id_album": "-1964113117",
    "description": "City_118394",
    "title": "City_118394",
    "link_img": "https://live.staticflickr.com/65535/49710551868_3bd2bf9767_o.jpg",
    "id_image": "City_118394",
    "count_view": 0
  },
  {
    "link_thumb": "https://live.staticflickr.com/65535/49711480032_64970d1455_n.jpg",
    "id_album": "-437872736",
    "description": "Creature_189580",
    "title": "Creature_189580",
    "link_img": "https://live.staticflickr.com/65535/49711480032_22caed5862_o.jpg",
    "id_image": "Creature_189580",
    "count_view": 0
  },
  {
    "link_thumb": "https://live.staticflickr.com/65535/49712379067_a946952eab_n.jpg",
    "id_album": "-1862561193",
    "description": "Other_237002",
    "title": "Other_237002",
    "link_img": "https://live.staticflickr.com/65535/49712379067_d32d929fee_o.jpg",
    "id_image": "Other_237002",
    "count_view": 0
  },
  {
    "link_thumb": "https://live.staticflickr.com/65535/49711532217_e6ff26a22c_n.jpg",
    "id_album": "-437872736",
    "description": "Creature_341326",
    "title": "Creature_341326",
    "link_img": "https://live.staticflickr.com/65535/49711532217_6c50f849c7_o.jpg",
    "id_image": "Creature_341326",
    "count_view": 0
  },
  {
    "link_thumb": "https://live.staticflickr.com/65535/49712511157_c24ec84ed7_n.jpg",
    "id_album": "43335239",
    "description": "Vampire_527140",
    "title": "Vampire_527140",
    "link_img": "https://live.staticflickr.com/65535/49712511157_b25672fb3a_o.jpg",
    "id_image": "Vampire_527140",
    "count_view": 0
  },
  {
    "link_thumb": "https://live.staticflickr.com/65535/49711344901_639283c0ba_n.jpg",
    "id_album": "7198985",
    "description": "Demon_998449",
    "title": "Demon_998449",
    "link_img": "https://live.staticflickr.com/65535/49711344901_c64612cae3_o.jpg",
    "id_image": "Demon_998449",
    "count_view": 0
  },
  {
    "link_thumb": "https://live.staticflickr.com/65535/49711871142_c6f18807e8_n.jpg",
    "id_album": "850176884",
    "description": "Dragon_881064",
    "title": "Dragon_881064",
    "link_img": "https://live.staticflickr.com/65535/49711871142_621cfe490d_o.jpg",
    "id_image": "Dragon_881064",
    "count_view": 0
  },
  {
    "link_thumb": "https://live.staticflickr.com/65535/49710681533_3611926b8c_n.jpg",
    "id_album": "-437872736",
    "description": "Creature_370391",
    "title": "Creature_370391",
    "link_img": "https://live.staticflickr.com/65535/49710681533_456c4e5694_o.jpg",
    "id_image": "Creature_370391",
    "count_view": 0
  },
  {
    "link_thumb": "https://live.staticflickr.com/65535/49711560012_737d3bdf1a_n.jpg",
    "id_album": "-437872736",
    "description": "Creature_486481",
    "title": "Creature_486481",
    "link_img": "https://live.staticflickr.com/65535/49711560012_b3403c3449_o.jpg",
    "id_image": "Creature_486481",
    "count_view": 0
  },
  {
    "link_thumb": "https://live.staticflickr.com/65535/49710632333_693d77e4cf_n.jpg",
    "id_album": "-437872736",
    "description": "Creature_255546",
    "title": "Creature_255546",
    "link_img": "https://live.staticflickr.com/65535/49710632333_5fb5ecc689_o.jpg",
    "id_image": "Creature_255546",
    "count_view": 0
  },
  {
    "link_thumb": "https://live.staticflickr.com/65535/49710953493_de1b8af97e_n.jpg",
    "id_album": "850176884",
    "description": "Dragon_592806",
    "title": "Dragon_592806",
    "link_img": "https://live.staticflickr.com/65535/49710953493_39308ffec3_o.jpg",
    "id_image": "Dragon_592806",
    "count_view": 0
  },
  {
    "link_thumb": "https://live.staticflickr.com/65535/49711777491_76668014aa_n.jpg",
    "id_album": "-1967191405",
    "description": "Hydra_911867",
    "title": "Hydra_911867",
    "link_img": "https://live.staticflickr.com/65535/49711777491_83b6a6bb97_o.jpg",
    "id_image": "Hydra_911867",
    "count_view": 0
  },
  {
    "link_thumb": "https://live.staticflickr.com/65535/49710489163_104d3d90f1_n.jpg",
    "id_album": "406431601",
    "description": "Building_356756",
    "title": "Building_356756",
    "link_img": "https://live.staticflickr.com/65535/49710489163_48aa99a07f_o.jpg",
    "id_image": "Building_356756",
    "count_view": 0
  },
  {
    "link_thumb": "https://live.staticflickr.com/65535/49711979017_cfc7a01642_n.jpg",
    "id_album": "-1972042284",
    "description": "Fairy_312407",
    "title": "Fairy_312407",
    "link_img": "https://live.staticflickr.com/65535/49711979017_3612ab4e33_o.jpg",
    "id_image": "Fairy_312407",
    "count_view": 0
  },
  {
    "link_thumb": "https://live.staticflickr.com/65535/49712021166_576e56a162_n.jpg",
    "id_album": "-222719689",
    "description": "Men_967938",
    "title": "Men_967938",
    "link_img": "https://live.staticflickr.com/65535/49712021166_66b781aa3d_o.jpg",
    "id_image": "Men_967938",
    "count_view": 0
  },
  {
    "link_thumb": "https://live.staticflickr.com/65535/49711739971_9605aab64e_n.jpg",
    "id_album": "402434752",
    "description": "Giant_987361",
    "title": "Giant_987361",
    "link_img": "https://live.staticflickr.com/65535/49711739971_c5f5d6e59a_o.jpg",
    "id_image": "Giant_987361",
    "count_view": 0
  },
  {
    "link_thumb": "https://live.staticflickr.com/65535/49711946738_d214482783_n.jpg",
    "id_album": "1861288871",
    "description": "Women_833868",
    "title": "Women_833868",
    "link_img": "https://live.staticflickr.com/65535/49711946738_f96cd830ee_o.jpg",
    "id_image": "Women_833868",
    "count_view": 0
  },
  {
    "link_thumb": "https://live.staticflickr.com/65535/49712138237_f1980fd1d6_n.jpg",
    "id_album": "1402713104",
    "description": "Landscape_732345",
    "title": "Landscape_732345",
    "link_img": "https://live.staticflickr.com/65535/49712138237_326fa92f6a_o.jpg",
    "id_image": "Landscape_732345",
    "count_view": 0
  },
  {
    "link_thumb": "https://live.staticflickr.com/65535/49711301292_873514863d_n.jpg",
    "id_album": "523598895",
    "description": "Artistic_680395",
    "title": "Artistic_680395",
    "link_img": "https://live.staticflickr.com/65535/49711301292_b94a49ac63_o.jpg",
    "id_image": "Artistic_680395",
    "count_view": 0
  },
  {
    "link_thumb": "https://live.staticflickr.com/65535/49712046671_df89ca5b21_n.jpg",
    "id_album": "1892085513",
    "description": "Oriental_667738",
    "title": "Oriental_667738",
    "link_img": "https://live.staticflickr.com/65535/49712046671_354789bb5a_o.jpg",
    "id_image": "Oriental_667738",
    "count_view": 0
  },
  {
    "link_thumb": "https://live.staticflickr.com/65535/49710904756_1ede9a718c_n.jpg",
    "id_album": "-1913845949",
    "description": "Animal_636026",
    "title": "Animal_636026",
    "link_img": "https://live.staticflickr.com/65535/49710904756_27e9f9d124_o.jpg",
    "id_image": "Animal_636026",
    "count_view": 0
  },
  {
    "link_thumb": "https://live.staticflickr.com/65535/49711691683_b794115a51_n.jpg",
    "id_album": "-1261420436",
    "description": "Warrior_859549",
    "title": "Warrior_859549",
    "link_img": "https://live.staticflickr.com/65535/49711691683_934380d967_o.jpg",
    "id_image": "Warrior_859549",
    "count_view": 0
  },
  {
    "link_thumb": "https://live.staticflickr.com/65535/49893363431_b829475d5e_n.jpg",
    "id_album": "-1703946758",
    "description": "ANIME_PIC_516807fcc2612e120c9ed0e45a95b00d",
    "title": "ANIME_PIC_516807fcc2612e120c9ed0e45a95b00d",
    "link_img": "https://live.staticflickr.com/65535/49893363431_0dcfb94fe8_o.jpg",
    "id_image": "ANIME_PIC_516807fcc2612e120c9ed0e45a95b00d",
    "count_view": 0
  },
  {
    "link_thumb": "https://live.staticflickr.com/65535/49711784151_48073b4275_n.jpg",
    "id_album": "469960528",
    "description": "Knight_677431",
    "title": "Knight_677431",
    "link_img": "https://live.staticflickr.com/65535/49711784151_a2f26ba017_o.jpg",
    "id_image": "Knight_677431",
    "count_view": 0
  },
  {
    "link_thumb": "https://live.staticflickr.com/65535/49711113856_2fd3145fc6_n.jpg",
    "id_album": "-1964113117",
    "description": "City_699949",
    "title": "City_699949",
    "link_img": "https://live.staticflickr.com/65535/49711113856_b2254c9574_o.jpg",
    "id_image": "City_699949",
    "count_view": 0
  },
  {
    "link_thumb": "https://live.staticflickr.com/65535/49727410976_7429459d91_n.jpg",
    "id_album": "-437872736",
    "description": "Creature_672866",
    "title": "Creature_672866",
    "link_img": "https://live.staticflickr.com/65535/49727410976_220e7d6e2c_o.jpg",
    "id_image": "Creature_672866",
    "count_view": 0
  },
  {
    "link_thumb": "https://live.staticflickr.com/65535/49711110616_7bcaa7b35a_n.jpg",
    "id_album": "-1964113117",
    "description": "City_670088",
    "title": "City_670088",
    "link_img": "https://live.staticflickr.com/65535/49711110616_37fbf5f101_o.jpg",
    "id_image": "City_670088",
    "count_view": 0
  },
  {
    "link_thumb": "https://live.staticflickr.com/65535/49710360783_bcf4dfa052_n.jpg",
    "id_album": "-1913845949",
    "description": "Animal_183477",
    "title": "Animal_183477",
    "link_img": "https://live.staticflickr.com/65535/49710360783_aa2de8e5b7_o.jpg",
    "id_image": "Animal_183477",
    "count_view": 0
  },
  {
    "link_thumb": "https://live.staticflickr.com/65535/49711146088_77c1461cfb_n.jpg",
    "id_album": "-1972042284",
    "description": "Fairy_742051",
    "title": "Fairy_742051",
    "link_img": "https://live.staticflickr.com/65535/49711146088_c15b48c20a_o.jpg",
    "id_image": "Fairy_742051",
    "count_view": 0
  },
  {
    "link_thumb": "https://live.staticflickr.com/65535/49711226223_8a9752ee1a_n.jpg",
    "id_album": "-1933715543",
    "description": "Horse_732182",
    "title": "Horse_732182",
    "link_img": "https://live.staticflickr.com/65535/49711226223_939b9a60aa_o.jpg",
    "id_image": "Horse_732182",
    "count_view": 0
  },
  {
    "link_thumb": "https://live.staticflickr.com/65535/49711760292_899815cde1_n.jpg",
    "id_album": "850176884",
    "description": "Dragon_387893",
    "title": "Dragon_387893",
    "link_img": "https://live.staticflickr.com/65535/49711760292_0a6c1a640a_o.jpg",
    "id_image": "Dragon_387893",
    "count_view": 0
  },
  {
    "link_thumb": "https://live.staticflickr.com/65535/49710950358_70bd06e899_n.jpg",
    "id_album": "850176884",
    "description": "Dragon_582406",
    "title": "Dragon_582406",
    "link_img": "https://live.staticflickr.com/65535/49710950358_1530095beb_o.jpg",
    "id_image": "Dragon_582406",
    "count_view": 0
  }
]