[
  {
    "link_thumb": "https://live.staticflickr.com/65535/49710954931_f7b36ace2a_n.jpg",
    "id_album": "523598895",
    "description": "Artistic_224882",
    "title": "Artistic_224882",
    "link_img": "https://live.staticflickr.com/65535/49710954931_e5aa8b82d2_o.jpg",
    "id_image": "Artistic_224882",
    "count_view": 0
  },
  {
    "link_thumb": "https://live.staticflickr.com/65535/49711703428_fa1fc1df82_n.jpg",
    "id_album": "-1261420436",
    "description": "Warrior_956057",
    "title": "Warrior_956057",
    "link_img": "https://live.staticflickr.com/65535/49711703428_cd33b52767_o.jpg",
    "id_image": "Warrior_956057",
    "count_view": 0
  },
  {
    "link_thumb": "https://live.staticflickr.com/65535/49711722883_b7d7a8e767_n.jpg",
    "id_album": "478331085",
    "description": "Witch_241070",
    "title": "Witch_241070",
    "link_img": "https://live.staticflickr.com/65535/49711722883_f13934474b_o.jpg",
    "id_image": "Witch_241070",
    "count_view": 0
  },
  {
    "link_thumb": "https://live.staticflickr.com/65535/49711318747_3e32e5813f_n.jpg",
    "id_album": "1187037014",
    "description": "Battle_341737",
    "title": "Battle_341737",
    "link_img": "https://live.staticflickr.com/65535/49711318747_36e09a2797_o.jpg",
    "id_image": "Battle_341737",
    "count_view": 0
  },
  {
    "link_thumb": "https://live.staticflickr.com/65535/49711867143_d5e1b8c148_n.jpg",
    "id_album": "295204930",
    "description": "Women_461858",
    "title": "Women_461858",
    "link_img": "https://live.staticflickr.com/65535/49711867143_a83fa98139_o.jpg",
    "id_image": "Women_461858",
    "count_view": 0
  },
  {
    "link_thumb": "https://live.staticflickr.com/65535/49712012981_d27d43a6a4_n.jpg",
    "id_album": "-222719689",
    "description": "Men_100057",
    "title": "Men_100057",
    "link_img": "https://live.staticflickr.com/65535/49712012981_2c52033052_o.jpg",
    "id_image": "Men_100057",
    "count_view": 0
  },
  {
    "link_thumb": "https://live.staticflickr.com/65535/49712344972_2bd37a80d9_n.jpg",
    "id_album": "-222719689",
    "description": "Men_977307",
    "title": "Men_977307",
    "link_img": "https://live.staticflickr.com/65535/49712344972_79e4874bc8_o.jpg",
    "id_image": "Men_977307",
    "count_view": 0
  },
  {
    "link_thumb": "https://live.staticflickr.com/65535/49710924866_83361cab61_n.jpg",
    "id_album": "-1913845949",
    "description": "Animal_970458",
    "title": "Animal_970458",
    "link_img": "https://live.staticflickr.com/65535/49710924866_e1769a61fe_o.jpg",
    "id_image": "Animal_970458",
    "count_view": 0
  },
  {
    "link_thumb": "https://live.staticflickr.com/65535/49712551832_2f1b8bb6c5_n.jpg",
    "id_album": "-1261420436",
    "description": "Warrior_898624",
    "title": "Warrior_898624",
    "link_img": "https://live.staticflickr.com/65535/49712551832_7624ae2be3_o.jpg",
    "id_image": "Warrior_898624",
    "count_view": 0
  },
  {
    "link_thumb": "https://live.staticflickr.com/65535/49710395688_040b54b83f_n.jpg",
    "id_album": "-1560111795",
    "description": "Archer_274047",
    "title": "Archer_274047",
    "link_img": "https://live.staticflickr.com/65535/49710395688_887dde6107_o.jpg",
    "id_image": "Archer_274047",
    "count_view": 0
  },
  {
    "link_thumb": "https://live.staticflickr.com/65535/49711338092_2c64439cf8_n.jpg",
    "id_album": "1187037014",
    "description": "Battle_993652",
    "title": "Battle_993652",
    "link_img": "https://live.staticflickr.com/65535/49711338092_a5b6ac9a31_o.jpg",
    "id_image": "Battle_993652",
    "count_view": 0
  },
  {
    "link_thumb": "https://live.staticflickr.com/65535/49711969103_23db5bc5be_n.jpg",
    "id_album": "-867594484",
    "description": "Women_552371",
    "title": "Women_552371",
    "link_img": "https://live.staticflickr.com/65535/49711969103_76ac1004d6_o.jpg",
    "id_image": "Women_552371",
    "count_view": 0
  },
  {
    "link_thumb": "https://live.staticflickr.com/65535/49711755412_fecc13b3b2_n.jpg",
    "id_album": "850176884",
    "description": "Dragon_372697",
    "title": "Dragon_372697",
    "link_img": "https://live.staticflickr.com/65535/49711755412_8437347d80_o.jpg",
    "id_image": "Dragon_372697",
    "count_view": 0
  },
  {
    "link_thumb": "https://live.staticflickr.com/65535/49711507027_0ec070333e_n.jpg",
    "id_album": "-437872736",
    "description": "Creature_302385",
    "title": "Creature_302385",
    "link_img": "https://live.staticflickr.com/65535/49711507027_29a387694f_o.jpg",
    "id_image": "Creature_302385",
    "count_view": 0
  },
  {
    "link_thumb": "https://live.staticflickr.com/65535/49710989891_99fdea0f7e_n.jpg",
    "id_album": "1187037014",
    "description": "Battle_291387",
    "title": "Battle_291387",
    "link_img": "https://live.staticflickr.com/65535/49710989891_05f161af55_o.jpg",
    "id_image": "Battle_291387",
    "count_view": 0
  },
  {
    "link_thumb": "https://live.staticflickr.com/65535/49712301827_9b810b4464_n.jpg",
    "id_album": "416744915",
    "description": "Lion_121453",
    "title": "Lion_121453",
    "link_img": "https://live.staticflickr.com/65535/49712301827_447a23859a_o.jpg",
    "id_image": "Lion_121453",
    "count_view": 0
  },
  {
    "link_thumb": "https://live.staticflickr.com/65535/49710945523_3a59dfb7b6_n.jpg",
    "id_album": "850176884",
    "description": "Dragon_562580",
    "title": "Dragon_562580",
    "link_img": "https://live.staticflickr.com/65535/49710945523_ef13b70b5d_o.jpg",
    "id_image": "Dragon_562580",
    "count_view": 0
  },
  {
    "link_thumb": "https://live.staticflickr.com/65535/49710742243_dae9d7f94c_n.jpg",
    "id_album": "-437872736",
    "description": "Creature_958644",
    "title": "Creature_958644",
    "link_img": "https://live.staticflickr.com/65535/49710742243_f0283d482e_o.jpg",
    "id_image": "Creature_958644",
    "count_view": 0
  },
  {
    "link_thumb": "https://live.staticflickr.com/65535/49711204781_6e0904bf0b_n.jpg",
    "id_album": "-437872736",
    "description": "Creature_339911",
    "title": "Creature_339911",
    "link_img": "https://live.staticflickr.com/65535/49711204781_625175d49d_o.jpg",
    "id_image": "Creature_339911",
    "count_view": 0
  },
  {
    "link_thumb": "https://live.staticflickr.com/65535/49712649477_5180844342_n.jpg",
    "id_album": "-1126835654",
    "description": "Women_884832",
    "title": "Women_884832",
    "link_img": "https://live.staticflickr.com/65535/49712649477_543f7b9eb2_o.jpg",
    "id_image": "Women_884832",
    "count_view": 0
  },
  {
    "link_thumb": "https://live.staticflickr.com/65535/49712264986_f70065e694_n.jpg",
    "id_album": "478331085",
    "description": "Witch_925002",
    "title": "Witch_925002",
    "link_img": "https://live.staticflickr.com/65535/49712264986_2bc6e560c9_o.jpg",
    "id_image": "Witch_925002",
    "count_view": 0
  },
  {
    "link_thumb": "https://live.staticflickr.com/65535/49711590567_e32622dc4a_n.jpg",
    "id_album": "-437872736",
    "description": "Creature_76371",
    "title": "Creature_76371",
    "link_img": "https://live.staticflickr.com/65535/49711590567_f34e787c0b_o.jpg",
    "id_image": "Creature_76371",
    "count_view": 0
  },
  {
    "link_thumb": "https://live.staticflickr.com/65535/49711605843_da3a76441c_n.jpg",
    "id_album": "-5356651",
    "description": "Sorcerer_129830",
    "title": "Sorcerer_129830",
    "link_img": "https://live.staticflickr.com/65535/49711605843_e17cb3ee7d_o.jpg",
    "id_image": "Sorcerer_129830",
    "count_view": 0
  },
  {
    "link_thumb": "https://live.staticflickr.com/65535/49711778857_b73608c96c_n.jpg",
    "id_album": "850176884",
    "description": "Dragon_47699",
    "title": "Dragon_47699",
    "link_img": "https://live.staticflickr.com/65535/49711778857_488b905cc5_o.jpg",
    "id_image": "Dragon_47699",
    "count_view": 0
  },
  {
    "link_thumb": "https://live.staticflickr.com/65535/49711948503_3cced9ccc0_n.jpg",
    "id_album": "1861288871",
    "description": "Women_840090",
    "title": "Women_840090",
    "link_img": "https://live.staticflickr.com/65535/49711948503_ccdfd1da84_o.jpg",
    "id_image": "Women_840090",
    "count_view": 0
  },
  {
    "link_thumb": "https://live.staticflickr.com/65535/49711451946_387c5f7acd_n.jpg",
    "id_album": "850176884",
    "description": "Dragon_451191",
    "title": "Dragon_451191",
    "link_img": "https://live.staticflickr.com/65535/49711451946_6f8b14a934_o.jpg",
    "id_image": "Dragon_451191",
    "count_view": 0
  },
  {
    "link_thumb": "https://live.staticflickr.com/65535/49711829162_ce4844af99_n.jpg",
    "id_album": "850176884",
    "description": "Dragon_693915",
    "title": "Dragon_693915",
    "link_img": "https://live.staticflickr.com/65535/49711829162_e96080b5b1_o.jpg",
    "id_image": "Dragon_693915",
    "count_view": 0
  },
  {
    "link_thumb": "https://live.staticflickr.com/65535/49711505138_8385af3677_n.jpg",
    "id_album": "1892085513",
    "description": "Oriental_293592",
    "title": "Oriental_293592",
    "link_img": "https://live.staticflickr.com/65535/49711505138_6f16494a51_o.jpg",
    "id_image": "Oriental_293592",
    "count_view": 0
  },
  {
    "link_thumb": "https://live.staticflickr.com/65535/49711766901_144dd793ba_n.jpg",
    "id_album": "1957967226",
    "description": "House_527924",
    "title": "House_527924",
    "link_img": "https://live.staticflickr.com/65535/49711766901_f2c505fd11_o.jpg",
    "id_image": "House_527924",
    "count_view": 0
  },
  {
    "link_thumb": "https://live.staticflickr.com/65535/49711638127_585c1d9790_n.jpg",
    "id_album": "2021464556",
    "description": "Dark_175900",
    "title": "Dark_175900",
    "link_img": "https://live.staticflickr.com/65535/49711638127_07c9d385cc_o.jpg",
    "id_image": "Dark_175900",
    "count_view": 0
  },
  {
    "link_thumb": "https://live.staticflickr.com/65535/49711319047_7615718f15_n.jpg",
    "id_album": "1187037014",
    "description": "Battle_347695",
    "title": "Battle_347695",
    "link_img": "https://live.staticflickr.com/65535/49711319047_3b2bb323b4_o.jpg",
    "id_image": "Battle_347695",
    "count_view": 0
  },
  {
    "link_thumb": "https://live.staticflickr.com/65535/49710353083_139123fa66_n.jpg",
    "id_album": "-1000175186",
    "description": "AngelWarrior_787922",
    "title": "AngelWarrior_787922",
    "link_img": "https://live.staticflickr.com/65535/49710353083_6c6e45dafe_o.jpg",
    "id_image": "AngelWarrior_787922",
    "count_view": 0
  },
  {
    "link_thumb": "https://live.staticflickr.com/65535/49711081953_c5636d2f79_n.jpg",
    "id_album": "134100487",
    "description": "Elf_505582",
    "title": "Elf_505582",
    "link_img": "https://live.staticflickr.com/65535/49711081953_996304f86b_o.jpg",
    "id_image": "Elf_505582",
    "count_view": 0
  },
  {
    "link_thumb": "https://live.staticflickr.com/65535/49712405837_b747bf3286_n.jpg",
    "id_album": "1587588550",
    "description": "Place_205908",
    "title": "Place_205908",
    "link_img": "https://live.staticflickr.com/65535/49712405837_371b40a185_o.jpg",
    "id_image": "Place_205908",
    "count_view": 0
  },
  {
    "link_thumb": "https://live.staticflickr.com/65535/49711854252_d3cea163bd_n.jpg",
    "id_album": "850176884",
    "description": "Dragon_830434",
    "title": "Dragon_830434",
    "link_img": "https://live.staticflickr.com/65535/49711854252_9c5bc2b094_o.jpg",
    "id_image": "Dragon_830434",
    "count_view": 0
  },
  {
    "link_thumb": "https://live.staticflickr.com/65535/49712686911_a947b684d3_n.jpg",
    "id_album": "-1675918237",
    "description": "WomenWarrior_864371",
    "title": "WomenWarrior_864371",
    "link_img": "https://live.staticflickr.com/65535/49712686911_956c596ab6_o.jpg",
    "id_image": "WomenWarrior_864371",
    "count_view": 0
  },
  {
    "link_thumb": "https://live.staticflickr.com/65535/49711727637_bae4636b7b_n.jpg",
    "id_album": "850176884",
    "description": "Dragon_269587",
    "title": "Dragon_269587",
    "link_img": "https://live.staticflickr.com/65535/49711727637_c5139664d6_o.jpg",
    "id_image": "Dragon_269587",
    "count_view": 0
  },
  {
    "link_thumb": "https://live.staticflickr.com/65535/49710734478_6078aa664e_n.jpg",
    "id_album": "-437872736",
    "description": "Creature_872842",
    "title": "Creature_872842",
    "link_img": "https://live.staticflickr.com/65535/49710734478_2bf49d66f6_o.jpg",
    "id_image": "Creature_872842",
    "count_view": 0
  },
  {
    "link_thumb": "https://live.staticflickr.com/65535/49711399118_b572dcaf24_n.jpg",
    "id_album": "-833110404",
    "description": "Landscape_398714",
    "title": "Landscape_398714",
    "link_img": "https://live.staticflickr.com/65535/49711399118_304e4559c8_o.jpg",
    "id_image": "Landscape_398714",
    "count_view": 0
  },
  {
    "link_thumb": "https://live.staticflickr.com/65535/49711851087_721d2f17c2_n.jpg",
    "id_album": "850176884",
    "description": "Dragon_803330",
    "title": "Dragon_803330",
    "link_img": "https://live.staticflickr.com/65535/49711851087_e64cff5770_o.jpg",
    "id_image": "Dragon_803330",
    "count_view": 0
  },
  {
    "link_thumb": "https://live.staticflickr.com/65535/49710324528_80afd43696_n.jpg",
    "id_album": "-218097820",
    "description": "ASongOfIceAndFire_874269",
    "title": "ASongOfIceAndFire_874269",
    "link_img": "https://live.staticflickr.com/65535/49710324528_9afcf79fd7_o.jpg",
    "id_image": "ASongOfIceAndFire_874269",
    "count_view": 0
  },
  {
    "link_thumb": "https://live.staticflickr.com/65535/49799153077_1e6ed5b3e6_n.jpg",
    "id_album": "-1703946758",
    "description": "ANIME_PIC_ef4395409e818e5592d04db330288cf6",
    "title": "ANIME_PIC_ef4395409e818e5592d04db330288cf6",
    "link_img": "https://live.staticflickr.com/65535/49799153077_22330694b5_o.jpg",
    "id_image": "ANIME_PIC_ef4395409e818e5592d04db330288cf6",
    "count_view": 0
  },
  {
    "link_thumb": "https://live.staticflickr.com/65535/49711009481_90a69e24e1_n.jpg",
    "id_album": "1187037014",
    "description": "Battle_792318",
    "title": "Battle_792318",
    "link_img": "https://live.staticflickr.com/65535/49711009481_159a483d04_o.jpg",
    "id_image": "Battle_792318",
    "count_view": 0
  },
  {
    "link_thumb": "https://live.staticflickr.com/65535/49710430883_1354da6c36_n.jpg",
    "id_album": "523598895",
    "description": "Artistic_376416",
    "title": "Artistic_376416",
    "link_img": "https://live.staticflickr.com/65535/49710430883_bbdbef1c43_o.jpg",
    "id_image": "Artistic_376416",
    "count_view": 0
  },
  {
    "link_thumb": "https://live.staticflickr.com/65535/49712082198_0ee2b84691_n.jpg",
    "id_album": "-1675918237",
    "description": "WomenWarrior_494086",
    "title": "WomenWarrior_494086",
    "link_img": "https://live.staticflickr.com/65535/49712082198_54289fda14_o.jpg",
    "id_image": "WomenWarrior_494086",
    "count_view": 0
  },
  {
    "link_thumb": "https://live.staticflickr.com/65535/49711464816_abe1a33d49_n.jpg",
    "id_album": "850176884",
    "description": "Dragon_497604",
    "title": "Dragon_497604",
    "link_img": "https://live.staticflickr.com/65535/49711464816_f6829b4396_o.jpg",
    "id_image": "Dragon_497604",
    "count_view": 0
  },
  {
    "link_thumb": "https://live.staticflickr.com/65535/49712010667_17d8e9f141_n.jpg",
    "id_album": "-1972042284",
    "description": "Fairy_94874",
    "title": "Fairy_94874",
    "link_img": "https://live.staticflickr.com/65535/49712010667_5465e326c0_o.jpg",
    "id_image": "Fairy_94874",
    "count_view": 0
  },
  {
    "link_thumb": "https://live.staticflickr.com/65535/49711875751_0ab943f07f_n.jpg",
    "id_album": "1402713104",
    "description": "Landscape_960712",
    "title": "Landscape_960712",
    "link_img": "https://live.staticflickr.com/65535/49711875751_3d273843ba_o.jpg",
    "id_image": "Landscape_960712",
    "count_view": 0
  },
  {
    "link_thumb": "https://live.staticflickr.com/65535/49711348327_65ff2282bc_n.jpg",
    "id_album": "406431601",
    "description": "Building_530254",
    "title": "Building_530254",
    "link_img": "https://live.staticflickr.com/65535/49711348327_1e670f88ec_o.jpg",
    "id_image": "Building_530254",
    "count_view": 0
  },
  {
    "link_thumb": "https://live.staticflickr.com/65535/49712402657_07136ba730_n.jpg",
    "id_album": "-300361534",
    "description": "Pirate_252940",
    "title": "Pirate_252940",
    "link_img": "https://live.staticflickr.com/65535/49712402657_f80bfcdeba_o.jpg",
    "id_image": "Pirate_252940",
    "count_view": 0
  },
  {
    "link_thumb": "https://live.staticflickr.com/65535/49710329878_4578539d4a_n.jpg",
    "id_album": "-2109465612",
    "description": "Adventure_247200",
    "title": "Adventure_247200",
    "link_img": "https://live.staticflickr.com/65535/49710329878_0814113655_o.jpg",
    "id_image": "Adventure_247200",
    "count_view": 0
  },
  {
    "link_thumb": "https://live.staticflickr.com/65535/49710858776_6164533e07_n.jpg",
    "id_album": "-218097820",
    "description": "ASongOfIceAndFire_874189",
    "title": "ASongOfIceAndFire_874189",
    "link_img": "https://live.staticflickr.com/65535/49710858776_4911b59a3d_o.jpg",
    "id_image": "ASongOfIceAndFire_874189",
    "count_view": 0
  },
  {
    "link_thumb": "https://live.staticflickr.com/65535/49712953252_96f400fa52_n.jpg",
    "id_album": "-1675918237",
    "description": "WomenWarrior_528444",
    "title": "WomenWarrior_528444",
    "link_img": "https://live.staticflickr.com/65535/49712953252_97e2c4301e_o.jpg",
    "id_image": "WomenWarrior_528444",
    "count_view": 0
  },
  {
    "link_thumb": "https://live.staticflickr.com/65535/49712589562_28b3abaf59_n.jpg",
    "id_album": "-656526651",
    "description": "Wizard_616972",
    "title": "Wizard_616972",
    "link_img": "https://live.staticflickr.com/65535/49712589562_17df5bfe8e_o.jpg",
    "id_image": "Wizard_616972",
    "count_view": 0
  },
  {
    "link_thumb": "https://live.staticflickr.com/65535/49712559727_9533c56b99_n.jpg",
    "id_album": "-1261420436",
    "description": "Warrior_928551",
    "title": "Warrior_928551",
    "link_img": "https://live.staticflickr.com/65535/49712559727_218f0407da_o.jpg",
    "id_image": "Warrior_928551",
    "count_view": 0
  },
  {
    "link_thumb": "https://live.staticflickr.com/65535/49711100743_9428f11c63_n.jpg",
    "id_album": "134100487",
    "description": "Elf_796466",
    "title": "Elf_796466",
    "link_img": "https://live.staticflickr.com/65535/49711100743_8d93c27e05_o.jpg",
    "id_image": "Elf_796466",
    "count_view": 0
  },
  {
    "link_thumb": "https://live.staticflickr.com/65535/49710414253_7ea09f567d_n.jpg",
    "id_album": "523598895",
    "description": "Artistic_173484",
    "title": "Artistic_173484",
    "link_img": "https://live.staticflickr.com/65535/49710414253_c691c53571_o.jpg",
    "id_image": "Artistic_173484",
    "count_view": 0
  },
  {
    "link_thumb": "https://live.staticflickr.com/65535/49710326608_b008c69066_n.jpg",
    "id_album": "-2109465612",
    "description": "Adventure_238429",
    "title": "Adventure_238429",
    "link_img": "https://live.staticflickr.com/65535/49710326608_6c4f2270c6_o.jpg",
    "id_image": "Adventure_238429",
    "count_view": 0
  },
  {
    "link_thumb": "https://live.staticflickr.com/65535/49711243253_51d5659e6b_n.jpg",
    "id_album": "469960528",
    "description": "Knight_224870",
    "title": "Knight_224870",
    "link_img": "https://live.staticflickr.com/65535/49711243253_ef4146a1e5_o.jpg",
    "id_image": "Knight_224870",
    "count_view": 0
  },
  {
    "link_thumb": "https://live.staticflickr.com/65535/49711651112_4149a10b03_n.jpg",
    "id_album": "1903411565",
    "description": "Deer_592862",
    "title": "Deer_592862",
    "link_img": "https://live.staticflickr.com/65535/49711651112_50951550c6_o.jpg",
    "id_image": "Deer_592862",
    "count_view": 0
  },
  {
    "link_thumb": "https://live.staticflickr.com/65535/49711588628_22b92c6a52_n.jpg",
    "id_album": "407101116",
    "description": "SeaMonster_779401",
    "title": "SeaMonster_779401",
    "link_img": "https://live.staticflickr.com/65535/49711588628_078a4d2c84_o.jpg",
    "id_image": "SeaMonster_779401",
    "count_view": 0
  },
  {
    "link_thumb": "https://live.staticflickr.com/65535/49798260473_0a945395f6_n.jpg",
    "id_album": "-1703946758",
    "description": "ANIME_PIC_2f4637d4fc93611c5867308ef1fe76b5",
    "title": "ANIME_PIC_2f4637d4fc93611c5867308ef1fe76b5",
    "link_img": "https://live.staticflickr.com/65535/49798260473_20f4a12407_o.jpg",
    "id_image": "ANIME_PIC_2f4637d4fc93611c5867308ef1fe76b5",
    "count_view": 0
  },
  {
    "link_thumb": "https://live.staticflickr.com/65535/49711683342_2b1df52138_n.jpg",
    "id_album": "850176884",
    "description": "Dragon_122290",
    "title": "Dragon_122290",
    "link_img": "https://live.staticflickr.com/65535/49711683342_2348648712_o.jpg",
    "id_image": "Dragon_122290",
    "count_view": 0
  },
  {
    "link_thumb": "https://live.staticflickr.com/65535/49711743171_78e6e46df4_n.jpg",
    "id_album": "1131236559",
    "description": "Gods_239343",
    "title": "Gods_239343",
    "link_img": "https://live.staticflickr.com/65535/49711743171_90b846eddc_o.jpg",
    "id_image": "Gods_239343",
    "count_view": 0
  },
  {
    "link_thumb": "https://live.staticflickr.com/65535/49712796467_9518d95bc9_n.jpg",
    "id_album": "1861288871",
    "description": "Women_805726",
    "title": "Women_805726",
    "link_img": "https://live.staticflickr.com/65535/49712796467_f23d38ca47_o.jpg",
    "id_image": "Women_805726",
    "count_view": 0
  },
  {
    "link_thumb": "https://live.staticflickr.com/65535/49710956891_c6fa3cec4c_n.jpg",
    "id_album": "523598895",
    "description": "Artistic_242816",
    "title": "Artistic_242816",
    "link_img": "https://live.staticflickr.com/65535/49710956891_62f3138857_o.jpg",
    "id_image": "Artistic_242816",
    "count_view": 0
  },
  {
    "link_thumb": "https://live.staticflickr.com/65535/49712382406_84e78a932e_n.jpg",
    "id_album": "295204930",
    "description": "Women_345169",
    "title": "Women_345169",
    "link_img": "https://live.staticflickr.com/65535/49712382406_b6213234bc_o.jpg",
    "id_image": "Women_345169",
    "count_view": 0
  },
  {
    "link_thumb": "https://live.staticflickr.com/65535/49711795833_ea37ac24e6_n.jpg",
    "id_album": "-1126835654",
    "description": "Women_889345",
    "title": "Women_889345",
    "link_img": "https://live.staticflickr.com/65535/49711795833_4bfe810cfe_o.jpg",
    "id_image": "Women_889345",
    "count_view": 0
  },
  {
    "link_thumb": "https://live.staticflickr.com/65535/49711430852_dfd71fc63b_n.jpg",
    "id_album": "-1964113117",
    "description": "City_552098",
    "title": "City_552098",
    "link_img": "https://live.staticflickr.com/65535/49711430852_9917316762_o.jpg",
    "id_image": "City_552098",
    "count_view": 0
  },
  {
    "link_thumb": "https://live.staticflickr.com/65535/49712685856_1f1a1d2d85_n.jpg",
    "id_album": "-1675918237",
    "description": "WomenWarrior_861005",
    "title": "WomenWarrior_861005",
    "link_img": "https://live.staticflickr.com/65535/49712685856_171f498c2a_o.jpg",
    "id_image": "WomenWarrior_861005",
    "count_view": 0
  },
  {
    "link_thumb": "https://live.staticflickr.com/65535/49710378458_79fbc8646d_n.jpg",
    "id_album": "-1913845949",
    "description": "Animal_636302",
    "title": "Animal_636302",
    "link_img": "https://live.staticflickr.com/65535/49710378458_95c05901ff_o.jpg",
    "id_image": "Animal_636302",
    "count_view": 0
  },
  {
    "link_thumb": "https://live.staticflickr.com/65535/49712537736_67869b4e97_n.jpg",
    "id_album": "-867594484",
    "description": "Women_691920",
    "title": "Women_691920",
    "link_img": "https://live.staticflickr.com/65535/49712537736_e51e780cf1_o.jpg",
    "id_image": "Women_691920",
    "count_view": 0
  },
  {
    "link_thumb": "https://live.staticflickr.com/65535/49711397113_fb70868df5_n.jpg",
    "id_album": "-833110404",
    "description": "Landscape_394451",
    "title": "Landscape_394451",
    "link_img": "https://live.staticflickr.com/65535/49711397113_d9d16f2ae2_o.jpg",
    "id_image": "Landscape_394451",
    "count_view": 0
  },
  {
    "link_thumb": "https://live.staticflickr.com/65535/49711486882_2ebe84e9f1_n.jpg",
    "id_album": "-437872736",
    "description": "Creature_225249",
    "title": "Creature_225249",
    "link_img": "https://live.staticflickr.com/65535/49711486882_1b326c5459_o.jpg",
    "id_image": "Creature_225249",
    "count_view": 0
  },
  {
    "link_thumb": "https://live.staticflickr.com/65535/49712376061_48630ecd4b_n.jpg",
    "id_album": "295204930",
    "description": "Women_322950",
    "title": "Women_322950",
    "link_img": "https://live.staticflickr.com/65535/49712376061_6d98bf2f79_o.jpg",
    "id_image": "Women_322950",
    "count_view": 0
  },
  {
    "link_thumb": "https://live.staticflickr.com/65535/49712777327_e6da1548f8_n.jpg",
    "id_album": "1861288871",
    "description": "Women_748734",
    "title": "Women_748734",
    "link_img": "https://live.staticflickr.com/65535/49712777327_d552cdc7e8_o.jpg",
    "id_image": "Women_748734",
    "count_view": 0
  },
  {
    "link_thumb": "https://live.staticflickr.com/65535/49710475438_ce0b2cd4de_n.jpg",
    "id_album": "1187037014",
    "description": "Battle_779581",
    "title": "Battle_779581",
    "link_img": "https://live.staticflickr.com/65535/49710475438_008a13ed0e_o.jpg",
    "id_image": "Battle_779581",
    "count_view": 0
  },
  {
    "link_thumb": "https://live.staticflickr.com/65535/49712239982_6d94af221a_n.jpg",
    "id_album": "-833110404",
    "description": "Landscape_293843",
    "title": "Landscape_293843",
    "link_img": "https://live.staticflickr.com/65535/49712239982_23c61ff276_o.jpg",
    "id_image": "Landscape_293843",
    "count_view": 0
  },
  {
    "link_thumb": "https://live.staticflickr.com/65535/49711521212_6f845e099a_n.jpg",
    "id_album": "-437872736",
    "description": "Creature_324092",
    "title": "Creature_324092",
    "link_img": "https://live.staticflickr.com/65535/49711521212_289781091a_o.jpg",
    "id_image": "Creature_324092",
    "count_view": 0
  },
  {
    "link_thumb": "https://live.staticflickr.com/65535/49712165736_be99924195_n.jpg",
    "id_album": "405170427",
    "description": "Tiger_792515",
    "title": "Tiger_792515",
    "link_img": "https://live.staticflickr.com/65535/49712165736_6321820fd4_o.jpg",
    "id_image": "Tiger_792515",
    "count_view": 0
  },
  {
    "link_thumb": "https://live.staticflickr.com/65535/49710445198_d21f581729_n.jpg",
    "id_album": "523598895",
    "description": "Artistic_709257",
    "title": "Artistic_709257",
    "link_img": "https://live.staticflickr.com/65535/49710445198_052cee01de_o.jpg",
    "id_image": "Artistic_709257",
    "count_view": 0
  },
  {
    "link_thumb": "https://live.staticflickr.com/65535/49712270891_9796b177d2_n.jpg",
    "id_album": "-709711865",
    "description": "Wolf_156229",
    "title": "Wolf_156229",
    "link_img": "https://live.staticflickr.com/65535/49712270891_6edba948c1_o.jpg",
    "id_image": "Wolf_156229",
    "count_view": 0
  },
  {
    "link_thumb": "https://live.staticflickr.com/65535/49711483287_b598f93c17_n.jpg",
    "id_album": "-437872736",
    "description": "Creature_214275",
    "title": "Creature_214275",
    "link_img": "https://live.staticflickr.com/65535/49711483287_5fee0ee37b_o.jpg",
    "id_image": "Creature_214275",
    "count_view": 0
  },
  {
    "link_thumb": "https://live.staticflickr.com/65535/49711651448_2547bb9df2_n.jpg",
    "id_album": "431597977",
    "description": "Unicorn_993677",
    "title": "Unicorn_993677",
    "link_img": "https://live.staticflickr.com/65535/49711651448_f4dd99e039_o.jpg",
    "id_image": "Unicorn_993677",
    "count_view": 0
  },
  {
    "link_thumb": "https://live.staticflickr.com/65535/49712492772_1c0c62656c_n.jpg",
    "id_album": "46520366",
    "description": "Turtle_310639",
    "title": "Turtle_310639",
    "link_img": "https://live.staticflickr.com/65535/49712492772_d5c85447af_o.jpg",
    "id_image": "Turtle_310639",
    "count_view": 0
  },
  {
    "link_thumb": "https://live.staticflickr.com/65535/49712284131_c902e74819_n.jpg",
    "id_album": "-709711865",
    "description": "Wolf_655551",
    "title": "Wolf_655551",
    "link_img": "https://live.staticflickr.com/65535/49712284131_4ed6807bcf_o.jpg",
    "id_image": "Wolf_655551",
    "count_view": 0
  },
  {
    "link_thumb": "https://live.staticflickr.com/65535/49711695122_757af79e18_n.jpg",
    "id_album": "850176884",
    "description": "Dragon_146471",
    "title": "Dragon_146471",
    "link_img": "https://live.staticflickr.com/65535/49711695122_98bccb80ed_o.jpg",
    "id_image": "Dragon_146471",
    "count_view": 0
  },
  {
    "link_thumb": "https://live.staticflickr.com/65535/49711123353_f2a4aab2d2_n.jpg",
    "id_album": "-1972042284",
    "description": "Fairy_338134",
    "title": "Fairy_338134",
    "link_img": "https://live.staticflickr.com/65535/49711123353_f35c110718_o.jpg",
    "id_image": "Fairy_338134",
    "count_view": 0
  },
  {
    "link_thumb": "https://live.staticflickr.com/65535/49711916122_76b6a7524e_n.jpg",
    "id_album": "850176884",
    "description": "Dragon_996007",
    "title": "Dragon_996007",
    "link_img": "https://live.staticflickr.com/65535/49711916122_066acb85fd_o.jpg",
    "id_image": "Dragon_996007",
    "count_view": 0
  },
  {
    "link_thumb": "https://live.staticflickr.com/65535/49711691226_e8fa6beb0f_n.jpg",
    "id_album": "-1083189875",
    "description": "Forest_225875",
    "title": "Forest_225875",
    "link_img": "https://live.staticflickr.com/65535/49711691226_80ffb70cb1_o.jpg",
    "id_image": "Forest_225875",
    "count_view": 0
  },
  {
    "link_thumb": "https://live.staticflickr.com/65535/49711769536_8397f71495_n.jpg",
    "id_album": "1957967226",
    "description": "House_702844",
    "title": "House_702844",
    "link_img": "https://live.staticflickr.com/65535/49711769536_22e2dfe3cb_o.jpg",
    "id_image": "House_702844",
    "count_view": 0
  },
  {
    "link_thumb": "https://live.staticflickr.com/65535/49711748787_3ce7d63edd_n.jpg",
    "id_album": "850176884",
    "description": "Dragon_335202",
    "title": "Dragon_335202",
    "link_img": "https://live.staticflickr.com/65535/49711748787_8583f4fbe8_o.jpg",
    "id_image": "Dragon_335202",
    "count_view": 0
  },
  {
    "link_thumb": "https://live.staticflickr.com/65535/49712569147_082d934216_n.jpg",
    "id_album": "1173975892",
    "description": "Werewolf_603822",
    "title": "Werewolf_603822",
    "link_img": "https://live.staticflickr.com/65535/49712569147_719a2a202e_o.jpg",
    "id_image": "Werewolf_603822",
    "count_view": 0
  },
  {
    "link_thumb": "https://live.staticflickr.com/65535/49711375432_26f54b6179_n.jpg",
    "id_album": "-1541846310",
    "description": "Castle_685224",
    "title": "Castle_685224",
    "link_img": "https://live.staticflickr.com/65535/49711375432_86e36823d8_o.jpg",
    "id_image": "Castle_685224",
    "count_view": 0
  },
  {
    "link_thumb": "https://live.staticflickr.com/65535/49712450252_8aa1a84486_n.jpg",
    "id_album": "-395228614",
    "description": "Ship_113894",
    "title": "Ship_113894",
    "link_img": "https://live.staticflickr.com/65535/49712450252_04353966ee_o.jpg",
    "id_image": "Ship_113894",
    "count_view": 0
  },
  {
    "link_thumb": "https://live.staticflickr.com/65535/49711979578_44300aa648_n.jpg",
    "id_album": "-867594484",
    "description": "Women_581998",
    "title": "Women_581998",
    "link_img": "https://live.staticflickr.com/65535/49711979578_186207d70a_o.jpg",
    "id_image": "Women_581998",
    "count_view": 0
  },
  {
    "link_thumb": "https://live.staticflickr.com/65535/49711993393_b4dcffb339_n.jpg",
    "id_album": "-867594484",
    "description": "Women_659604",
    "title": "Women_659604",
    "link_img": "https://live.staticflickr.com/65535/49711993393_214c17d64d_o.jpg",
    "id_image": "Women_659604",
    "count_view": 0
  },
  {
    "link_thumb": "https://live.staticflickr.com/65535/49710719003_ba0cb24bf0_n.jpg",
    "id_album": "-437872736",
    "description": "Creature_640719",
    "title": "Creature_640719",
    "link_img": "https://live.staticflickr.com/65535/49710719003_ac318cc2b1_o.jpg",
    "id_image": "Creature_640719",
    "count_view": 0
  },
  {
    "link_thumb": "https://live.staticflickr.com/65535/49711735937_78b00fd205_n.jpg",
    "id_album": "850176884",
    "description": "Dragon_305942",
    "title": "Dragon_305942",
    "link_img": "https://live.staticflickr.com/65535/49711735937_43d6ee511e_o.jpg",
    "id_image": "Dragon_305942",
    "count_view": 0
  },
  {
    "link_thumb": "https://live.staticflickr.com/65535/49711017496_1c7c18d752_n.jpg",
    "id_album": "-1846011410",
    "description": "Bird_635015",
    "title": "Bird_635015",
    "link_img": "https://live.staticflickr.com/65535/49711017496_4052e5fe48_o.jpg",
    "id_image": "Bird_635015",
    "count_view": 0
  },
  {
    "link_thumb": "https://live.staticflickr.com/65535/49712217782_ea9260382b_n.jpg",
    "id_album": "-833110404",
    "description": "Landscape_235709",
    "title": "Landscape_235709",
    "link_img": "https://live.staticflickr.com/65535/49712217782_b5b1e027a9_o.jpg",
    "id_image": "Landscape_235709",
    "count_view": 0
  },
  {
    "link_thumb": "https://live.staticflickr.com/65535/49711351261_64d5692b12_n.jpg",
    "id_album": "850176884",
    "description": "DRAGON26101916502259",
    "title": "DRAGON26101916502259",
    "link_img": "https://live.staticflickr.com/65535/49711351261_ba99108289_o.jpg",
    "id_image": "DRAGON26101916502259",
    "count_view": 0
  },
  {
    "link_thumb": "https://live.staticflickr.com/65535/49711412937_8ce5d09584_n.jpg",
    "id_album": "-1964113117",
    "description": "City_150266",
    "title": "City_150266",
    "link_img": "https://live.staticflickr.com/65535/49711412937_db2335a4a2_o.jpg",
    "id_image": "City_150266",
    "count_view": 0
  },
  {
    "link_thumb": "https://live.staticflickr.com/65535/49711694818_4e4b98f673_n.jpg",
    "id_album": "-1261420436",
    "description": "Warrior_900232",
    "title": "Warrior_900232",
    "link_img": "https://live.staticflickr.com/65535/49711694818_30ffe96173_o.jpg",
    "id_image": "Warrior_900232",
    "count_view": 0
  },
  {
    "link_thumb": "https://live.staticflickr.com/65535/49711201886_3917bde3c7_n.jpg",
    "id_album": "-437872736",
    "description": "Creature_331865",
    "title": "Creature_331865",
    "link_img": "https://live.staticflickr.com/65535/49711201886_39f84d7469_o.jpg",
    "id_image": "Creature_331865",
    "count_view": 0
  },
  {
    "link_thumb": "https://live.staticflickr.com/65535/49711807731_0422ae0c4f_n.jpg",
    "id_album": "1402713104",
    "description": "Landscape_709112",
    "title": "Landscape_709112",
    "link_img": "https://live.staticflickr.com/65535/49711807731_dba343752e_o.jpg",
    "id_image": "Landscape_709112",
    "count_view": 0
  },
  {
    "link_thumb": "https://live.staticflickr.com/65535/49711806131_6e0eff77a9_n.jpg",
    "id_album": "1402713104",
    "description": "Landscape_705238",
    "title": "Landscape_705238",
    "link_img": "https://live.staticflickr.com/65535/49711806131_da74fcb00b_o.jpg",
    "id_image": "Landscape_705238",
    "count_view": 0
  },
  {
    "link_thumb": "https://live.staticflickr.com/65535/49712179326_59186678b7_n.jpg",
    "id_album": "431597977",
    "description": "Unicorn_439039",
    "title": "Unicorn_439039",
    "link_img": "https://live.staticflickr.com/65535/49712179326_d6c6bd9ced_o.jpg",
    "id_image": "Unicorn_439039",
    "count_view": 0
  },
  {
    "link_thumb": "https://live.staticflickr.com/65535/49711859007_b66bd08872_n.jpg",
    "id_album": "850176884",
    "description": "Dragon_857959",
    "title": "Dragon_857959",
    "link_img": "https://live.staticflickr.com/65535/49711859007_775c7beb68_o.jpg",
    "id_image": "Dragon_857959",
    "count_view": 0
  },
  {
    "link_thumb": "https://live.staticflickr.com/65535/49712597036_2650764c8f_n.jpg",
    "id_album": "-1675918237",
    "description": "WomenWarrior_455988",
    "title": "WomenWarrior_455988",
    "link_img": "https://live.staticflickr.com/65535/49712597036_127abb1b06_o.jpg",
    "id_image": "WomenWarrior_455988",
    "count_view": 0
  },
  {
    "link_thumb": "https://live.staticflickr.com/65535/49712512486_c91df9964b_n.jpg",
    "id_album": "-867594484",
    "description": "Women_572882",
    "title": "Women_572882",
    "link_img": "https://live.staticflickr.com/65535/49712512486_3d6a9192d6_o.jpg",
    "id_image": "Women_572882",
    "count_view": 0
  },
  {
    "link_thumb": "https://live.staticflickr.com/65535/49712379897_49712c7ab6_n.jpg",
    "id_album": "-1862561193",
    "description": "Other_274003",
    "title": "Other_274003",
    "link_img": "https://live.staticflickr.com/65535/49712379897_73ff39b2e4_o.jpg",
    "id_image": "Other_274003",
    "count_view": 0
  },
  {
    "link_thumb": "https://live.staticflickr.com/65535/49712301932_3b152f887c_n.jpg",
    "id_album": "416744915",
    "description": "Lion_180663",
    "title": "Lion_180663",
    "link_img": "https://live.staticflickr.com/65535/49712301932_53dcfacbbb_o.jpg",
    "id_image": "Lion_180663",
    "count_view": 0
  },
  {
    "link_thumb": "https://live.staticflickr.com/65535/49711450276_bbbdb19d1b_n.jpg",
    "id_album": "850176884",
    "description": "Dragon_449579",
    "title": "Dragon_449579",
    "link_img": "https://live.staticflickr.com/65535/49711450276_49c5e310f5_o.jpg",
    "id_image": "Dragon_449579",
    "count_view": 0
  },
  {
    "link_thumb": "https://live.staticflickr.com/65535/49711529197_a753bde8fa_n.jpg",
    "id_album": "-437872736",
    "description": "Creature_336319",
    "title": "Creature_336319",
    "link_img": "https://live.staticflickr.com/65535/49711529197_85c710ed6f_o.jpg",
    "id_image": "Creature_336319",
    "count_view": 0
  },
  {
    "link_thumb": "https://live.staticflickr.com/65535/49712694502_143b2d28be_n.jpg",
    "id_album": "295204930",
    "description": "Women_280081",
    "title": "Women_280081",
    "link_img": "https://live.staticflickr.com/65535/49712694502_93fb0861b9_o.jpg",
    "id_image": "Women_280081",
    "count_view": 0
  },
  {
    "link_thumb": "https://live.staticflickr.com/65535/49711225207_ded46c3a52_n.jpg",
    "id_album": "-1913845949",
    "description": "Animal_400776",
    "title": "Animal_400776",
    "link_img": "https://live.staticflickr.com/65535/49711225207_86b179d17f_o.jpg",
    "id_image": "Animal_400776",
    "count_view": 0
  },
  {
    "link_thumb": "https://live.staticflickr.com/65535/49713028517_de3ff0cf16_n.jpg",
    "id_album": "-1675918237",
    "description": "WomenWarrior_994310",
    "title": "WomenWarrior_994310",
    "link_img": "https://live.staticflickr.com/65535/49713028517_982defe71a_o.jpg",
    "id_image": "WomenWarrior_994310",
    "count_view": 0
  },
  {
    "link_thumb": "https://live.staticflickr.com/65535/49711409487_0b479c6e15_n.jpg",
    "id_album": "430704260",
    "description": "Child_926004",
    "title": "Child_926004",
    "link_img": "https://live.staticflickr.com/65535/49711409487_4635d5b4a7_o.jpg",
    "id_image": "Child_926004",
    "count_view": 0
  },
  {
    "link_thumb": "https://live.staticflickr.com/65535/49711658923_61920189af_n.jpg",
    "id_album": "19263973",
    "description": "Viking_996988",
    "title": "Viking_996988",
    "link_img": "https://live.staticflickr.com/65535/49711658923_d572c6306e_o.jpg",
    "id_image": "Viking_996988",
    "count_view": 0
  },
  {
    "link_thumb": "https://live.staticflickr.com/65535/49710668908_ff5654eede_n.jpg",
    "id_album": "-437872736",
    "description": "Creature_338439",
    "title": "Creature_338439",
    "link_img": "https://live.staticflickr.com/65535/49710668908_fd4fe94e1c_o.jpg",
    "id_image": "Creature_338439",
    "count_view": 0
  },
  {
    "link_thumb": "https://live.staticflickr.com/65535/49712453267_4afb72c48e_n.jpg",
    "id_album": "-395228614",
    "description": "Ship_210444",
    "title": "Ship_210444",
    "link_img": "https://live.staticflickr.com/65535/49712453267_f70aa4f995_o.jpg",
    "id_image": "Ship_210444",
    "count_view": 0
  },
  {
    "link_thumb": "https://live.staticflickr.com/65535/49712298062_59c74b7b9f_n.jpg",
    "id_album": "-1284959130",
    "description": "LegendOfTheFiveRings_175369",
    "title": "LegendOfTheFiveRings_175369",
    "link_img": "https://live.staticflickr.com/65535/49712298062_5fd8b59ea1_o.jpg",
    "id_image": "LegendOfTheFiveRings_175369",
    "count_view": 0
  },
  {
    "link_thumb": "https://live.staticflickr.com/65535/49710870038_5c911aaae4_n.jpg",
    "id_album": "850176884",
    "description": "Dragon_270109",
    "title": "Dragon_270109",
    "link_img": "https://live.staticflickr.com/65535/49710870038_d9c2439602_o.jpg",
    "id_image": "Dragon_270109",
    "count_view": 0
  },
  {
    "link_thumb": "https://live.staticflickr.com/65535/49710346998_a3db61f079_n.jpg",
    "id_album": "-1000175186",
    "description": "AngelWarrior_493998",
    "title": "AngelWarrior_493998",
    "link_img": "https://live.staticflickr.com/65535/49710346998_0dafd597eb_o.jpg",
    "id_image": "AngelWarrior_493998",
    "count_view": 0
  },
  {
    "link_thumb": "https://live.staticflickr.com/65535/49711362181_cb483091ed_n.jpg",
    "id_album": "850176884",
    "description": "Dragon_122313",
    "title": "Dragon_122313",
    "link_img": "https://live.staticflickr.com/65535/49711362181_9d1f59a336_o.jpg",
    "id_image": "Dragon_122313",
    "count_view": 0
  },
  {
    "link_thumb": "https://live.staticflickr.com/65535/49712006087_43ebe1f44f_n.jpg",
    "id_album": "-1972042284",
    "description": "Fairy_840110",
    "title": "Fairy_840110",
    "link_img": "https://live.staticflickr.com/65535/49712006087_be036e3b51_o.jpg",
    "id_image": "Fairy_840110",
    "count_view": 0
  },
  {
    "link_thumb": "https://live.staticflickr.com/65535/49711301882_afcf50b3d1_n.jpg",
    "id_album": "523598895",
    "description": "Artistic_685885",
    "title": "Artistic_685885",
    "link_img": "https://live.staticflickr.com/65535/49711301882_912b5bc0ac_o.jpg",
    "id_image": "Artistic_685885",
    "count_view": 0
  },
  {
    "link_thumb": "https://live.staticflickr.com/65535/49710570598_0147c35d84_n.jpg",
    "id_album": "-1964113117",
    "description": "City_528594",
    "title": "City_528594",
    "link_img": "https://live.staticflickr.com/65535/49710570598_8405d535a5_o.jpg",
    "id_image": "City_528594",
    "count_view": 0
  },
  {
    "link_thumb": "https://live.staticflickr.com/65535/49711754058_58c70c8e5f_n.jpg",
    "id_album": "-709711865",
    "description": "Wolf_739404",
    "title": "Wolf_739404",
    "link_img": "https://live.staticflickr.com/65535/49711754058_b85a24e222_o.jpg",
    "id_image": "Wolf_739404",
    "count_view": 0
  },
  {
    "link_thumb": "https://live.staticflickr.com/65535/49711024488_bfab92bb4b_n.jpg",
    "id_album": "850176884",
    "description": "Dragon_909820",
    "title": "Dragon_909820",
    "link_img": "https://live.staticflickr.com/65535/49711024488_006cf7155d_o.jpg",
    "id_image": "Dragon_909820",
    "count_view": 0
  },
  {
    "link_thumb": "https://live.staticflickr.com/65535/49711716121_3a2fba9209_n.jpg",
    "id_album": "-1083189875",
    "description": "Forest_876319",
    "title": "Forest_876319",
    "link_img": "https://live.staticflickr.com/65535/49711716121_4108fc0e9b_o.jpg",
    "id_image": "Forest_876319",
    "count_view": 0
  },
  {
    "link_thumb": "https://live.staticflickr.com/65535/49712183197_861ebb284b_n.jpg",
    "id_album": "1402713104",
    "description": "Landscape_934620",
    "title": "Landscape_934620",
    "link_img": "https://live.staticflickr.com/65535/49712183197_68a63f4dcb_o.jpg",
    "id_image": "Landscape_934620",
    "count_view": 0
  },
  {
    "link_thumb": "https://live.staticflickr.com/65535/49710693778_c074a070e2_n.jpg",
    "id_album": "-437872736",
    "description": "Creature_409672",
    "title": "Creature_409672",
    "link_img": "https://live.staticflickr.com/65535/49710693778_7ba4f29c2e_o.jpg",
    "id_image": "Creature_409672",
    "count_view": 0
  },
  {
    "link_thumb": "https://live.staticflickr.com/65535/49711057221_725c2bcce0_n.jpg",
    "id_album": "-1541846310",
    "description": "Castle_777017",
    "title": "Castle_777017",
    "link_img": "https://live.staticflickr.com/65535/49711057221_4535d3ecde_o.jpg",
    "id_image": "Castle_777017",
    "count_view": 0
  },
  {
    "link_thumb": "https://live.staticflickr.com/65535/49711277472_3c88c35392_n.jpg",
    "id_album": "523598895",
    "description": "Artistic_214280",
    "title": "Artistic_214280",
    "link_img": "https://live.staticflickr.com/65535/49711277472_3dc43f32ec_o.jpg",
    "id_image": "Artistic_214280",
    "count_view": 0
  },
  {
    "link_thumb": "https://live.staticflickr.com/65535/49711846787_40e8247ba5_n.jpg",
    "id_album": "850176884",
    "description": "Dragon_784053",
    "title": "Dragon_784053",
    "link_img": "https://live.staticflickr.com/65535/49711846787_59f1de3dd6_o.jpg",
    "id_image": "Dragon_784053",
    "count_view": 0
  },
  {
    "link_thumb": "https://live.staticflickr.com/65535/49711723856_ceb369285b_n.jpg",
    "id_album": "-128218148",
    "description": "Fox_758101",
    "title": "Fox_758101",
    "link_img": "https://live.staticflickr.com/65535/49711723856_2857ba2b12_o.jpg",
    "id_image": "Fox_758101",
    "count_view": 0
  },
  {
    "link_thumb": "https://live.staticflickr.com/65535/49711314856_4686ee1231_n.jpg",
    "id_album": "2021464556",
    "description": "Dark_183777",
    "title": "Dark_183777",
    "link_img": "https://live.staticflickr.com/65535/49711314856_4c6ba8bceb_o.jpg",
    "id_image": "Dark_183777",
    "count_view": 0
  },
  {
    "link_thumb": "https://live.staticflickr.com/65535/49710921031_7fb73f0721_n.jpg",
    "id_album": "-1913845949",
    "description": "Animal_910935",
    "title": "Animal_910935",
    "link_img": "https://live.staticflickr.com/65535/49710921031_2cf188fd6a_o.jpg",
    "id_image": "Animal_910935",
    "count_view": 0
  },
  {
    "link_thumb": "https://live.staticflickr.com/65535/49711321202_f92b56a2b1_n.jpg",
    "id_album": "1187037014",
    "description": "Battle_386990",
    "title": "Battle_386990",
    "link_img": "https://live.staticflickr.com/65535/49711321202_02e64494dd_o.jpg",
    "id_image": "Battle_386990",
    "count_view": 0
  },
  {
    "link_thumb": "https://live.staticflickr.com/65535/49711479596_cccb063dd1_n.jpg",
    "id_album": "850176884",
    "description": "Dragon_553266",
    "title": "Dragon_553266",
    "link_img": "https://live.staticflickr.com/65535/49711479596_7a29863d9a_o.jpg",
    "id_image": "Dragon_553266",
    "count_view": 0
  },
  {
    "link_thumb": "https://live.staticflickr.com/65535/49712626817_3ba1cd25ac_n.jpg",
    "id_album": "-1126835654",
    "description": "Women_112739",
    "title": "Women_112739",
    "link_img": "https://live.staticflickr.com/65535/49712626817_685c1718a6_o.jpg",
    "id_image": "Women_112739",
    "count_view": 0
  },
  {
    "link_thumb": "https://live.staticflickr.com/65535/49711642481_0d23dd84c6_n.jpg",
    "id_album": "134100487",
    "description": "Elf_969753",
    "title": "Elf_969753",
    "link_img": "https://live.staticflickr.com/65535/49711642481_2bd03d8790_o.jpg",
    "id_image": "Elf_969753",
    "count_view": 0
  },
  {
    "link_thumb": "https://live.staticflickr.com/65535/49711251713_f0ecdd8cc6_n.jpg",
    "id_album": "469960528",
    "description": "Knight_784933",
    "title": "Knight_784933",
    "link_img": "https://live.staticflickr.com/65535/49711251713_af0d6c3399_o.jpg",
    "id_image": "Knight_784933",
    "count_view": 0
  },
  {
    "link_thumb": "https://live.staticflickr.com/65535/49711783966_182c616f71_n.jpg",
    "id_album": "469960528",
    "description": "Knight_65909",
    "title": "Knight_65909",
    "link_img": "https://live.staticflickr.com/65535/49711783966_64071c588a_o.jpg",
    "id_image": "Knight_65909",
    "count_view": 0
  },
  {
    "link_thumb": "https://live.staticflickr.com/65535/49710953086_d29774c906_n.jpg",
    "id_album": "523598895",
    "description": "Artistic_212499",
    "title": "Artistic_212499",
    "link_img": "https://live.staticflickr.com/65535/49710953086_84ce75bdb2_o.jpg",
    "id_image": "Artistic_212499",
    "count_view": 0
  },
  {
    "link_thumb": "https://live.staticflickr.com/65535/49711665501_effb3184a2_n.jpg",
    "id_album": "-1972042284",
    "description": "Fairy_438453",
    "title": "Fairy_438453",
    "link_img": "https://live.staticflickr.com/65535/49711665501_39d28b07a6_o.jpg",
    "id_image": "Fairy_438453",
    "count_view": 0
  },
  {
    "link_thumb": "https://live.staticflickr.com/65535/49711522383_d804bf1485_n.jpg",
    "id_album": "-1862561193",
    "description": "Other_304651",
    "title": "Other_304651",
    "link_img": "https://live.staticflickr.com/65535/49711522383_311538dd6b_o.jpg",
    "id_image": "Other_304651",
    "count_view": 0
  },
  {
    "link_thumb": "https://live.staticflickr.com/65535/49711988072_009ea1fb6f_n.jpg",
    "id_album": "-1972042284",
    "description": "Fairy_400384",
    "title": "Fairy_400384",
    "link_img": "https://live.staticflickr.com/65535/49711988072_a041eed75d_o.jpg",
    "id_image": "Fairy_400384",
    "count_view": 0
  },
  {
    "link_thumb": "https://live.staticflickr.com/65535/49710473578_6695e34d30_n.jpg",
    "id_album": "1187037014",
    "description": "Battle_694346",
    "title": "Battle_694346",
    "link_img": "https://live.staticflickr.com/65535/49710473578_9caed75894_o.jpg",
    "id_image": "Battle_694346",
    "count_view": 0
  },
  {
    "link_thumb": "https://live.staticflickr.com/65535/49712378916_2e38c23ee7_n.jpg",
    "id_album": "295204930",
    "description": "Women_335077",
    "title": "Women_335077",
    "link_img": "https://live.staticflickr.com/65535/49712378916_63277da78c_o.jpg",
    "id_image": "Women_335077",
    "count_view": 0
  },
  {
    "link_thumb": "https://live.staticflickr.com/65535/49711184961_a24e3e505d_n.jpg",
    "id_album": "-437872736",
    "description": "Creature_307414",
    "title": "Creature_307414",
    "link_img": "https://live.staticflickr.com/65535/49711184961_f85885d395_o.jpg",
    "id_image": "Creature_307414",
    "count_view": 0
  },
  {
    "link_thumb": "https://live.staticflickr.com/65535/49711754807_f7aabb1af0_n.jpg",
    "id_album": "850176884",
    "description": "Dragon_370576",
    "title": "Dragon_370576",
    "link_img": "https://live.staticflickr.com/65535/49711754807_6ec08247cb_o.jpg",
    "id_image": "Dragon_370576",
    "count_view": 0
  },
  {
    "link_thumb": "https://live.staticflickr.com/65535/49711394612_6d899d8949_n.jpg",
    "id_album": "-1741487325",
    "description": "Cat_676361",
    "title": "Cat_676361",
    "link_img": "https://live.staticflickr.com/65535/49711394612_9306eb50c1_o.jpg",
    "id_image": "Cat_676361",
    "count_view": 0
  },
  {
    "link_thumb": "https://live.staticflickr.com/65535/49711019808_071e521d02_n.jpg",
    "id_album": "850176884",
    "description": "Dragon_900223",
    "title": "Dragon_900223",
    "link_img": "https://live.staticflickr.com/65535/49711019808_96ab18b12a_o.jpg",
    "id_image": "Dragon_900223",
    "count_view": 0
  },
  {
    "link_thumb": "https://live.staticflickr.com/65535/49711792378_53bc02eb20_n.jpg",
    "id_album": "-1126835654",
    "description": "Women_884549",
    "title": "Women_884549",
    "link_img": "https://live.staticflickr.com/65535/49711792378_f047e5f4c2_o.jpg",
    "id_image": "Women_884549",
    "count_view": 0
  },
  {
    "link_thumb": "https://live.staticflickr.com/65535/49711104031_13f59ed975_n.jpg",
    "id_album": "-1964113117",
    "description": "City_516509",
    "title": "City_516509",
    "link_img": "https://live.staticflickr.com/65535/49711104031_c3e2032336_o.jpg",
    "id_image": "City_516509",
    "count_view": 0
  },
  {
    "link_thumb": "https://live.staticflickr.com/65535/49710771898_2a4da8c9d9_n.jpg",
    "id_album": "-437872736",
    "description": "Creature_974618",
    "title": "Creature_974618",
    "link_img": "https://live.staticflickr.com/65535/49710771898_14c9d130b4_o.jpg",
    "id_image": "Creature_974618",
    "count_view": 0
  },
  {
    "link_thumb": "https://live.staticflickr.com/65535/49710498873_1f72c5d702_n.jpg",
    "id_album": "-1541846310",
    "description": "Castle_155505",
    "title": "Castle_155505",
    "link_img": "https://live.staticflickr.com/65535/49710498873_fde80982a3_o.jpg",
    "id_image": "Castle_155505",
    "count_view": 0
  },
  {
    "link_thumb": "https://live.staticflickr.com/65535/49710590698_b4af443a4b_n.jpg",
    "id_album": "-1964113117",
    "description": "City_873644",
    "title": "City_873644",
    "link_img": "https://live.staticflickr.com/65535/49710590698_7f532a56d9_o.jpg",
    "id_image": "City_873644",
    "count_view": 0
  },
  {
    "link_thumb": "https://live.staticflickr.com/65535/49711522382_b65594b9d1_n.jpg",
    "id_album": "-437872736",
    "description": "Creature_325530",
    "title": "Creature_325530",
    "link_img": "https://live.staticflickr.com/65535/49711522382_de1879d47c_o.jpg",
    "id_image": "Creature_325530",
    "count_view": 0
  },
  {
    "link_thumb": "https://live.staticflickr.com/65535/49712502321_0dfef3ec3f_n.jpg",
    "id_album": "-867594484",
    "description": "Women_548680",
    "title": "Women_548680",
    "link_img": "https://live.staticflickr.com/65535/49712502321_bea667318c_o.jpg",
    "id_image": "Women_548680",
    "count_view": 0
  },
  {
    "link_thumb": "https://live.staticflickr.com/65535/49711436798_d9f56a8dd2_n.jpg",
    "id_album": "-833110404",
    "description": "Landscape_568834",
    "title": "Landscape_568834",
    "link_img": "https://live.staticflickr.com/65535/49711436798_cde68cf482_o.jpg",
    "id_image": "Landscape_568834",
    "count_view": 0
  },
  {
    "link_thumb": "https://live.staticflickr.com/65535/49712798402_8ac3169b6c_n.jpg",
    "id_album": "1861288871",
    "description": "Women_808151",
    "title": "Women_808151",
    "link_img": "https://live.staticflickr.com/65535/49712798402_e2aba6b53f_o.jpg",
    "id_image": "Women_808151",
    "count_view": 0
  },
  {
    "link_thumb": "https://live.staticflickr.com/65535/49710561853_46c747a685_n.jpg",
    "id_album": "-1964113117",
    "description": "City_324916",
    "title": "City_324916",
    "link_img": "https://live.staticflickr.com/65535/49710561853_733b64251b_o.jpg",
    "id_image": "City_324916",
    "count_view": 0
  },
  {
    "link_thumb": "https://live.staticflickr.com/65535/49710905483_98fde0304f_n.jpg",
    "id_album": "850176884",
    "description": "Dragon_403623",
    "title": "Dragon_403623",
    "link_img": "https://live.staticflickr.com/65535/49710905483_b9d2ca4287_o.jpg",
    "id_image": "Dragon_403623",
    "count_view": 0
  },
  {
    "link_thumb": "https://live.staticflickr.com/65535/49711580351_7f30a46741_n.jpg",
    "id_album": "850176884",
    "description": "Dragon_96293",
    "title": "Dragon_96293",
    "link_img": "https://live.staticflickr.com/65535/49711580351_36369d20b7_o.jpg",
    "id_image": "Dragon_96293",
    "count_view": 0
  },
  {
    "link_thumb": "https://live.staticflickr.com/65535/49711870197_f1517a9a4c_n.jpg",
    "id_album": "850176884",
    "description": "Dragon_878306",
    "title": "Dragon_878306",
    "link_img": "https://live.staticflickr.com/65535/49711870197_29a55554e1_o.jpg",
    "id_image": "Dragon_878306",
    "count_view": 0
  },
  {
    "link_thumb": "https://live.staticflickr.com/65535/49711667012_98e5b5ae5d_n.jpg",
    "id_album": "7198985",
    "description": "Demon_865554",
    "title": "Demon_865554",
    "link_img": "https://live.staticflickr.com/65535/49711667012_2a1a1c9ecc_o.jpg",
    "id_image": "Demon_865554",
    "count_view": 0
  },
  {
    "link_thumb": "https://live.staticflickr.com/65535/49712201417_f20146563a_n.jpg",
    "id_album": "1402713104",
    "description": "Landscape_977512",
    "title": "Landscape_977512",
    "link_img": "https://live.staticflickr.com/65535/49712201417_983b3c65be_o.jpg",
    "id_image": "Landscape_977512",
    "count_view": 0
  },
  {
    "link_thumb": "https://live.staticflickr.com/65535/49711551551_763beb2994_n.jpg",
    "id_album": "850176884",
    "description": "Dragon_889421",
    "title": "Dragon_889421",
    "link_img": "https://live.staticflickr.com/65535/49711551551_d3c112b3fd_o.jpg",
    "id_image": "Dragon_889421",
    "count_view": 0
  },
  {
    "link_thumb": "https://live.staticflickr.com/65535/49711483431_4740ffecf4_n.jpg",
    "id_album": "850176884",
    "description": "Dragon_563057",
    "title": "Dragon_563057",
    "link_img": "https://live.staticflickr.com/65535/49711483431_d34df4ffc5_o.jpg",
    "id_image": "Dragon_563057",
    "count_view": 0
  },
  {
    "link_thumb": "https://live.staticflickr.com/65535/49712148097_2f90f4895b_n.jpg",
    "id_album": "1402713104",
    "description": "Landscape_851871",
    "title": "Landscape_851871",
    "link_img": "https://live.staticflickr.com/65535/49712148097_cc273d2a35_o.jpg",
    "id_image": "Landscape_851871",
    "count_view": 0
  },
  {
    "link_thumb": "https://live.staticflickr.com/65535/49711455453_2a98f9d959_n.jpg",
    "id_album": "1006968559",
    "description": "LordoftheRings_614690",
    "title": "LordoftheRings_614690",
    "link_img": "https://live.staticflickr.com/65535/49711455453_9dc047c0a1_o.jpg",
    "id_image": "LordoftheRings_614690",
    "count_view": 0
  },
  {
    "link_thumb": "https://live.staticflickr.com/65535/49710443043_4ed20899df_n.jpg",
    "id_album": "523598895",
    "description": "Artistic_679752",
    "title": "Artistic_679752",
    "link_img": "https://live.staticflickr.com/65535/49710443043_ae9c597ede_o.jpg",
    "id_image": "Artistic_679752",
    "count_view": 0
  },
  {
    "link_thumb": "https://live.staticflickr.com/65535/49711856976_5576322213_n.jpg",
    "id_album": "1402713104",
    "description": "Landscape_916713",
    "title": "Landscape_916713",
    "link_img": "https://live.staticflickr.com/65535/49711856976_9d03d63def_o.jpg",
    "id_image": "Landscape_916713",
    "count_view": 0
  },
  {
    "link_thumb": "https://live.staticflickr.com/65535/49711346882_7df06e0015_n.jpg",
    "id_album": "406431601",
    "description": "Building_216669",
    "title": "Building_216669",
    "link_img": "https://live.staticflickr.com/65535/49711346882_dfb84d860d_o.jpg",
    "id_image": "Building_216669",
    "count_view": 0
  },
  {
    "link_thumb": "https://live.staticflickr.com/65535/49712960742_15939baa82_n.jpg",
    "id_album": "-1675918237",
    "description": "WomenWarrior_554348",
    "title": "WomenWarrior_554348",
    "link_img": "https://live.staticflickr.com/65535/49712960742_f4751afd44_o.jpg",
    "id_image": "WomenWarrior_554348",
    "count_view": 0
  },
  {
    "link_thumb": "https://live.staticflickr.com/65535/49711884783_fae4fcef36_n.jpg",
    "id_album": "295204930",
    "description": "Women_736394",
    "title": "Women_736394",
    "link_img": "https://live.staticflickr.com/65535/49711884783_e2c657b3d3_o.jpg",
    "id_image": "Women_736394",
    "count_view": 0
  },
  {
    "link_thumb": "https://live.staticflickr.com/65535/49712810512_02edc9ce37_n.jpg",
    "id_album": "-867594484",
    "description": "Women_505504",
    "title": "Women_505504",
    "link_img": "https://live.staticflickr.com/65535/49712810512_eca45ae843_o.jpg",
    "id_image": "Women_505504",
    "count_view": 0
  },
  {
    "link_thumb": "https://live.staticflickr.com/65535/49712065141_822739cee3_n.jpg",
    "id_album": "-639976841",
    "description": "Pegasus_705236",
    "title": "Pegasus_705236",
    "link_img": "https://live.staticflickr.com/65535/49712065141_9fd5eb411e_o.jpg",
    "id_image": "Pegasus_705236",
    "count_view": 0
  },
  {
    "link_thumb": "https://live.staticflickr.com/65535/49711556576_1e62319b10_n.jpg",
    "id_album": "850176884",
    "description": "Dragon_906340",
    "title": "Dragon_906340",
    "link_img": "https://live.staticflickr.com/65535/49711556576_2a4e11d202_o.jpg",
    "id_image": "Dragon_906340",
    "count_view": 0
  },
  {
    "link_thumb": "https://live.staticflickr.com/65535/49712137813_4a5b7b2d36_n.jpg",
    "id_album": "-1675918237",
    "description": "WomenWarrior_790400",
    "title": "WomenWarrior_790400",
    "link_img": "https://live.staticflickr.com/65535/49712137813_6d882e8630_o.jpg",
    "id_image": "WomenWarrior_790400",
    "count_view": 0
  },
  {
    "link_thumb": "https://live.staticflickr.com/65535/49711308818_9394e938d7_n.jpg",
    "id_album": "1402713104",
    "description": "Landscape_869189",
    "title": "Landscape_869189",
    "link_img": "https://live.staticflickr.com/65535/49711308818_944f848808_o.jpg",
    "id_image": "Landscape_869189",
    "count_view": 0
  },
  {
    "link_thumb": "https://live.staticflickr.com/65535/49712295667_5788981a1d_n.jpg",
    "id_album": "-833110404",
    "description": "Landscape_612120",
    "title": "Landscape_612120",
    "link_img": "https://live.staticflickr.com/65535/49712295667_a54670ac1a_o.jpg",
    "id_image": "Landscape_612120",
    "count_view": 0
  },
  {
    "link_thumb": "https://live.staticflickr.com/65535/49712222222_02cb1bf5b7_n.jpg",
    "id_album": "-833110404",
    "description": "Landscape_249791",
    "title": "Landscape_249791",
    "link_img": "https://live.staticflickr.com/65535/49712222222_f78f420def_o.jpg",
    "id_image": "Landscape_249791",
    "count_view": 0
  },
  {
    "link_thumb": "https://live.staticflickr.com/65535/49710839803_939b20b687_n.jpg",
    "id_album": "850176884",
    "description": "Dragon_169766",
    "title": "Dragon_169766",
    "link_img": "https://live.staticflickr.com/65535/49710839803_91b616490a_o.jpg",
    "id_image": "Dragon_169766",
    "count_view": 0
  },
  {
    "link_thumb": "https://live.staticflickr.com/65535/49710940778_f95acaab14_n.jpg",
    "id_album": "850176884",
    "description": "Dragon_540433",
    "title": "Dragon_540433",
    "link_img": "https://live.staticflickr.com/65535/49710940778_8182074e43_o.jpg",
    "id_image": "Dragon_540433",
    "count_view": 0
  },
  {
    "link_thumb": "https://live.staticflickr.com/65535/49710453153_0c10ca9171_n.jpg",
    "id_album": "1187037014",
    "description": "Battle_239303",
    "title": "Battle_239303",
    "link_img": "https://live.staticflickr.com/65535/49710453153_6fa31c788c_o.jpg",
    "id_image": "Battle_239303",
    "count_view": 0
  },
  {
    "link_thumb": "https://live.staticflickr.com/65535/49712443182_8ac55708a6_n.jpg",
    "id_album": "407101116",
    "description": "SeaMonster_343988",
    "title": "SeaMonster_343988",
    "link_img": "https://live.staticflickr.com/65535/49712443182_f195b8ca72_o.jpg",
    "id_image": "SeaMonster_343988",
    "count_view": 0
  },
  {
    "link_thumb": "https://live.staticflickr.com/65535/49711270921_0e788a7f13_n.jpg",
    "id_album": "-437872736",
    "description": "Creature_886794",
    "title": "Creature_886794",
    "link_img": "https://live.staticflickr.com/65535/49711270921_88a8bcb434_o.jpg",
    "id_image": "Creature_886794",
    "count_view": 0
  },
  {
    "link_thumb": "https://live.staticflickr.com/65535/49711111143_146260f602_n.jpg",
    "id_album": "-1972042284",
    "description": "Fairy_143309",
    "title": "Fairy_143309",
    "link_img": "https://live.staticflickr.com/65535/49711111143_a9466f325c_o.jpg",
    "id_image": "Fairy_143309",
    "count_view": 0
  },
  {
    "link_thumb": "https://live.staticflickr.com/65535/49711670692_89baf90709_n.jpg",
    "id_album": "850176884",
    "description": "DRAGON2610191649385",
    "title": "DRAGON2610191649385",
    "link_img": "https://live.staticflickr.com/65535/49711670692_4956ac13e6_o.jpg",
    "id_image": "DRAGON2610191649385",
    "count_view": 0
  },
  {
    "link_thumb": "https://live.staticflickr.com/65535/49711361256_e5bbcd5c04_n.jpg",
    "id_album": "850176884",
    "description": "Dragon_122307",
    "title": "Dragon_122307",
    "link_img": "https://live.staticflickr.com/65535/49711361256_71787d7fd4_o.jpg",
    "id_image": "Dragon_122307",
    "count_view": 0
  },
  {
    "link_thumb": "https://live.staticflickr.com/65535/49711630832_3a5d9b1998_n.jpg",
    "id_album": "-437872736",
    "description": "Creature_958991",
    "title": "Creature_958991",
    "link_img": "https://live.staticflickr.com/65535/49711630832_6b94d03289_o.jpg",
    "id_image": "Creature_958991",
    "count_view": 0
  },
  {
    "link_thumb": "https://live.staticflickr.com/65535/49711734937_5d7ec32f44_n.jpg",
    "id_album": "850176884",
    "description": "Dragon_297866",
    "title": "Dragon_297866",
    "link_img": "https://live.staticflickr.com/65535/49711734937_f0df3d267e_o.jpg",
    "id_image": "Dragon_297866",
    "count_view": 0
  },
  {
    "link_thumb": "https://live.staticflickr.com/65535/49710945096_a795384b02_n.jpg",
    "id_album": "523598895",
    "description": "Artistic_153570",
    "title": "Artistic_153570",
    "link_img": "https://live.staticflickr.com/65535/49710945096_73fe922c7d_o.jpg",
    "id_image": "Artistic_153570",
    "count_view": 0
  },
  {
    "link_thumb": "https://live.staticflickr.com/65535/49710389313_829119e96d_n.jpg",
    "id_album": "-1913845949",
    "description": "Animal_936216",
    "title": "Animal_936216",
    "link_img": "https://live.staticflickr.com/65535/49710389313_945b65a13f_o.jpg",
    "id_image": "Animal_936216",
    "count_view": 0
  },
  {
    "link_thumb": "https://live.staticflickr.com/65535/49710486148_a98e4a3115_n.jpg",
    "id_album": "-1846011410",
    "description": "Bird_974654",
    "title": "Bird_974654",
    "link_img": "https://live.staticflickr.com/65535/49710486148_d2eb6162b9_o.jpg",
    "id_image": "Bird_974654",
    "count_view": 0
  },
  {
    "link_thumb": "https://live.staticflickr.com/65535/49711043351_f9a3e0228a_n.jpg",
    "id_album": "-1541846310",
    "description": "Castle_336945",
    "title": "Castle_336945",
    "link_img": "https://live.staticflickr.com/65535/49711043351_687f7aac5a_o.jpg",
    "id_image": "Castle_336945",
    "count_view": 0
  },
  {
    "link_thumb": "https://live.staticflickr.com/65535/49711824196_50d992d5a6_n.jpg",
    "id_album": "1402713104",
    "description": "Landscape_842659",
    "title": "Landscape_842659",
    "link_img": "https://live.staticflickr.com/65535/49711824196_006d0cbc75_o.jpg",
    "id_image": "Landscape_842659",
    "count_view": 0
  },
  {
    "link_thumb": "https://live.staticflickr.com/65535/49710680168_ed07efce60_n.jpg",
    "id_album": "-437872736",
    "description": "Creature_367076",
    "title": "Creature_367076",
    "link_img": "https://live.staticflickr.com/65535/49710680168_275b7c4657_o.jpg",
    "id_image": "Creature_367076",
    "count_view": 0
  },
  {
    "link_thumb": "https://live.staticflickr.com/65535/49712590256_38bd317e57_n.jpg",
    "id_album": "-1675918237",
    "description": "WomenWarrior_337404",
    "title": "WomenWarrior_337404",
    "link_img": "https://live.staticflickr.com/65535/49712590256_5996d60dee_o.jpg",
    "id_image": "WomenWarrior_337404",
    "count_view": 0
  },
  {
    "link_thumb": "https://live.staticflickr.com/65535/49712213372_8d1895fd69_n.jpg",
    "id_album": "-833110404",
    "description": "Landscape_175093",
    "title": "Landscape_175093",
    "link_img": "https://live.staticflickr.com/65535/49712213372_cab08f4907_o.jpg",
    "id_image": "Landscape_175093",
    "count_view": 0
  },
  {
    "link_thumb": "https://live.staticflickr.com/65535/49711902806_f4b13af984_n.jpg",
    "id_album": "-833110404",
    "description": "Landscape_268272",
    "title": "Landscape_268272",
    "link_img": "https://live.staticflickr.com/65535/49711902806_0211a66741_o.jpg",
    "id_image": "Landscape_268272",
    "count_view": 0
  },
  {
    "link_thumb": "https://live.staticflickr.com/65535/49710921846_6f90960e13_n.jpg",
    "id_album": "-1913845949",
    "description": "Animal_921179",
    "title": "Animal_921179",
    "link_img": "https://live.staticflickr.com/65535/49710921846_c728e57d32_o.jpg",
    "id_image": "Animal_921179",
    "count_view": 0
  },
  {
    "link_thumb": "https://live.staticflickr.com/65535/49711008418_a403570430_n.jpg",
    "id_album": "850176884",
    "description": "Dragon_870690",
    "title": "Dragon_870690",
    "link_img": "https://live.staticflickr.com/65535/49711008418_6b87ef96dd_o.jpg",
    "id_image": "Dragon_870690",
    "count_view": 0
  },
  {
    "link_thumb": "https://live.staticflickr.com/65535/49711179261_2bb56c8157_n.jpg",
    "id_album": "-437872736",
    "description": "Creature_297801",
    "title": "Creature_297801",
    "link_img": "https://live.staticflickr.com/65535/49711179261_db32882baf_o.jpg",
    "id_image": "Creature_297801",
    "count_view": 0
  },
  {
    "link_thumb": "https://live.staticflickr.com/65535/49711899247_0efda6b666_n.jpg",
    "id_album": "850176884",
    "description": "Dragon_954035",
    "title": "Dragon_954035",
    "link_img": "https://live.staticflickr.com/65535/49711899247_8726b1bf20_o.jpg",
    "id_image": "Dragon_954035",
    "count_view": 0
  },
  {
    "link_thumb": "https://live.staticflickr.com/65535/49710783853_32bf80f9f4_n.jpg",
    "id_album": "2021464556",
    "description": "Dark_656311",
    "title": "Dark_656311",
    "link_img": "https://live.staticflickr.com/65535/49710783853_43a766ce5e_o.jpg",
    "id_image": "Dark_656311",
    "count_view": 0
  },
  {
    "link_thumb": "https://live.staticflickr.com/65535/49711084156_c63c3e085d_n.jpg",
    "id_album": "430704260",
    "description": "Child_910933",
    "title": "Child_910933",
    "link_img": "https://live.staticflickr.com/65535/49711084156_0eb77983ca_o.jpg",
    "id_image": "Child_910933",
    "count_view": 0
  },
  {
    "link_thumb": "https://live.staticflickr.com/65535/49710881336_32e45cca91_n.jpg",
    "id_album": "-1000175186",
    "description": "AngelWarrior_494202",
    "title": "AngelWarrior_494202",
    "link_img": "https://live.staticflickr.com/65535/49710881336_5382e8dabc_o.jpg",
    "id_image": "AngelWarrior_494202",
    "count_view": 0
  },
  {
    "link_thumb": "https://live.staticflickr.com/65535/49711889837_622622369d_n.jpg",
    "id_album": "850176884",
    "description": "Dragon_921807",
    "title": "Dragon_921807",
    "link_img": "https://live.staticflickr.com/65535/49711889837_80e4e1df8a_o.jpg",
    "id_image": "Dragon_921807",
    "count_view": 0
  },
  {
    "link_thumb": "https://live.staticflickr.com/65535/49712680301_2e57e13620_n.jpg",
    "id_album": "-1675918237",
    "description": "WomenWarrior_836370",
    "title": "WomenWarrior_836370",
    "link_img": "https://live.staticflickr.com/65535/49712680301_9b5dd416db_o.jpg",
    "id_image": "WomenWarrior_836370",
    "count_view": 0
  },
  {
    "link_thumb": "https://live.staticflickr.com/65535/49710474998_4b9e310084_n.jpg",
    "id_album": "1187037014",
    "description": "Battle_740998",
    "title": "Battle_740998",
    "link_img": "https://live.staticflickr.com/65535/49710474998_1ae846926b_o.jpg",
    "id_image": "Battle_740998",
    "count_view": 0
  },
  {
    "link_thumb": "https://live.staticflickr.com/65535/49711107871_9a4bc0d4ae_n.jpg",
    "id_album": "-1964113117",
    "description": "City_579896",
    "title": "City_579896",
    "link_img": "https://live.staticflickr.com/65535/49711107871_54ed692013_o.jpg",
    "id_image": "City_579896",
    "count_view": 0
  },
  {
    "link_thumb": "https://live.staticflickr.com/65535/49710455233_b7c91e3ec3_n.jpg",
    "id_album": "1187037014",
    "description": "Battle_251027",
    "title": "Battle_251027",
    "link_img": "https://live.staticflickr.com/65535/49710455233_d234d93b88_o.jpg",
    "id_image": "Battle_251027",
    "count_view": 0
  },
  {
    "link_thumb": "https://live.staticflickr.com/65535/49711660057_ae0ba538af_n.jpg",
    "id_album": "7198985",
    "description": "Demon_448544",
    "title": "Demon_448544",
    "link_img": "https://live.staticflickr.com/65535/49711660057_c26e442695_o.jpg",
    "id_image": "Demon_448544",
    "count_view": 0
  },
  {
    "link_thumb": "https://live.staticflickr.com/65535/49711675932_fd5294567c_n.jpg",
    "id_album": "850176884",
    "description": "DRAGON26101916503072",
    "title": "DRAGON26101916503072",
    "link_img": "https://live.staticflickr.com/65535/49711675932_5b71616957_o.jpg",
    "id_image": "DRAGON26101916503072",
    "count_view": 0
  },
  {
    "link_thumb": "https://live.staticflickr.com/65535/49711837121_96ae312279_n.jpg",
    "id_album": "1402713104",
    "description": "Landscape_864949",
    "title": "Landscape_864949",
    "link_img": "https://live.staticflickr.com/65535/49711837121_fc89c9f17c_o.jpg",
    "id_image": "Landscape_864949",
    "count_view": 0
  },
  {
    "link_thumb": "https://live.staticflickr.com/65535/49711239116_e5d1901b84_n.jpg",
    "id_album": "-437872736",
    "description": "Creature_511497",
    "title": "Creature_511497",
    "link_img": "https://live.staticflickr.com/65535/49711239116_7748c6d88e_o.jpg",
    "id_image": "Creature_511497",
    "count_view": 0
  },
  {
    "link_thumb": "https://live.staticflickr.com/65535/49710875991_c0699fca34_n.jpg",
    "id_album": "-1000175186",
    "description": "AngelWarrior_184194",
    "title": "AngelWarrior_184194",
    "link_img": "https://live.staticflickr.com/65535/49710875991_23467dbdec_o.jpg",
    "id_image": "AngelWarrior_184194",
    "count_view": 0
  },
  {
    "link_thumb": "https://live.staticflickr.com/65535/49711752353_90e0d9f23b_n.jpg",
    "id_album": "-709711865",
    "description": "Wolf_713206",
    "title": "Wolf_713206",
    "link_img": "https://live.staticflickr.com/65535/49711752353_907222de72_o.jpg",
    "id_image": "Wolf_713206",
    "count_view": 0
  },
  {
    "link_thumb": "https://live.staticflickr.com/65535/49711366417_5d5bfe7f9d_n.jpg",
    "id_album": "-1541846310",
    "description": "Castle_326376",
    "title": "Castle_326376",
    "link_img": "https://live.staticflickr.com/65535/49711366417_3d79627474_o.jpg",
    "id_image": "Castle_326376",
    "count_view": 0
  },
  {
    "link_thumb": "https://live.staticflickr.com/65535/49710719993_761de9b38f_n.jpg",
    "id_album": "-437872736",
    "description": "Creature_655692",
    "title": "Creature_655692",
    "link_img": "https://live.staticflickr.com/65535/49710719993_5f74370551_o.jpg",
    "id_image": "Creature_655692",
    "count_view": 0
  },
  {
    "link_thumb": "https://live.staticflickr.com/65535/49712662322_c22c3c62b8_n.jpg",
    "id_album": "-1126835654",
    "description": "Women_933371",
    "title": "Women_933371",
    "link_img": "https://live.staticflickr.com/65535/49712662322_f8ab2ec340_o.jpg",
    "id_image": "Women_933371",
    "count_view": 0
  },
  {
    "link_thumb": "https://live.staticflickr.com/65535/49712816877_2ace308666_n.jpg",
    "id_album": "-867594484",
    "description": "Women_518047",
    "title": "Women_518047",
    "link_img": "https://live.staticflickr.com/65535/49712816877_2518a624ae_o.jpg",
    "id_image": "Women_518047",
    "count_view": 0
  },
  {
    "link_thumb": "https://live.staticflickr.com/65535/49712533467_7f372566d2_n.jpg",
    "id_album": "-1261420436",
    "description": "Warrior_567037",
    "title": "Warrior_567037",
    "link_img": "https://live.staticflickr.com/65535/49712533467_c62117454f_o.jpg",
    "id_image": "Warrior_567037",
    "count_view": 0
  },
  {
    "link_thumb": "https://live.staticflickr.com/65535/49711984676_6d4633f636_n.jpg",
    "id_album": "416744915",
    "description": "Lion_880053",
    "title": "Lion_880053",
    "link_img": "https://live.staticflickr.com/65535/49711984676_2c1285de13_o.jpg",
    "id_image": "Lion_880053",
    "count_view": 0
  },
  {
    "link_thumb": "https://live.staticflickr.com/65535/49710858238_4062653837_n.jpg",
    "id_album": "850176884",
    "description": "Dragon_240511",
    "title": "Dragon_240511",
    "link_img": "https://live.staticflickr.com/65535/49710858238_a01a665801_o.jpg",
    "id_image": "Dragon_240511",
    "count_view": 0
  },
  {
    "link_thumb": "https://live.staticflickr.com/65535/49710710243_2aa9a0da47_n.jpg",
    "id_album": "-437872736",
    "description": "Creature_551160",
    "title": "Creature_551160",
    "link_img": "https://live.staticflickr.com/65535/49710710243_2ffecf3a59_o.jpg",
    "id_image": "Creature_551160",
    "count_view": 0
  },
  {
    "link_thumb": "https://live.staticflickr.com/65535/49711871982_5fff3eec4e_n.jpg",
    "id_album": "850176884",
    "description": "Dragon_882722",
    "title": "Dragon_882722",
    "link_img": "https://live.staticflickr.com/65535/49711871982_9a12e68498_o.jpg",
    "id_image": "Dragon_882722",
    "count_view": 0
  },
  {
    "link_thumb": "https://live.staticflickr.com/65535/49711605167_efafa57a96_n.jpg",
    "id_album": "-437872736",
    "description": "Creature_958666",
    "title": "Creature_958666",
    "link_img": "https://live.staticflickr.com/65535/49711605167_ff7d62f127_o.jpg",
    "id_image": "Creature_958666",
    "count_view": 0
  },
  {
    "link_thumb": "https://live.staticflickr.com/65535/49712040077_e3b4b8f24e_n.jpg",
    "id_album": "-1083189875",
    "description": "Forest_878313",
    "title": "Forest_878313",
    "link_img": "https://live.staticflickr.com/65535/49712040077_f5a52c766a_o.jpg",
    "id_image": "Forest_878313",
    "count_view": 0
  },
  {
    "link_thumb": "https://live.staticflickr.com/65535/49711084296_b86cdf3e90_n.jpg",
    "id_album": "430704260",
    "description": "Child_910964",
    "title": "Child_910964",
    "link_img": "https://live.staticflickr.com/65535/49711084296_aac8c45eb5_o.jpg",
    "id_image": "Child_910964",
    "count_view": 0
  },
  {
    "link_thumb": "https://live.staticflickr.com/65535/49711655811_d8976284e7_n.jpg",
    "id_album": "-1972042284",
    "description": "Fairy_322475",
    "title": "Fairy_322475",
    "link_img": "https://live.staticflickr.com/65535/49711655811_fd8c0497ac_o.jpg",
    "id_image": "Fairy_322475",
    "count_view": 0
  },
  {
    "link_thumb": "https://live.staticflickr.com/65535/49711474402_d562099f8c_n.jpg",
    "id_album": "-437872736",
    "description": "Creature_161911",
    "title": "Creature_161911",
    "link_img": "https://live.staticflickr.com/65535/49711474402_961a344d18_o.jpg",
    "id_image": "Creature_161911",
    "count_view": 0
  },
  {
    "link_thumb": "https://live.staticflickr.com/65535/49711088806_ff0f1eb855_n.jpg",
    "id_album": "-1964113117",
    "description": "City_154349",
    "title": "City_154349",
    "link_img": "https://live.staticflickr.com/65535/49711088806_7ea5e6faf0_o.jpg",
    "id_image": "City_154349",
    "count_view": 0
  },
  {
    "link_thumb": "https://live.staticflickr.com/65535/49711388141_9f1deb407a_n.jpg",
    "id_album": "850176884",
    "description": "Dragon_219299",
    "title": "Dragon_219299",
    "link_img": "https://live.staticflickr.com/65535/49711388141_0b99cd26cb_o.jpg",
    "id_image": "Dragon_219299",
    "count_view": 0
  },
  {
    "link_thumb": "https://live.staticflickr.com/65535/49711740156_e93282fe8e_n.jpg",
    "id_album": "402434752",
    "description": "Giant_995150",
    "title": "Giant_995150",
    "link_img": "https://live.staticflickr.com/65535/49711740156_8152d6dff4_o.jpg",
    "id_image": "Giant_995150",
    "count_view": 0
  },
  {
    "link_thumb": "https://live.staticflickr.com/65535/49712086067_11d907a41b_n.jpg",
    "id_album": "-1933715543",
    "description": "Horse_942689",
    "title": "Horse_942689",
    "link_img": "https://live.staticflickr.com/65535/49712086067_d143cc41a6_o.jpg",
    "id_image": "Horse_942689",
    "count_view": 0
  },
  {
    "link_thumb": "https://live.staticflickr.com/65535/49712442096_548524565b_n.jpg",
    "id_album": "1861288871",
    "description": "Women_270137",
    "title": "Women_270137",
    "link_img": "https://live.staticflickr.com/65535/49712442096_0a1a6e03a0_o.jpg",
    "id_image": "Women_270137",
    "count_view": 0
  },
  {
    "link_thumb": "https://live.staticflickr.com/65535/49712620572_9098d60ecd_n.jpg",
    "id_album": "-709711865",
    "description": "Wolf_931817",
    "title": "Wolf_931817",
    "link_img": "https://live.staticflickr.com/65535/49712620572_9c234b9d40_o.jpg",
    "id_image": "Wolf_931817",
    "count_view": 0
  },
  {
    "link_thumb": "https://live.staticflickr.com/65535/49711049096_ee058d76ee_n.jpg",
    "id_album": "-1541846310",
    "description": "Castle_568501",
    "title": "Castle_568501",
    "link_img": "https://live.staticflickr.com/65535/49711049096_2b1af4a462_o.jpg",
    "id_image": "Castle_568501",
    "count_view": 0
  },
  {
    "link_thumb": "https://live.staticflickr.com/65535/49711210127_d2e97f266c_n.jpg",
    "id_album": "-1000175186",
    "description": "AngelWarrior_733337",
    "title": "AngelWarrior_733337",
    "link_img": "https://live.staticflickr.com/65535/49711210127_ae69a3929e_o.jpg",
    "id_image": "AngelWarrior_733337",
    "count_view": 0
  },
  {
    "link_thumb": "https://live.staticflickr.com/65535/49710856773_c2f7570d4b_n.jpg",
    "id_album": "850176884",
    "description": "Dragon_236499",
    "title": "Dragon_236499",
    "link_img": "https://live.staticflickr.com/65535/49710856773_a9d66841a5_o.jpg",
    "id_image": "Dragon_236499",
    "count_view": 0
  },
  {
    "link_thumb": "https://live.staticflickr.com/65535/49711372417_eaa68ff2eb_n.jpg",
    "id_album": "-1541846310",
    "description": "Castle_564454",
    "title": "Castle_564454",
    "link_img": "https://live.staticflickr.com/65535/49711372417_b528e97c18_o.jpg",
    "id_image": "Castle_564454",
    "count_view": 0
  },
  {
    "link_thumb": "https://live.staticflickr.com/65535/49711785567_49b869367a_n.jpg",
    "id_album": "850176884",
    "description": "Dragon_497665",
    "title": "Dragon_497665",
    "link_img": "https://live.staticflickr.com/65535/49711785567_7e198f0988_o.jpg",
    "id_image": "Dragon_497665",
    "count_view": 0
  },
  {
    "link_thumb": "https://live.staticflickr.com/65535/49711772292_5d03baf762_n.jpg",
    "id_album": "850176884",
    "description": "Dragon_451183",
    "title": "Dragon_451183",
    "link_img": "https://live.staticflickr.com/65535/49711772292_0fd60f9d00_o.jpg",
    "id_image": "Dragon_451183",
    "count_view": 0
  }
]