[
  {
    "link_thumb": "https://live.staticflickr.com/65535/49710676073_34a810c0de_n.jpg",
    "id_album": "-437872736",
    "description": "Creature_350128",
    "title": "Creature_350128",
    "link_img": "https://live.staticflickr.com/65535/49710676073_b138a78128_o.jpg",
    "id_image": "Creature_350128",
    "count_view": 0
  },
  {
    "link_thumb": "https://live.staticflickr.com/65535/49710447638_66dda659d9_n.jpg",
    "id_album": "523598895",
    "description": "Artistic_993501",
    "title": "Artistic_993501",
    "link_img": "https://live.staticflickr.com/65535/49710447638_1c6d9da494_o.jpg",
    "id_image": "Artistic_993501",
    "count_view": 0
  },
  {
    "link_thumb": "https://live.staticflickr.com/65535/49711119941_b277cb25a3_n.jpg",
    "id_album": "-1964113117",
    "description": "City_83743",
    "title": "City_83743",
    "link_img": "https://live.staticflickr.com/65535/49711119941_bf5d9e0fbb_o.jpg",
    "id_image": "City_83743",
    "count_view": 0
  },
  {
    "link_thumb": "https://live.staticflickr.com/65535/49711954366_e221956b4f_n.jpg",
    "id_album": "-833110404",
    "description": "Landscape_498694",
    "title": "Landscape_498694",
    "link_img": "https://live.staticflickr.com/65535/49711954366_b222d08349_o.jpg",
    "id_image": "Landscape_498694",
    "count_view": 0
  },
  {
    "link_thumb": "https://live.staticflickr.com/65535/49712562516_bacd24db06_n.jpg",
    "id_album": "-1675918237",
    "description": "WomenWarrior_288387",
    "title": "WomenWarrior_288387",
    "link_img": "https://live.staticflickr.com/65535/49712562516_c3b6b72c7f_o.jpg",
    "id_image": "WomenWarrior_288387",
    "count_view": 0
  },
  {
    "link_thumb": "https://live.staticflickr.com/65535/49711022408_7c8f63019b_n.jpg",
    "id_album": "850176884",
    "description": "Dragon_907142",
    "title": "Dragon_907142",
    "link_img": "https://live.staticflickr.com/65535/49711022408_554e07e135_o.jpg",
    "id_image": "Dragon_907142",
    "count_view": 0
  },
  {
    "link_thumb": "https://live.staticflickr.com/65535/49711000521_8e22bd4983_n.jpg",
    "id_album": "1187037014",
    "description": "Battle_458302",
    "title": "Battle_458302",
    "link_img": "https://live.staticflickr.com/65535/49711000521_cf064673cc_o.jpg",
    "id_image": "Battle_458302",
    "count_view": 0
  },
  {
    "link_thumb": "https://live.staticflickr.com/65535/49711327876_3c04b3cf8e_n.jpg",
    "id_album": "1903411565",
    "description": "Deer_855296",
    "title": "Deer_855296",
    "link_img": "https://live.staticflickr.com/65535/49711327876_6b9e6d8b51_o.jpg",
    "id_image": "Deer_855296",
    "count_view": 0
  },
  {
    "link_thumb": "https://live.staticflickr.com/65535/49712298282_58e30458f5_n.jpg",
    "id_album": "-1284959130",
    "description": "LegendOfTheFiveRings_219860",
    "title": "LegendOfTheFiveRings_219860",
    "link_img": "https://live.staticflickr.com/65535/49712298282_63067c463c_o.jpg",
    "id_image": "LegendOfTheFiveRings_219860",
    "count_view": 0
  },
  {
    "link_thumb": "https://live.staticflickr.com/65535/49711520821_3b9b993e46_n.jpg",
    "id_album": "850176884",
    "description": "Dragon_755340",
    "title": "Dragon_755340",
    "link_img": "https://live.staticflickr.com/65535/49711520821_e737ca2abb_o.jpg",
    "id_image": "Dragon_755340",
    "count_view": 0
  },
  {
    "link_thumb": "https://live.staticflickr.com/65535/49711072036_5788d7ebe2_n.jpg",
    "id_album": "-1741487325",
    "description": "Cat_777226",
    "title": "Cat_777226",
    "link_img": "https://live.staticflickr.com/65535/49711072036_e1919d4ec7_o.jpg",
    "id_image": "Cat_777226",
    "count_view": 0
  },
  {
    "link_thumb": "https://live.staticflickr.com/65535/49711084296_b86cdf3e90_n.jpg",
    "id_album": "430704260",
    "description": "Child_910964",
    "title": "Child_910964",
    "link_img": "https://live.staticflickr.com/65535/49711084296_aac8c45eb5_o.jpg",
    "id_image": "Child_910964",
    "count_view": 0
  },
  {
    "link_thumb": "https://live.staticflickr.com/65535/49711251772_75535ea188_n.jpg",
    "id_album": "-1560111795",
    "description": "Archer_138939",
    "title": "Archer_138939",
    "link_img": "https://live.staticflickr.com/65535/49711251772_7235dd863a_o.jpg",
    "id_image": "Archer_138939",
    "count_view": 0
  },
  {
    "link_thumb": "https://live.staticflickr.com/65535/49712858577_ae8f9b9914_n.jpg",
    "id_album": "-867594484",
    "description": "Women_686730",
    "title": "Women_686730",
    "link_img": "https://live.staticflickr.com/65535/49712858577_f7da55e42a_o.jpg",
    "id_image": "Women_686730",
    "count_view": 0
  },
  {
    "link_thumb": "https://live.staticflickr.com/65535/49711267636_468aa4b9a8_n.jpg",
    "id_album": "-437872736",
    "description": "Creature_844171",
    "title": "Creature_844171",
    "link_img": "https://live.staticflickr.com/65535/49711267636_e10a47ef63_o.jpg",
    "id_image": "Creature_844171",
    "count_view": 0
  },
  {
    "link_thumb": "https://live.staticflickr.com/65535/49711720882_bf5c1b08d4_n.jpg",
    "id_album": "850176884",
    "description": "Dragon_247369",
    "title": "Dragon_247369",
    "link_img": "https://live.staticflickr.com/65535/49711720882_77e4ce29df_o.jpg",
    "id_image": "Dragon_247369",
    "count_view": 0
  },
  {
    "link_thumb": "https://live.staticflickr.com/65535/49710963261_68efa50788_n.jpg",
    "id_album": "523598895",
    "description": "Artistic_363847",
    "title": "Artistic_363847",
    "link_img": "https://live.staticflickr.com/65535/49710963261_86eca463c6_o.jpg",
    "id_image": "Artistic_363847",
    "count_view": 0
  },
  {
    "link_thumb": "https://live.staticflickr.com/65535/49711017091_e4b5e0cab7_n.jpg",
    "id_album": "-1846011410",
    "description": "Bird_566779",
    "title": "Bird_566779",
    "link_img": "https://live.staticflickr.com/65535/49711017091_8e9f069b86_o.jpg",
    "id_image": "Bird_566779",
    "count_view": 0
  },
  {
    "link_thumb": "https://live.staticflickr.com/65535/49711670478_1fc4077c77_n.jpg",
    "id_album": "-1261420436",
    "description": "Warrior_322127",
    "title": "Warrior_322127",
    "link_img": "https://live.staticflickr.com/65535/49711670478_fc684d659b_o.jpg",
    "id_image": "Warrior_322127",
    "count_view": 0
  },
  {
    "link_thumb": "https://live.staticflickr.com/65535/49711921633_face4c6b0d_n.jpg",
    "id_album": "1861288871",
    "description": "Women_760827",
    "title": "Women_760827",
    "link_img": "https://live.staticflickr.com/65535/49711921633_4230a22661_o.jpg",
    "id_image": "Women_760827",
    "count_view": 0
  },
  {
    "link_thumb": "https://live.staticflickr.com/65535/49711369342_1618eb6d56_n.jpg",
    "id_album": "-1541846310",
    "description": "Castle_472818",
    "title": "Castle_472818",
    "link_img": "https://live.staticflickr.com/65535/49711369342_a944532e93_o.jpg",
    "id_image": "Castle_472818",
    "count_view": 0
  },
  {
    "link_thumb": "https://live.staticflickr.com/65535/49711362337_b52606bba5_n.jpg",
    "id_album": "-1541846310",
    "description": "Castle_229727",
    "title": "Castle_229727",
    "link_img": "https://live.staticflickr.com/65535/49711362337_06a55ba400_o.jpg",
    "id_image": "Castle_229727",
    "count_view": 0
  },
  {
    "link_thumb": "https://live.staticflickr.com/65535/49711849668_370f191d37_n.jpg",
    "id_album": "295204930",
    "description": "Women_371306",
    "title": "Women_371306",
    "link_img": "https://live.staticflickr.com/65535/49711849668_040c73190c_o.jpg",
    "id_image": "Women_371306",
    "count_view": 0
  },
  {
    "link_thumb": "https://live.staticflickr.com/65535/49711163113_eee3dcfdf3_n.jpg",
    "id_album": "-1083189875",
    "description": "Forest_478476",
    "title": "Forest_478476",
    "link_img": "https://live.staticflickr.com/65535/49711163113_cfcaf8aea3_o.jpg",
    "id_image": "Forest_478476",
    "count_view": 0
  },
  {
    "link_thumb": "https://live.staticflickr.com/65535/49712079507_2b1572c7b5_n.jpg",
    "id_album": "-1933715543",
    "description": "Horse_167109",
    "title": "Horse_167109",
    "link_img": "https://live.staticflickr.com/65535/49712079507_40c098e768_o.jpg",
    "id_image": "Horse_167109",
    "count_view": 0
  },
  {
    "link_thumb": "https://live.staticflickr.com/65535/49711408196_304c0a640f_n.jpg",
    "id_album": "850176884",
    "description": "Dragon_273320",
    "title": "Dragon_273320",
    "link_img": "https://live.staticflickr.com/65535/49711408196_2085c232f3_o.jpg",
    "id_image": "Dragon_273320",
    "count_view": 0
  },
  {
    "link_thumb": "https://live.staticflickr.com/65535/49711748648_b4051ea906_n.jpg",
    "id_album": "-709711865",
    "description": "Wolf_652768",
    "title": "Wolf_652768",
    "link_img": "https://live.staticflickr.com/65535/49711748648_09c6c07f2f_o.jpg",
    "id_image": "Wolf_652768",
    "count_view": 0
  },
  {
    "link_thumb": "https://live.staticflickr.com/65535/49711971012_a827c53c4a_n.jpg",
    "id_album": "-1972042284",
    "description": "Fairy_160408",
    "title": "Fairy_160408",
    "link_img": "https://live.staticflickr.com/65535/49711971012_c433a566ce_o.jpg",
    "id_image": "Fairy_160408",
    "count_view": 0
  },
  {
    "link_thumb": "https://live.staticflickr.com/65535/49712394102_e83e16bac1_n.jpg",
    "id_album": "-1326601535",
    "description": "Phoenix_357030",
    "title": "Phoenix_357030",
    "link_img": "https://live.staticflickr.com/65535/49712394102_83a29502d9_o.jpg",
    "id_image": "Phoenix_357030",
    "count_view": 0
  },
  {
    "link_thumb": "https://live.staticflickr.com/65535/49711512868_b31be7307d_n.jpg",
    "id_album": "1892085513",
    "description": "Oriental_922712",
    "title": "Oriental_922712",
    "link_img": "https://live.staticflickr.com/65535/49711512868_7b5979914c_o.jpg",
    "id_image": "Oriental_922712",
    "count_view": 0
  },
  {
    "link_thumb": "https://live.staticflickr.com/65535/49711736027_b9992c6ded_n.jpg",
    "id_album": "850176884",
    "description": "Dragon_306970",
    "title": "Dragon_306970",
    "link_img": "https://live.staticflickr.com/65535/49711736027_d037ece931_o.jpg",
    "id_image": "Dragon_306970",
    "count_view": 0
  },
  {
    "link_thumb": "https://live.staticflickr.com/65535/49710334348_e49bd89fc0_n.jpg",
    "id_album": "-2109465612",
    "description": "Adventure_600265",
    "title": "Adventure_600265",
    "link_img": "https://live.staticflickr.com/65535/49710334348_d4e6f24204_o.jpg",
    "id_image": "Adventure_600265",
    "count_view": 0
  },
  {
    "link_thumb": "https://live.staticflickr.com/65535/49710773113_904e421d8e_n.jpg",
    "id_album": "-437872736",
    "description": "Creature_984497",
    "title": "Creature_984497",
    "link_img": "https://live.staticflickr.com/65535/49710773113_021aa7cb81_o.jpg",
    "id_image": "Creature_984497",
    "count_view": 0
  },
  {
    "link_thumb": "https://live.staticflickr.com/65535/49711423217_390821bfa9_n.jpg",
    "id_album": "-1964113117",
    "description": "City_387175",
    "title": "City_387175",
    "link_img": "https://live.staticflickr.com/65535/49711423217_6ccd71a751_o.jpg",
    "id_image": "City_387175",
    "count_view": 0
  },
  {
    "link_thumb": "https://live.staticflickr.com/65535/49711542303_0b98c948c5_n.jpg",
    "id_album": "-1326601535",
    "description": "Phoenix_772731",
    "title": "Phoenix_772731",
    "link_img": "https://live.staticflickr.com/65535/49711542303_9fb98a2e8f_o.jpg",
    "id_image": "Phoenix_772731",
    "count_view": 0
  },
  {
    "link_thumb": "https://live.staticflickr.com/65535/49712176991_385cbb010f_n.jpg",
    "id_album": "431597977",
    "description": "Unicorn_229679",
    "title": "Unicorn_229679",
    "link_img": "https://live.staticflickr.com/65535/49712176991_ce73409591_o.jpg",
    "id_image": "Unicorn_229679",
    "count_view": 0
  },
  {
    "link_thumb": "https://live.staticflickr.com/65535/49710700608_893ecb7a24_n.jpg",
    "id_album": "-437872736",
    "description": "Creature_493963",
    "title": "Creature_493963",
    "link_img": "https://live.staticflickr.com/65535/49710700608_6fe0791968_o.jpg",
    "id_image": "Creature_493963",
    "count_view": 0
  },
  {
    "link_thumb": "https://live.staticflickr.com/65535/49711115333_c293de0f2e_n.jpg",
    "id_album": "-1972042284",
    "description": "Fairy_229244",
    "title": "Fairy_229244",
    "link_img": "https://live.staticflickr.com/65535/49711115333_08579c4a9f_o.jpg",
    "id_image": "Fairy_229244",
    "count_view": 0
  },
  {
    "link_thumb": "https://live.staticflickr.com/65535/49710893836_a68de7eebe_n.jpg",
    "id_album": "-1913845949",
    "description": "Animal_167812",
    "title": "Animal_167812",
    "link_img": "https://live.staticflickr.com/65535/49710893836_8421eba19b_o.jpg",
    "id_image": "Animal_167812",
    "count_view": 0
  },
  {
    "link_thumb": "https://live.staticflickr.com/65535/49711561481_6b47893876_n.jpg",
    "id_album": "850176884",
    "description": "Dragon_911863",
    "title": "Dragon_911863",
    "link_img": "https://live.staticflickr.com/65535/49711561481_113691c7e7_o.jpg",
    "id_image": "Dragon_911863",
    "count_view": 0
  },
  {
    "link_thumb": "https://live.staticflickr.com/65535/49711274007_4cdfc93771_n.jpg",
    "id_album": "523598895",
    "description": "Artistic_196162",
    "title": "Artistic_196162",
    "link_img": "https://live.staticflickr.com/65535/49711274007_f2a8a36a0e_o.jpg",
    "id_image": "Artistic_196162",
    "count_view": 0
  },
  {
    "link_thumb": "https://live.staticflickr.com/65535/49711445471_45503126d0_n.jpg",
    "id_album": "850176884",
    "description": "Dragon_434210",
    "title": "Dragon_434210",
    "link_img": "https://live.staticflickr.com/65535/49711445471_43e524ba53_o.jpg",
    "id_image": "Dragon_434210",
    "count_view": 0
  },
  {
    "link_thumb": "https://live.staticflickr.com/65535/49710539928_1239bdf32a_n.jpg",
    "id_album": "-1741487325",
    "description": "Cat_971906",
    "title": "Cat_971906",
    "link_img": "https://live.staticflickr.com/65535/49710539928_5005affdf4_o.jpg",
    "id_image": "Cat_971906",
    "count_view": 0
  },
  {
    "link_thumb": "https://live.staticflickr.com/65535/49712444267_deca817cc9_n.jpg",
    "id_album": "407101116",
    "description": "SeaMonster_407801",
    "title": "SeaMonster_407801",
    "link_img": "https://live.staticflickr.com/65535/49712444267_21abfdeef3_o.jpg",
    "id_image": "SeaMonster_407801",
    "count_view": 0
  },
  {
    "link_thumb": "https://live.staticflickr.com/65535/49711311727_aa3d6d392a_n.jpg",
    "id_album": "1187037014",
    "description": "Battle_242343",
    "title": "Battle_242343",
    "link_img": "https://live.staticflickr.com/65535/49711311727_ea16f09a09_o.jpg",
    "id_image": "Battle_242343",
    "count_view": 0
  },
  {
    "link_thumb": "https://live.staticflickr.com/65535/49711185497_41f3aa6273_n.jpg",
    "id_album": "-2109465612",
    "description": "Adventure_239371",
    "title": "Adventure_239371",
    "link_img": "https://live.staticflickr.com/65535/49711185497_ec0f95e858_o.jpg",
    "id_image": "Adventure_239371",
    "count_view": 0
  },
  {
    "link_thumb": "https://live.staticflickr.com/65535/49711752241_0150046565_n.jpg",
    "id_album": "857581314",
    "description": "Griffin_510284",
    "title": "Griffin_510284",
    "link_img": "https://live.staticflickr.com/65535/49711752241_4ff0ff10b3_o.jpg",
    "id_image": "Griffin_510284",
    "count_view": 0
  },
  {
    "link_thumb": "https://live.staticflickr.com/65535/49711568676_2513e8d5c6_n.jpg",
    "id_album": "850176884",
    "description": "Dragon_926858",
    "title": "Dragon_926858",
    "link_img": "https://live.staticflickr.com/65535/49711568676_59fddc1130_o.jpg",
    "id_image": "Dragon_926858",
    "count_view": 0
  },
  {
    "link_thumb": "https://live.staticflickr.com/65535/49711734937_5d7ec32f44_n.jpg",
    "id_album": "850176884",
    "description": "Dragon_297866",
    "title": "Dragon_297866",
    "link_img": "https://live.staticflickr.com/65535/49711734937_f0df3d267e_o.jpg",
    "id_image": "Dragon_297866",
    "count_view": 0
  },
  {
    "link_thumb": "https://live.staticflickr.com/65535/49711048346_898567e9bb_n.jpg",
    "id_album": "-1541846310",
    "description": "Castle_557533",
    "title": "Castle_557533",
    "link_img": "https://live.staticflickr.com/65535/49711048346_5c3a5c278e_o.jpg",
    "id_image": "Castle_557533",
    "count_view": 0
  },
  {
    "link_thumb": "https://live.staticflickr.com/65535/49711331528_93e1f5bba9_n.jpg",
    "id_album": "1402713104",
    "description": "Landscape_947441",
    "title": "Landscape_947441",
    "link_img": "https://live.staticflickr.com/65535/49711331528_71151382ea_o.jpg",
    "id_image": "Landscape_947441",
    "count_view": 0
  },
  {
    "link_thumb": "https://live.staticflickr.com/65535/49712233171_75cffaa6c3_n.jpg",
    "id_album": "-1261420436",
    "description": "Warrior_903925",
    "title": "Warrior_903925",
    "link_img": "https://live.staticflickr.com/65535/49712233171_8a9bbfecb3_o.jpg",
    "id_image": "Warrior_903925",
    "count_view": 0
  },
  {
    "link_thumb": "https://live.staticflickr.com/65535/49711991651_8a164714c8_n.jpg",
    "id_album": "1006968559",
    "description": "LordoftheRings_842661",
    "title": "LordoftheRings_842661",
    "link_img": "https://live.staticflickr.com/65535/49711991651_13581b2044_o.jpg",
    "id_image": "LordoftheRings_842661",
    "count_view": 0
  },
  {
    "link_thumb": "https://live.staticflickr.com/65535/49712677117_a3a432e6dd_n.jpg",
    "id_album": "-1126835654",
    "description": "Women_999252",
    "title": "Women_999252",
    "link_img": "https://live.staticflickr.com/65535/49712677117_4ea2fb5f6c_o.jpg",
    "id_image": "Women_999252",
    "count_view": 0
  },
  {
    "link_thumb": "https://live.staticflickr.com/65535/49711284918_c549fc11a5_n.jpg",
    "id_album": "1402713104",
    "description": "Landscape_787046",
    "title": "Landscape_787046",
    "link_img": "https://live.staticflickr.com/65535/49711284918_74e6d1eaa5_o.jpg",
    "id_image": "Landscape_787046",
    "count_view": 0
  },
  {
    "link_thumb": "https://live.staticflickr.com/65535/49710859598_e5ce78b8ee_n.jpg",
    "id_album": "850176884",
    "description": "Dragon_242239",
    "title": "Dragon_242239",
    "link_img": "https://live.staticflickr.com/65535/49710859598_3581675bea_o.jpg",
    "id_image": "Dragon_242239",
    "count_view": 0
  },
  {
    "link_thumb": "https://live.staticflickr.com/65535/49711945802_ac264797c1_n.jpg",
    "id_album": "134100487",
    "description": "Elf_593915",
    "title": "Elf_593915",
    "link_img": "https://live.staticflickr.com/65535/49711945802_c24aa90a9e_o.jpg",
    "id_image": "Elf_593915",
    "count_view": 0
  },
  {
    "link_thumb": "https://live.staticflickr.com/65535/49712388247_2326b8fb08_n.jpg",
    "id_album": "-639976841",
    "description": "Pegasus_746154",
    "title": "Pegasus_746154",
    "link_img": "https://live.staticflickr.com/65535/49712388247_3a4688a00f_o.jpg",
    "id_image": "Pegasus_746154",
    "count_view": 0
  },
  {
    "link_thumb": "https://live.staticflickr.com/65535/49711248561_98bda024ed_n.jpg",
    "id_album": "-437872736",
    "description": "Creature_561479",
    "title": "Creature_561479",
    "link_img": "https://live.staticflickr.com/65535/49711248561_e1a65e3a7d_o.jpg",
    "id_image": "Creature_561479",
    "count_view": 0
  },
  {
    "link_thumb": "https://live.staticflickr.com/65535/49711293751_7e794758e9_n.jpg",
    "id_album": "-437872736",
    "description": "Creature_958894",
    "title": "Creature_958894",
    "link_img": "https://live.staticflickr.com/65535/49711293751_02f8e13772_o.jpg",
    "id_image": "Creature_958894",
    "count_view": 0
  },
  {
    "link_thumb": "https://live.staticflickr.com/65535/49711480001_fbbc46a426_n.jpg",
    "id_album": "850176884",
    "description": "Dragon_554148",
    "title": "Dragon_554148",
    "link_img": "https://live.staticflickr.com/65535/49711480001_51eaf4f06c_o.jpg",
    "id_image": "Dragon_554148",
    "count_view": 0
  },
  {
    "link_thumb": "https://live.staticflickr.com/65535/49711209891_1ddea4b868_n.jpg",
    "id_album": "-437872736",
    "description": "Creature_342924",
    "title": "Creature_342924",
    "link_img": "https://live.staticflickr.com/65535/49711209891_18f6205eb0_o.jpg",
    "id_image": "Creature_342924",
    "count_view": 0
  },
  {
    "link_thumb": "https://live.staticflickr.com/65535/49710925726_7bba07093f_n.jpg",
    "id_album": "-1913845949",
    "description": "Animal_982819",
    "title": "Animal_982819",
    "link_img": "https://live.staticflickr.com/65535/49710925726_0c12164335_o.jpg",
    "id_image": "Animal_982819",
    "count_view": 0
  },
  {
    "link_thumb": "https://live.staticflickr.com/65535/49711353251_6b40748686_n.jpg",
    "id_album": "850176884",
    "description": "DRAGON26101916503462",
    "title": "DRAGON26101916503462",
    "link_img": "https://live.staticflickr.com/65535/49711353251_13113f9e75_o.jpg",
    "id_image": "DRAGON26101916503462",
    "count_view": 0
  },
  {
    "link_thumb": "https://live.staticflickr.com/65535/49710934086_136b7bd47f_n.jpg",
    "id_album": "-1560111795",
    "description": "Archer_808786",
    "title": "Archer_808786",
    "link_img": "https://live.staticflickr.com/65535/49710934086_0f34808952_o.jpg",
    "id_image": "Archer_808786",
    "count_view": 0
  },
  {
    "link_thumb": "https://live.staticflickr.com/65535/49711245937_02ef2fde69_n.jpg",
    "id_album": "-1913845949",
    "description": "Animal_918807",
    "title": "Animal_918807",
    "link_img": "https://live.staticflickr.com/65535/49711245937_bc24e136af_o.jpg",
    "id_image": "Animal_918807",
    "count_view": 0
  },
  {
    "link_thumb": "https://live.staticflickr.com/65535/49710639353_9b58f249b6_n.jpg",
    "id_album": "-437872736",
    "description": "Creature_27550",
    "title": "Creature_27550",
    "link_img": "https://live.staticflickr.com/65535/49710639353_e8444e0532_o.jpg",
    "id_image": "Creature_27550",
    "count_view": 0
  },
  {
    "link_thumb": "https://live.staticflickr.com/65535/49711784366_86ac85bb72_n.jpg",
    "id_album": "469960528",
    "description": "Knight_688749",
    "title": "Knight_688749",
    "link_img": "https://live.staticflickr.com/65535/49711784366_094458822b_o.jpg",
    "id_image": "Knight_688749",
    "count_view": 0
  },
  {
    "link_thumb": "https://live.staticflickr.com/65535/49712100382_4eae95f9c2_n.jpg",
    "id_album": "469960528",
    "description": "Knight_105357",
    "title": "Knight_105357",
    "link_img": "https://live.staticflickr.com/65535/49712100382_61e428e9de_o.jpg",
    "id_image": "Knight_105357",
    "count_view": 0
  },
  {
    "link_thumb": "https://live.staticflickr.com/65535/49710395618_c260655565_n.jpg",
    "id_album": "-1560111795",
    "description": "Archer_267823",
    "title": "Archer_267823",
    "link_img": "https://live.staticflickr.com/65535/49710395618_8f4dc46ae7_o.jpg",
    "id_image": "Archer_267823",
    "count_view": 0
  },
  {
    "link_thumb": "https://live.staticflickr.com/65535/49711370962_7b6a7498f5_n.jpg",
    "id_album": "-1541846310",
    "description": "Castle_526775",
    "title": "Castle_526775",
    "link_img": "https://live.staticflickr.com/65535/49711370962_1df96e8beb_o.jpg",
    "id_image": "Castle_526775",
    "count_view": 0
  },
  {
    "link_thumb": "https://live.staticflickr.com/65535/49711355478_5ff6943576_n.jpg",
    "id_album": "-833110404",
    "description": "Landscape_182952",
    "title": "Landscape_182952",
    "link_img": "https://live.staticflickr.com/65535/49711355478_ece6828dd1_o.jpg",
    "id_image": "Landscape_182952",
    "count_view": 0
  },
  {
    "link_thumb": "https://live.staticflickr.com/65535/49711421752_deebcfa099_n.jpg",
    "id_album": "-1964113117",
    "description": "City_327449",
    "title": "City_327449",
    "link_img": "https://live.staticflickr.com/65535/49711421752_a8541d3fb0_o.jpg",
    "id_image": "City_327449",
    "count_view": 0
  },
  {
    "link_thumb": "https://live.staticflickr.com/65535/49712191402_4b2fa6b09d_n.jpg",
    "id_album": "1402713104",
    "description": "Landscape_952443",
    "title": "Landscape_952443",
    "link_img": "https://live.staticflickr.com/65535/49712191402_00b0f8d4cb_o.jpg",
    "id_image": "Landscape_952443",
    "count_view": 0
  },
  {
    "link_thumb": "https://live.staticflickr.com/65535/49711366262_eb14981e6d_n.jpg",
    "id_album": "-1541846310",
    "description": "Castle_324963",
    "title": "Castle_324963",
    "link_img": "https://live.staticflickr.com/65535/49711366262_4f15b17bd1_o.jpg",
    "id_image": "Castle_324963",
    "count_view": 0
  },
  {
    "link_thumb": "https://live.staticflickr.com/65535/49711906363_15ebae8c64_n.jpg",
    "id_album": "1861288871",
    "description": "Women_263786",
    "title": "Women_263786",
    "link_img": "https://live.staticflickr.com/65535/49711906363_45def95c17_o.jpg",
    "id_image": "Women_263786",
    "count_view": 0
  },
  {
    "link_thumb": "https://live.staticflickr.com/65535/49712222222_02cb1bf5b7_n.jpg",
    "id_album": "-833110404",
    "description": "Landscape_249791",
    "title": "Landscape_249791",
    "link_img": "https://live.staticflickr.com/65535/49712222222_f78f420def_o.jpg",
    "id_image": "Landscape_249791",
    "count_view": 0
  },
  {
    "link_thumb": "https://live.staticflickr.com/65535/49711492093_b30028c327_n.jpg",
    "id_album": "1721880108",
    "description": "Mermaid_567034",
    "title": "Mermaid_567034",
    "link_img": "https://live.staticflickr.com/65535/49711492093_47b84be95e_o.jpg",
    "id_image": "Mermaid_567034",
    "count_view": 0
  },
  {
    "link_thumb": "https://live.staticflickr.com/65535/49711295391_9c76981d64_n.jpg",
    "id_album": "-437872736",
    "description": "Creature_958904",
    "title": "Creature_958904",
    "link_img": "https://live.staticflickr.com/65535/49711295391_56b94b3ba6_o.jpg",
    "id_image": "Creature_958904",
    "count_view": 0
  },
  {
    "link_thumb": "https://live.staticflickr.com/65535/49711983436_d91676c42e_n.jpg",
    "id_album": "416744915",
    "description": "Lion_702757",
    "title": "Lion_702757",
    "link_img": "https://live.staticflickr.com/65535/49711983436_c35c6dbaa6_o.jpg",
    "id_image": "Lion_702757",
    "count_view": 0
  },
  {
    "link_thumb": "https://live.staticflickr.com/65535/49711190511_3dec952d9a_n.jpg",
    "id_album": "-437872736",
    "description": "Creature_315661",
    "title": "Creature_315661",
    "link_img": "https://live.staticflickr.com/65535/49711190511_514d500401_o.jpg",
    "id_image": "Creature_315661",
    "count_view": 0
  },
  {
    "link_thumb": "https://live.staticflickr.com/65535/49711185083_523c8746ac_n.jpg",
    "id_album": "-1083189875",
    "description": "Forest_896531",
    "title": "Forest_896531",
    "link_img": "https://live.staticflickr.com/65535/49711185083_aedfbe57c6_o.jpg",
    "id_image": "Forest_896531",
    "count_view": 0
  },
  {
    "link_thumb": "https://live.staticflickr.com/65535/49711458282_298f02ac79_n.jpg",
    "id_album": "-1964113117",
    "description": "City_957843",
    "title": "City_957843",
    "link_img": "https://live.staticflickr.com/65535/49711458282_5554bd8247_o.jpg",
    "id_image": "City_957843",
    "count_view": 0
  },
  {
    "link_thumb": "https://live.staticflickr.com/65535/49710441498_c7303940bc_n.jpg",
    "id_album": "523598895",
    "description": "Artistic_600548",
    "title": "Artistic_600548",
    "link_img": "https://live.staticflickr.com/65535/49710441498_5dc48a1ae8_o.jpg",
    "id_image": "Artistic_600548",
    "count_view": 0
  },
  {
    "link_thumb": "https://live.staticflickr.com/65535/49712196231_f2416a48b8_n.jpg",
    "id_album": "1215289234",
    "description": "WARIOR2610191651317",
    "title": "WARIOR2610191651317",
    "link_img": "https://live.staticflickr.com/65535/49712196231_354d3edcf6_o.jpg",
    "id_image": "WARIOR2610191651317",
    "count_view": 0
  },
  {
    "link_thumb": "https://live.staticflickr.com/65535/49711612107_e796d903fb_n.jpg",
    "id_album": "-437872736",
    "description": "Creature_958715",
    "title": "Creature_958715",
    "link_img": "https://live.staticflickr.com/65535/49711612107_382502db3e_o.jpg",
    "id_image": "Creature_958715",
    "count_view": 0
  },
  {
    "link_thumb": "https://live.staticflickr.com/65535/49711000676_cdc1450784_n.jpg",
    "id_album": "1187037014",
    "description": "Battle_476180",
    "title": "Battle_476180",
    "link_img": "https://live.staticflickr.com/65535/49711000676_8f01801180_o.jpg",
    "id_image": "Battle_476180",
    "count_view": 0
  },
  {
    "link_thumb": "https://live.staticflickr.com/65535/49712596692_e156ab793b_n.jpg",
    "id_album": "-709711865",
    "description": "Wolf_463422",
    "title": "Wolf_463422",
    "link_img": "https://live.staticflickr.com/65535/49712596692_a220f3faa9_o.jpg",
    "id_image": "Wolf_463422",
    "count_view": 0
  },
  {
    "link_thumb": "https://live.staticflickr.com/65535/49711111588_fabe0e3735_n.jpg",
    "id_album": "-1972042284",
    "description": "Fairy_146071",
    "title": "Fairy_146071",
    "link_img": "https://live.staticflickr.com/65535/49711111588_0b7f36a1d2_o.jpg",
    "id_image": "Fairy_146071",
    "count_view": 0
  },
  {
    "link_thumb": "https://live.staticflickr.com/65535/49711680277_e93708e23c_n.jpg",
    "id_album": "850176884",
    "description": "Dragon_117378",
    "title": "Dragon_117378",
    "link_img": "https://live.staticflickr.com/65535/49711680277_6d45e1e9af_o.jpg",
    "id_image": "Dragon_117378",
    "count_view": 0
  },
  {
    "link_thumb": "https://live.staticflickr.com/65535/49711556148_c36de690fb_n.jpg",
    "id_album": "606798642",
    "description": "RedRidingHood_854055",
    "title": "RedRidingHood_854055",
    "link_img": "https://live.staticflickr.com/65535/49711556148_1f8d70327e_o.jpg",
    "id_image": "RedRidingHood_854055",
    "count_view": 0
  },
  {
    "link_thumb": "https://live.staticflickr.com/65535/49710990811_285f5e9620_n.jpg",
    "id_album": "1187037014",
    "description": "Battle_294007",
    "title": "Battle_294007",
    "link_img": "https://live.staticflickr.com/65535/49710990811_c608a7488e_o.jpg",
    "id_image": "Battle_294007",
    "count_view": 0
  },
  {
    "link_thumb": "https://live.staticflickr.com/65535/49711881101_7f1d023300_n.jpg",
    "id_album": "1402713104",
    "description": "Landscape_991377",
    "title": "Landscape_991377",
    "link_img": "https://live.staticflickr.com/65535/49711881101_f45578fb1b_o.jpg",
    "id_image": "Landscape_991377",
    "count_view": 0
  },
  {
    "link_thumb": "https://live.staticflickr.com/65535/49712472057_65b8c6d081_n.jpg",
    "id_album": "1209361954",
    "description": "Sylvan_456148",
    "title": "Sylvan_456148",
    "link_img": "https://live.staticflickr.com/65535/49712472057_c8726bf828_o.jpg",
    "id_image": "Sylvan_456148",
    "count_view": 0
  },
  {
    "link_thumb": "https://live.staticflickr.com/65535/49711562961_d6619d9f93_n.jpg",
    "id_album": "850176884",
    "description": "Dragon_912998",
    "title": "Dragon_912998",
    "link_img": "https://live.staticflickr.com/65535/49711562961_0538a68b7d_o.jpg",
    "id_image": "Dragon_912998",
    "count_view": 0
  },
  {
    "link_thumb": "https://live.staticflickr.com/65535/49710643368_706374d365_n.jpg",
    "id_album": "-437872736",
    "description": "Creature_293142",
    "title": "Creature_293142",
    "link_img": "https://live.staticflickr.com/65535/49710643368_4da98dcc2d_o.jpg",
    "id_image": "Creature_293142",
    "count_view": 0
  },
  {
    "link_thumb": "https://live.staticflickr.com/65535/49711257157_105ddb2de5_n.jpg",
    "id_album": "-1560111795",
    "description": "Archer_701062",
    "title": "Archer_701062",
    "link_img": "https://live.staticflickr.com/65535/49711257157_70c511b9c4_o.jpg",
    "id_image": "Archer_701062",
    "count_view": 0
  },
  {
    "link_thumb": "https://live.staticflickr.com/65535/49712358632_60ca0e5854_n.jpg",
    "id_album": "1892085513",
    "description": "Oriental_205972",
    "title": "Oriental_205972",
    "link_img": "https://live.staticflickr.com/65535/49712358632_cbfd90cba9_o.jpg",
    "id_image": "Oriental_205972",
    "count_view": 0
  },
  {
    "link_thumb": "https://live.staticflickr.com/65535/49711484326_04a8c249e5_n.jpg",
    "id_album": "850176884",
    "description": "Dragon_564442",
    "title": "Dragon_564442",
    "link_img": "https://live.staticflickr.com/65535/49711484326_866d8ed2e3_o.jpg",
    "id_image": "Dragon_564442",
    "count_view": 0
  },
  {
    "link_thumb": "https://live.staticflickr.com/65535/49711906143_f1fc0f6783_n.jpg",
    "id_album": "1861288871",
    "description": "Women_260842",
    "title": "Women_260842",
    "link_img": "https://live.staticflickr.com/65535/49711906143_8724232b05_o.jpg",
    "id_image": "Women_260842",
    "count_view": 0
  },
  {
    "link_thumb": "https://live.staticflickr.com/65535/49711216422_755c5754d0_n.jpg",
    "id_album": "-1913845949",
    "description": "Animal_123848",
    "title": "Animal_123848",
    "link_img": "https://live.staticflickr.com/65535/49711216422_7633e7d63a_o.jpg",
    "id_image": "Animal_123848",
    "count_view": 0
  },
  {
    "link_thumb": "https://live.staticflickr.com/65535/49712549466_d1d6e3184c_n.jpg",
    "id_album": "-1675918237",
    "description": "WomenWarrior_260838",
    "title": "WomenWarrior_260838",
    "link_img": "https://live.staticflickr.com/65535/49712549466_2a5738bb5a_o.jpg",
    "id_image": "WomenWarrior_260838",
    "count_view": 0
  },
  {
    "link_thumb": "https://live.staticflickr.com/65535/49711614363_5880d55c34_n.jpg",
    "id_album": "1209361954",
    "description": "Sylvan_419374",
    "title": "Sylvan_419374",
    "link_img": "https://live.staticflickr.com/65535/49711614363_1d4aea178c_o.jpg",
    "id_image": "Sylvan_419374",
    "count_view": 0
  },
  {
    "link_thumb": "https://live.staticflickr.com/65535/49711232518_9aa3d136d1_n.jpg",
    "id_album": "1957967226",
    "description": "House_602291",
    "title": "House_602291",
    "link_img": "https://live.staticflickr.com/65535/49711232518_652c740497_o.jpg",
    "id_image": "House_602291",
    "count_view": 0
  },
  {
    "link_thumb": "https://live.staticflickr.com/65535/49711639652_1d5ff212bd_n.jpg",
    "id_album": "2021464556",
    "description": "Dark_218658",
    "title": "Dark_218658",
    "link_img": "https://live.staticflickr.com/65535/49711639652_6d29de7811_o.jpg",
    "id_image": "Dark_218658",
    "count_view": 0
  },
  {
    "link_thumb": "https://live.staticflickr.com/65535/49710487873_38877bcf6e_n.jpg",
    "id_album": "406431601",
    "description": "Building_151174",
    "title": "Building_151174",
    "link_img": "https://live.staticflickr.com/65535/49710487873_b602dc836f_o.jpg",
    "id_image": "Building_151174",
    "count_view": 0
  },
  {
    "link_thumb": "https://live.staticflickr.com/65535/49710550538_a1a9b11f96_n.jpg",
    "id_album": "430704260",
    "description": "Child_958227",
    "title": "Child_958227",
    "link_img": "https://live.staticflickr.com/65535/49710550538_0ee09937fe_o.jpg",
    "id_image": "Child_958227",
    "count_view": 0
  },
  {
    "link_thumb": "https://live.staticflickr.com/65535/49711019953_8e080e8884_n.jpg",
    "id_album": "850176884",
    "description": "Dragon_900234",
    "title": "Dragon_900234",
    "link_img": "https://live.staticflickr.com/65535/49711019953_879df673aa_o.jpg",
    "id_image": "Dragon_900234",
    "count_view": 0
  },
  {
    "link_thumb": "https://live.staticflickr.com/65535/49711244641_1103c42c51_n.jpg",
    "id_album": "-437872736",
    "description": "Creature_522220",
    "title": "Creature_522220",
    "link_img": "https://live.staticflickr.com/65535/49711244641_1f83e83819_o.jpg",
    "id_image": "Creature_522220",
    "count_view": 0
  },
  {
    "link_thumb": "https://live.staticflickr.com/65535/49711483431_4740ffecf4_n.jpg",
    "id_album": "850176884",
    "description": "Dragon_563057",
    "title": "Dragon_563057",
    "link_img": "https://live.staticflickr.com/65535/49711483431_d34df4ffc5_o.jpg",
    "id_image": "Dragon_563057",
    "count_view": 0
  },
  {
    "link_thumb": "https://live.staticflickr.com/65535/49712410862_3f3983c466_n.jpg",
    "id_album": "606798642",
    "description": "RedRidingHood_202353",
    "title": "RedRidingHood_202353",
    "link_img": "https://live.staticflickr.com/65535/49712410862_aa752b5378_o.jpg",
    "id_image": "RedRidingHood_202353",
    "count_view": 0
  },
  {
    "link_thumb": "https://live.staticflickr.com/65535/49711464997_eb2411781b_n.jpg",
    "id_album": "-437872736",
    "description": "Creature_129838",
    "title": "Creature_129838",
    "link_img": "https://live.staticflickr.com/65535/49711464997_4f009e14bc_o.jpg",
    "id_image": "Creature_129838",
    "count_view": 0
  },
  {
    "link_thumb": "https://live.staticflickr.com/65535/49711013811_98c2efd84a_n.jpg",
    "id_album": "1187037014",
    "description": "Battle_976817",
    "title": "Battle_976817",
    "link_img": "https://live.staticflickr.com/65535/49711013811_6ca47b3d3d_o.jpg",
    "id_image": "Battle_976817",
    "count_view": 0
  },
  {
    "link_thumb": "https://live.staticflickr.com/65535/49711784671_ea5012e4c0_n.jpg",
    "id_album": "469960528",
    "description": "Knight_703168",
    "title": "Knight_703168",
    "link_img": "https://live.staticflickr.com/65535/49711784671_59c1633bb7_o.jpg",
    "id_image": "Knight_703168",
    "count_view": 0
  },
  {
    "link_thumb": "https://live.staticflickr.com/65535/49711544491_fff9c59051_n.jpg",
    "id_album": "850176884",
    "description": "Dragon_872488",
    "title": "Dragon_872488",
    "link_img": "https://live.staticflickr.com/65535/49711544491_ef8e8b8c64_o.jpg",
    "id_image": "Dragon_872488",
    "count_view": 0
  },
  {
    "link_thumb": "https://live.staticflickr.com/65535/49712622786_825f968c9e_n.jpg",
    "id_album": "-1675918237",
    "description": "WomenWarrior_510355",
    "title": "WomenWarrior_510355",
    "link_img": "https://live.staticflickr.com/65535/49712622786_d1d61c554d_o.jpg",
    "id_image": "WomenWarrior_510355",
    "count_view": 0
  },
  {
    "link_thumb": "https://live.staticflickr.com/65535/49711510061_256c06cbb7_n.jpg",
    "id_album": "850176884",
    "description": "Dragon_699826",
    "title": "Dragon_699826",
    "link_img": "https://live.staticflickr.com/65535/49711510061_0966449c43_o.jpg",
    "id_image": "Dragon_699826",
    "count_view": 0
  },
  {
    "link_thumb": "https://live.staticflickr.com/65535/49710998798_7c90573ed8_n.jpg",
    "id_album": "850176884",
    "description": "Dragon_849381",
    "title": "Dragon_849381",
    "link_img": "https://live.staticflickr.com/65535/49710998798_0a35467e38_o.jpg",
    "id_image": "Dragon_849381",
    "count_view": 0
  },
  {
    "link_thumb": "https://live.staticflickr.com/65535/49711485968_dc7013efeb_n.jpg",
    "id_album": "-222719689",
    "description": "Men_973295",
    "title": "Men_973295",
    "link_img": "https://live.staticflickr.com/65535/49711485968_a37ef57c0a_o.jpg",
    "id_image": "Men_973295",
    "count_view": 0
  },
  {
    "link_thumb": "https://live.staticflickr.com/65535/49711947977_0c0dece0a2_n.jpg",
    "id_album": "134100487",
    "description": "Elf_626688",
    "title": "Elf_626688",
    "link_img": "https://live.staticflickr.com/65535/49711947977_a31c7a9664_o.jpg",
    "id_image": "Elf_626688",
    "count_view": 0
  },
  {
    "link_thumb": "https://live.staticflickr.com/65535/49711038038_167da77204_n.jpg",
    "id_album": "850176884",
    "description": "Dragon_940890",
    "title": "Dragon_940890",
    "link_img": "https://live.staticflickr.com/65535/49711038038_5495b92f61_o.jpg",
    "id_image": "Dragon_940890",
    "count_view": 0
  },
  {
    "link_thumb": "https://live.staticflickr.com/65535/49712792702_3213c56057_n.jpg",
    "id_album": "1861288871",
    "description": "Women_785858",
    "title": "Women_785858",
    "link_img": "https://live.staticflickr.com/65535/49712792702_fe06da04e7_o.jpg",
    "id_image": "Women_785858",
    "count_view": 0
  },
  {
    "link_thumb": "https://live.staticflickr.com/65535/49712235946_1a3878b367_n.jpg",
    "id_album": "-1261420436",
    "description": "Warrior_919137",
    "title": "Warrior_919137",
    "link_img": "https://live.staticflickr.com/65535/49712235946_1a22637f4b_o.jpg",
    "id_image": "Warrior_919137",
    "count_view": 0
  },
  {
    "link_thumb": "https://live.staticflickr.com/65535/49711767226_bb4d49f575_n.jpg",
    "id_album": "1957967226",
    "description": "House_599388",
    "title": "House_599388",
    "link_img": "https://live.staticflickr.com/65535/49711767226_5923ef7fe5_o.jpg",
    "id_image": "House_599388",
    "count_view": 0
  },
  {
    "link_thumb": "https://live.staticflickr.com/65535/49711112158_7f60623036_n.jpg",
    "id_album": "-1972042284",
    "description": "Fairy_154167",
    "title": "Fairy_154167",
    "link_img": "https://live.staticflickr.com/65535/49711112158_0e420195af_o.jpg",
    "id_image": "Fairy_154167",
    "count_view": 0
  },
  {
    "link_thumb": "https://live.staticflickr.com/65535/49710970968_faf0fbdb82_n.jpg",
    "id_album": "850176884",
    "description": "Dragon_692315",
    "title": "Dragon_692315",
    "link_img": "https://live.staticflickr.com/65535/49710970968_4d10542258_o.jpg",
    "id_image": "Dragon_692315",
    "count_view": 0
  },
  {
    "link_thumb": "https://live.staticflickr.com/65535/49710540663_d3ea8de40b_n.jpg",
    "id_album": "430704260",
    "description": "Child_117292",
    "title": "Child_117292",
    "link_img": "https://live.staticflickr.com/65535/49710540663_7f4cefe5b9_o.jpg",
    "id_image": "Child_117292",
    "count_view": 0
  },
  {
    "link_thumb": "https://live.staticflickr.com/65535/49711302322_fabea11f5c_n.jpg",
    "id_album": "523598895",
    "description": "Artistic_700587",
    "title": "Artistic_700587",
    "link_img": "https://live.staticflickr.com/65535/49711302322_8624e88db9_o.jpg",
    "id_image": "Artistic_700587",
    "count_view": 0
  },
  {
    "link_thumb": "https://live.staticflickr.com/65535/49711980131_6a3b7c033b_n.jpg",
    "id_album": "416744915",
    "description": "Lion_236497",
    "title": "Lion_236497",
    "link_img": "https://live.staticflickr.com/65535/49711980131_933977b9e9_o.jpg",
    "id_image": "Lion_236497",
    "count_view": 0
  },
  {
    "link_thumb": "https://live.staticflickr.com/65535/49711459212_67fbc101cb_n.jpg",
    "id_album": "-1964113117",
    "description": "City_961984",
    "title": "City_961984",
    "link_img": "https://live.staticflickr.com/65535/49711459212_0357378d87_o.jpg",
    "id_image": "City_961984",
    "count_view": 0
  },
  {
    "link_thumb": "https://live.staticflickr.com/65535/49710689183_699eec2d7d_n.jpg",
    "id_album": "-437872736",
    "description": "Creature_388235",
    "title": "Creature_388235",
    "link_img": "https://live.staticflickr.com/65535/49710689183_f5fae07bbd_o.jpg",
    "id_image": "Creature_388235",
    "count_view": 0
  },
  {
    "link_thumb": "https://live.staticflickr.com/65535/49710716058_ac8f1f6b83_n.jpg",
    "id_album": "-437872736",
    "description": "Creature_599826",
    "title": "Creature_599826",
    "link_img": "https://live.staticflickr.com/65535/49710716058_291e73aa86_o.jpg",
    "id_image": "Creature_599826",
    "count_view": 0
  },
  {
    "link_thumb": "https://live.staticflickr.com/65535/49711383701_9a53c200b1_n.jpg",
    "id_album": "850176884",
    "description": "Dragon_199622",
    "title": "Dragon_199622",
    "link_img": "https://live.staticflickr.com/65535/49711383701_08baf44b20_o.jpg",
    "id_image": "Dragon_199622",
    "count_view": 0
  },
  {
    "link_thumb": "https://live.staticflickr.com/65535/49711298861_e3caee13c6_n.jpg",
    "id_album": "-437872736",
    "description": "Creature_958933",
    "title": "Creature_958933",
    "link_img": "https://live.staticflickr.com/65535/49711298861_ed2d35e0c9_o.jpg",
    "id_image": "Creature_958933",
    "count_view": 0
  },
  {
    "link_thumb": "https://live.staticflickr.com/65535/49712596062_a1d0f57f18_n.jpg",
    "id_album": "-709711865",
    "description": "Wolf_418941",
    "title": "Wolf_418941",
    "link_img": "https://live.staticflickr.com/65535/49712596062_19579ee197_o.jpg",
    "id_image": "Wolf_418941",
    "count_view": 0
  },
  {
    "link_thumb": "https://live.staticflickr.com/65535/49711336288_f88e9b29d7_n.jpg",
    "id_album": "1402713104",
    "description": "Landscape_956717",
    "title": "Landscape_956717",
    "link_img": "https://live.staticflickr.com/65535/49711336288_0f4467c95e_o.jpg",
    "id_image": "Landscape_956717",
    "count_view": 0
  },
  {
    "link_thumb": "https://live.staticflickr.com/65535/49710458778_d5c616053b_n.jpg",
    "id_album": "1187037014",
    "description": "Battle_319703",
    "title": "Battle_319703",
    "link_img": "https://live.staticflickr.com/65535/49710458778_60d87abf41_o.jpg",
    "id_image": "Battle_319703",
    "count_view": 0
  },
  {
    "link_thumb": "https://live.staticflickr.com/65535/49710969151_bbcc43ba90_n.jpg",
    "id_album": "523598895",
    "description": "Artistic_463426",
    "title": "Artistic_463426",
    "link_img": "https://live.staticflickr.com/65535/49710969151_f42da9c310_o.jpg",
    "id_image": "Artistic_463426",
    "count_view": 0
  },
  {
    "link_thumb": "https://live.staticflickr.com/65535/49710463518_7d70bc04d3_n.jpg",
    "id_album": "1187037014",
    "description": "Battle_387912",
    "title": "Battle_387912",
    "link_img": "https://live.staticflickr.com/65535/49710463518_cd22be8cd3_o.jpg",
    "id_image": "Battle_387912",
    "count_view": 0
  },
  {
    "link_thumb": "https://live.staticflickr.com/65535/49711549576_ee4b8cc70a_n.jpg",
    "id_album": "850176884",
    "description": "Dragon_883155",
    "title": "Dragon_883155",
    "link_img": "https://live.staticflickr.com/65535/49711549576_a4ac1befda_o.jpg",
    "id_image": "Dragon_883155",
    "count_view": 0
  },
  {
    "link_thumb": "https://live.staticflickr.com/65535/49711870632_76398273f2_n.jpg",
    "id_album": "850176884",
    "description": "Dragon_878431",
    "title": "Dragon_878431",
    "link_img": "https://live.staticflickr.com/65535/49711870632_eca14e87af_o.jpg",
    "id_image": "Dragon_878431",
    "count_view": 0
  },
  {
    "link_thumb": "https://live.staticflickr.com/65535/49711249761_c14099b452_n.jpg",
    "id_album": "-437872736",
    "description": "Creature_566547",
    "title": "Creature_566547",
    "link_img": "https://live.staticflickr.com/65535/49711249761_e6bbd7cfe8_o.jpg",
    "id_image": "Creature_566547",
    "count_view": 0
  },
  {
    "link_thumb": "https://live.staticflickr.com/65535/49712201751_f76f9518f3_n.jpg",
    "id_album": "-1261420436",
    "description": "Warrior_225960",
    "title": "Warrior_225960",
    "link_img": "https://live.staticflickr.com/65535/49712201751_eeecf8bf3a_o.jpg",
    "id_image": "Warrior_225960",
    "count_view": 0
  },
  {
    "link_thumb": "https://live.staticflickr.com/65535/49712539041_19688ebae1_n.jpg",
    "id_album": "-867594484",
    "description": "Women_693912",
    "title": "Women_693912",
    "link_img": "https://live.staticflickr.com/65535/49712539041_e32a37e6e8_o.jpg",
    "id_image": "Women_693912",
    "count_view": 0
  },
  {
    "link_thumb": "https://live.staticflickr.com/65535/49711432557_1e631e8f3b_n.jpg",
    "id_album": "-1964113117",
    "description": "City_593481",
    "title": "City_593481",
    "link_img": "https://live.staticflickr.com/65535/49711432557_38eebef3d4_o.jpg",
    "id_image": "City_593481",
    "count_view": 0
  },
  {
    "link_thumb": "https://live.staticflickr.com/65535/49710475193_fa246d413f_n.jpg",
    "id_album": "1187037014",
    "description": "Battle_772573",
    "title": "Battle_772573",
    "link_img": "https://live.staticflickr.com/65535/49710475193_c7dfd02e8d_o.jpg",
    "id_image": "Battle_772573",
    "count_view": 0
  },
  {
    "link_thumb": "https://live.staticflickr.com/65535/49710562838_8ab7e0e90a_n.jpg",
    "id_album": "-1964113117",
    "description": "City_344170",
    "title": "City_344170",
    "link_img": "https://live.staticflickr.com/65535/49710562838_b223881bec_o.jpg",
    "id_image": "City_344170",
    "count_view": 0
  },
  {
    "link_thumb": "https://live.staticflickr.com/65535/49711355537_380ce06556_n.jpg",
    "id_album": "-1541846310",
    "description": "Castle_129703",
    "title": "Castle_129703",
    "link_img": "https://live.staticflickr.com/65535/49711355537_2f8c9861a8_o.jpg",
    "id_image": "Castle_129703",
    "count_view": 0
  },
  {
    "link_thumb": "https://live.staticflickr.com/65535/49711157786_82090b8500_n.jpg",
    "id_album": "-437872736",
    "description": "Creature_213392",
    "title": "Creature_213392",
    "link_img": "https://live.staticflickr.com/65535/49711157786_ba4963e789_o.jpg",
    "id_image": "Creature_213392",
    "count_view": 0
  },
  {
    "link_thumb": "https://live.staticflickr.com/65535/49710902146_185a447879_n.jpg",
    "id_album": "-1913845949",
    "description": "Animal_510297",
    "title": "Animal_510297",
    "link_img": "https://live.staticflickr.com/65535/49710902146_7bdf4b0b60_o.jpg",
    "id_image": "Animal_510297",
    "count_view": 0
  },
  {
    "link_thumb": "https://live.staticflickr.com/65535/49711022931_eb830bee11_n.jpg",
    "id_album": "406431601",
    "description": "Building_154390",
    "title": "Building_154390",
    "link_img": "https://live.staticflickr.com/65535/49711022931_e6680126d7_o.jpg",
    "id_image": "Building_154390",
    "count_view": 0
  },
  {
    "link_thumb": "https://live.staticflickr.com/65535/49711361952_4211d97fa9_n.jpg",
    "id_album": "-1541846310",
    "description": "Castle_220868",
    "title": "Castle_220868",
    "link_img": "https://live.staticflickr.com/65535/49711361952_346f69f69f_o.jpg",
    "id_image": "Castle_220868",
    "count_view": 0
  },
  {
    "link_thumb": "https://live.staticflickr.com/65535/49711861691_4bef81678b_n.jpg",
    "id_album": "1402713104",
    "description": "Landscape_940265",
    "title": "Landscape_940265",
    "link_img": "https://live.staticflickr.com/65535/49711861691_eea28305f6_o.jpg",
    "id_image": "Landscape_940265",
    "count_view": 0
  },
  {
    "link_thumb": "https://live.staticflickr.com/65535/49712104241_9192129a96_n.jpg",
    "id_album": "-1611961467",
    "description": "Samurai_281441",
    "title": "Samurai_281441",
    "link_img": "https://live.staticflickr.com/65535/49712104241_b6db3c3740_o.jpg",
    "id_image": "Samurai_281441",
    "count_view": 0
  },
  {
    "link_thumb": "https://live.staticflickr.com/65535/49710862401_71a9cd648d_n.jpg",
    "id_album": "-2109465612",
    "description": "Adventure_241914",
    "title": "Adventure_241914",
    "link_img": "https://live.staticflickr.com/65535/49710862401_ee163bd0b6_o.jpg",
    "id_image": "Adventure_241914",
    "count_view": 0
  },
  {
    "link_thumb": "https://live.staticflickr.com/65535/49710919856_dfa5cefa1e_n.jpg",
    "id_album": "-1913845949",
    "description": "Animal_883345",
    "title": "Animal_883345",
    "link_img": "https://live.staticflickr.com/65535/49710919856_2aa97ed765_o.jpg",
    "id_image": "Animal_883345",
    "count_view": 0
  },
  {
    "link_thumb": "https://live.staticflickr.com/65535/49711538297_cc0ec3d0c3_n.jpg",
    "id_album": "-437872736",
    "description": "Creature_353636",
    "title": "Creature_353636",
    "link_img": "https://live.staticflickr.com/65535/49711538297_62f1ea3985_o.jpg",
    "id_image": "Creature_353636",
    "count_view": 0
  },
  {
    "link_thumb": "https://live.staticflickr.com/65535/49711255011_a77a4314c0_n.jpg",
    "id_album": "-437872736",
    "description": "Creature_635381",
    "title": "Creature_635381",
    "link_img": "https://live.staticflickr.com/65535/49711255011_4be0667d0a_o.jpg",
    "id_image": "Creature_635381",
    "count_view": 0
  },
  {
    "link_thumb": "https://live.staticflickr.com/65535/49711539257_21b59f6874_n.jpg",
    "id_album": "-437872736",
    "description": "Creature_357252",
    "title": "Creature_357252",
    "link_img": "https://live.staticflickr.com/65535/49711539257_e48e1796a2_o.jpg",
    "id_image": "Creature_357252",
    "count_view": 0
  },
  {
    "link_thumb": "https://live.staticflickr.com/65535/49711897227_7c5089cf62_n.jpg",
    "id_album": "850176884",
    "description": "Dragon_944750",
    "title": "Dragon_944750",
    "link_img": "https://live.staticflickr.com/65535/49711897227_940035a9bf_o.jpg",
    "id_image": "Dragon_944750",
    "count_view": 0
  },
  {
    "link_thumb": "https://live.staticflickr.com/65535/49712604582_c8c769d530_n.jpg",
    "id_album": "-709711865",
    "description": "Wolf_648870",
    "title": "Wolf_648870",
    "link_img": "https://live.staticflickr.com/65535/49712604582_1a0754f04c_o.jpg",
    "id_image": "Wolf_648870",
    "count_view": 0
  },
  {
    "link_thumb": "https://live.staticflickr.com/65535/49710442148_e8c5c6b816_n.jpg",
    "id_album": "523598895",
    "description": "Artistic_611964",
    "title": "Artistic_611964",
    "link_img": "https://live.staticflickr.com/65535/49710442148_454945aafa_o.jpg",
    "id_image": "Artistic_611964",
    "count_view": 0
  },
  {
    "link_thumb": "https://live.staticflickr.com/65535/49712541957_2de811757d_n.jpg",
    "id_album": "-1261420436",
    "description": "Warrior_709711",
    "title": "Warrior_709711",
    "link_img": "https://live.staticflickr.com/65535/49712541957_17aa140e2b_o.jpg",
    "id_image": "Warrior_709711",
    "count_view": 0
  },
  {
    "link_thumb": "https://live.staticflickr.com/65535/49710866578_fd41516132_n.jpg",
    "id_album": "850176884",
    "description": "Dragon_259402",
    "title": "Dragon_259402",
    "link_img": "https://live.staticflickr.com/65535/49710866578_94ecc546fa_o.jpg",
    "id_image": "Dragon_259402",
    "count_view": 0
  },
  {
    "link_thumb": "https://live.staticflickr.com/65535/49710367363_0b37ae3cbe_n.jpg",
    "id_album": "-1913845949",
    "description": "Animal_404332",
    "title": "Animal_404332",
    "link_img": "https://live.staticflickr.com/65535/49710367363_a401b1c7b9_o.jpg",
    "id_image": "Animal_404332",
    "count_view": 0
  },
  {
    "link_thumb": "https://live.staticflickr.com/65535/49711107011_6dcd3385fd_n.jpg",
    "id_album": "-1964113117",
    "description": "City_561983",
    "title": "City_561983",
    "link_img": "https://live.staticflickr.com/65535/49711107011_898b26db41_o.jpg",
    "id_image": "City_561983",
    "count_view": 0
  },
  {
    "link_thumb": "https://live.staticflickr.com/65535/49711675777_d2ee883a23_n.jpg",
    "id_album": "850176884",
    "description": "DRAGON26101916503069",
    "title": "DRAGON26101916503069",
    "link_img": "https://live.staticflickr.com/65535/49711675777_15028cc17c_o.jpg",
    "id_image": "DRAGON26101916503069",
    "count_view": 0
  },
  {
    "link_thumb": "https://live.staticflickr.com/65535/49712568627_0570c935ef_n.jpg",
    "id_album": "1173975892",
    "description": "Werewolf_559672",
    "title": "Werewolf_559672",
    "link_img": "https://live.staticflickr.com/65535/49712568627_666b7c60cc_o.jpg",
    "id_image": "Werewolf_559672",
    "count_view": 0
  },
  {
    "link_thumb": "https://live.staticflickr.com/65535/49711753122_653cfc3ede_n.jpg",
    "id_album": "850176884",
    "description": "Dragon_356230",
    "title": "Dragon_356230",
    "link_img": "https://live.staticflickr.com/65535/49711753122_c5911f626c_o.jpg",
    "id_image": "Dragon_356230",
    "count_view": 0
  },
  {
    "link_thumb": "https://live.staticflickr.com/65535/49711832107_89f3db80df_n.jpg",
    "id_album": "850176884",
    "description": "Dragon_709122",
    "title": "Dragon_709122",
    "link_img": "https://live.staticflickr.com/65535/49711832107_ea732bbfc2_o.jpg",
    "id_image": "Dragon_709122",
    "count_view": 0
  },
  {
    "link_thumb": "https://live.staticflickr.com/65535/49711304221_675b793703_n.jpg",
    "id_album": "-437872736",
    "description": "Creature_958975",
    "title": "Creature_958975",
    "link_img": "https://live.staticflickr.com/65535/49711304221_ce9a9f7095_o.jpg",
    "id_image": "Creature_958975",
    "count_view": 0
  },
  {
    "link_thumb": "https://live.staticflickr.com/65535/49710935516_0b11d3640d_n.jpg",
    "id_album": "523598895",
    "description": "Artistic_103886",
    "title": "Artistic_103886",
    "link_img": "https://live.staticflickr.com/65535/49710935516_723cc03cf5_o.jpg",
    "id_image": "Artistic_103886",
    "count_view": 0
  },
  {
    "link_thumb": "https://live.staticflickr.com/65535/49711231456_e53fd4c8d4_n.jpg",
    "id_album": "-437872736",
    "description": "Creature_455771",
    "title": "Creature_455771",
    "link_img": "https://live.staticflickr.com/65535/49711231456_baa6717816_o.jpg",
    "id_image": "Creature_455771",
    "count_view": 0
  },
  {
    "link_thumb": "https://live.staticflickr.com/65535/49712096213_9a50f1c88e_n.jpg",
    "id_album": "-1675918237",
    "description": "WomenWarrior_534419",
    "title": "WomenWarrior_534419",
    "link_img": "https://live.staticflickr.com/65535/49712096213_b0bcdcecf8_o.jpg",
    "id_image": "WomenWarrior_534419",
    "count_view": 0
  },
  {
    "link_thumb": "https://live.staticflickr.com/65535/49711382222_6ffd329fe2_n.jpg",
    "id_album": "-1541846310",
    "description": "Castle_854312",
    "title": "Castle_854312",
    "link_img": "https://live.staticflickr.com/65535/49711382222_c1d8a7ac8d_o.jpg",
    "id_image": "Castle_854312",
    "count_view": 0
  },
  {
    "link_thumb": "https://live.staticflickr.com/65535/49711753372_af26ee5dc2_n.jpg",
    "id_album": "850176884",
    "description": "Dragon_357603",
    "title": "Dragon_357603",
    "link_img": "https://live.staticflickr.com/65535/49711753372_06150b9c98_o.jpg",
    "id_image": "Dragon_357603",
    "count_view": 0
  },
  {
    "link_thumb": "https://live.staticflickr.com/65535/49710465288_7a77204949_n.jpg",
    "id_album": "1187037014",
    "description": "Battle_397127",
    "title": "Battle_397127",
    "link_img": "https://live.staticflickr.com/65535/49710465288_ddeef5ca5b_o.jpg",
    "id_image": "Battle_397127",
    "count_view": 0
  },
  {
    "link_thumb": "https://live.staticflickr.com/65535/49711554026_e14277e5ae_n.jpg",
    "id_album": "850176884",
    "description": "Dragon_900220",
    "title": "Dragon_900220",
    "link_img": "https://live.staticflickr.com/65535/49711554026_2e67f2a82f_o.jpg",
    "id_image": "Dragon_900220",
    "count_view": 0
  },
  {
    "link_thumb": "https://live.staticflickr.com/65535/49710581813_e5a6f4050f_n.jpg",
    "id_album": "-1964113117",
    "description": "City_717818",
    "title": "City_717818",
    "link_img": "https://live.staticflickr.com/65535/49710581813_2690f77aa2_o.jpg",
    "id_image": "City_717818",
    "count_view": 0
  },
  {
    "link_thumb": "https://live.staticflickr.com/65535/49710793503_fb1db0e457_n.jpg",
    "id_album": "1903411565",
    "description": "Deer_887884",
    "title": "Deer_887884",
    "link_img": "https://live.staticflickr.com/65535/49710793503_2da8b9ceaf_o.jpg",
    "id_image": "Deer_887884",
    "count_view": 0
  },
  {
    "link_thumb": "https://live.staticflickr.com/65535/49711036508_dd54a6b4ec_n.jpg",
    "id_album": "850176884",
    "description": "Dragon_931806",
    "title": "Dragon_931806",
    "link_img": "https://live.staticflickr.com/65535/49711036508_ef9ccd1a08_o.jpg",
    "id_image": "Dragon_931806",
    "count_view": 0
  },
  {
    "link_thumb": "https://live.staticflickr.com/65535/49711621306_139223f09c_n.jpg",
    "id_album": "134100487",
    "description": "Elf_582408",
    "title": "Elf_582408",
    "link_img": "https://live.staticflickr.com/65535/49711621306_7f492ab123_o.jpg",
    "id_image": "Elf_582408",
    "count_view": 0
  },
  {
    "link_thumb": "https://live.staticflickr.com/65535/49711053538_af0d964228_n.jpg",
    "id_album": "850176884",
    "description": "Dragon_980601",
    "title": "Dragon_980601",
    "link_img": "https://live.staticflickr.com/65535/49711053538_b430520d59_o.jpg",
    "id_image": "Dragon_980601",
    "count_view": 0
  },
  {
    "link_thumb": "https://live.staticflickr.com/65535/49712040791_bcbc8fe277_n.jpg",
    "id_album": "1892085513",
    "description": "Oriental_290388",
    "title": "Oriental_290388",
    "link_img": "https://live.staticflickr.com/65535/49712040791_87885724de_o.jpg",
    "id_image": "Oriental_290388",
    "count_view": 0
  },
  {
    "link_thumb": "https://live.staticflickr.com/65535/49711228298_8138af6ba0_n.jpg",
    "id_album": "-1933715543",
    "description": "Horse_925241",
    "title": "Horse_925241",
    "link_img": "https://live.staticflickr.com/65535/49711228298_5ab67e8289_o.jpg",
    "id_image": "Horse_925241",
    "count_view": 0
  },
  {
    "link_thumb": "https://live.staticflickr.com/65535/49711361978_b3e299a8a8_n.jpg",
    "id_album": "-833110404",
    "description": "Landscape_243368",
    "title": "Landscape_243368",
    "link_img": "https://live.staticflickr.com/65535/49711361978_903dbaf31d_o.jpg",
    "id_image": "Landscape_243368",
    "count_view": 0
  },
  {
    "link_thumb": "https://live.staticflickr.com/65535/49711524093_6b3369cac3_n.jpg",
    "id_album": "-639976841",
    "description": "Pegasus_106578",
    "title": "Pegasus_106578",
    "link_img": "https://live.staticflickr.com/65535/49711524093_976275c5c2_o.jpg",
    "id_image": "Pegasus_106578",
    "count_view": 0
  },
  {
    "link_thumb": "https://live.staticflickr.com/65535/49711321092_7c688e951b_n.jpg",
    "id_album": "1187037014",
    "description": "Battle_386321",
    "title": "Battle_386321",
    "link_img": "https://live.staticflickr.com/65535/49711321092_545bb59486_o.jpg",
    "id_image": "Battle_386321",
    "count_view": 0
  },
  {
    "link_thumb": "https://live.staticflickr.com/65535/49710355328_1bbc215a38_n.jpg",
    "id_album": "-1000175186",
    "description": "AngelWarrior_886701",
    "title": "AngelWarrior_886701",
    "link_img": "https://live.staticflickr.com/65535/49710355328_e49efe28c3_o.jpg",
    "id_image": "AngelWarrior_886701",
    "count_view": 0
  },
  {
    "link_thumb": "https://live.staticflickr.com/65535/49711749087_4f84d06b95_n.jpg",
    "id_album": "850176884",
    "description": "Dragon_337416",
    "title": "Dragon_337416",
    "link_img": "https://live.staticflickr.com/65535/49711749087_dfe42fc992_o.jpg",
    "id_image": "Dragon_337416",
    "count_view": 0
  },
  {
    "link_thumb": "https://live.staticflickr.com/65535/49710786778_3156716a17_n.jpg",
    "id_album": "2021464556",
    "description": "Dark_699417",
    "title": "Dark_699417",
    "link_img": "https://live.staticflickr.com/65535/49710786778_c0abc3d4cc_o.jpg",
    "id_image": "Dark_699417",
    "count_view": 0
  },
  {
    "link_thumb": "https://live.staticflickr.com/65535/49711069021_5de3cd9139_n.jpg",
    "id_album": "-1741487325",
    "description": "Cat_209997",
    "title": "Cat_209997",
    "link_img": "https://live.staticflickr.com/65535/49711069021_5de4ed8c34_o.jpg",
    "id_image": "Cat_209997",
    "count_view": 0
  },
  {
    "link_thumb": "https://live.staticflickr.com/65535/49711498386_a878fc9713_n.jpg",
    "id_album": "850176884",
    "description": "Dragon_624556",
    "title": "Dragon_624556",
    "link_img": "https://live.staticflickr.com/65535/49711498386_b935cb1d07_o.jpg",
    "id_image": "Dragon_624556",
    "count_view": 0
  },
  {
    "link_thumb": "https://live.staticflickr.com/65535/49712700272_2f57cf9d63_n.jpg",
    "id_album": "295204930",
    "description": "Women_329345",
    "title": "Women_329345",
    "link_img": "https://live.staticflickr.com/65535/49712700272_c32c126129_o.jpg",
    "id_image": "Women_329345",
    "count_view": 0
  },
  {
    "link_thumb": "https://live.staticflickr.com/65535/49710894111_02df5ca903_n.jpg",
    "id_album": "-1913845949",
    "description": "Animal_180392",
    "title": "Animal_180392",
    "link_img": "https://live.staticflickr.com/65535/49710894111_014d111243_o.jpg",
    "id_image": "Animal_180392",
    "count_view": 0
  },
  {
    "link_thumb": "https://live.staticflickr.com/65535/49712642486_28554c03d9_n.jpg",
    "id_album": "-1675918237",
    "description": "WomenWarrior_566325",
    "title": "WomenWarrior_566325",
    "link_img": "https://live.staticflickr.com/65535/49712642486_1b0b365794_o.jpg",
    "id_image": "WomenWarrior_566325",
    "count_view": 0
  },
  {
    "link_thumb": "https://live.staticflickr.com/65535/49711504747_4505d647b4_n.jpg",
    "id_album": "-437872736",
    "description": "Creature_294911",
    "title": "Creature_294911",
    "link_img": "https://live.staticflickr.com/65535/49711504747_b2f32b57b4_o.jpg",
    "id_image": "Creature_294911",
    "count_view": 0
  },
  {
    "link_thumb": "https://live.staticflickr.com/65535/49711277758_c38ebe7ab6_n.jpg",
    "id_album": "1402713104",
    "description": "Landscape_726807",
    "title": "Landscape_726807",
    "link_img": "https://live.staticflickr.com/65535/49711277758_b1b9a85afe_o.jpg",
    "id_image": "Landscape_726807",
    "count_view": 0
  },
  {
    "link_thumb": "https://live.staticflickr.com/65535/49712716372_819bb8941f_n.jpg",
    "id_album": "295204930",
    "description": "Women_401835",
    "title": "Women_401835",
    "link_img": "https://live.staticflickr.com/65535/49712716372_4ea0358a0c_o.jpg",
    "id_image": "Women_401835",
    "count_view": 0
  },
  {
    "link_thumb": "https://live.staticflickr.com/65535/49710640788_177c701cbb_n.jpg",
    "id_album": "-437872736",
    "description": "Creature_283717",
    "title": "Creature_283717",
    "link_img": "https://live.staticflickr.com/65535/49710640788_c572336c0b_o.jpg",
    "id_image": "Creature_283717",
    "count_view": 0
  },
  {
    "link_thumb": "https://live.staticflickr.com/65535/49710886638_a9465fc1b3_n.jpg",
    "id_album": "850176884",
    "description": "Dragon_326686",
    "title": "Dragon_326686",
    "link_img": "https://live.staticflickr.com/65535/49710886638_2c77a2c161_o.jpg",
    "id_image": "Dragon_326686",
    "count_view": 0
  },
  {
    "link_thumb": "https://live.staticflickr.com/65535/49711838176_b601a0fa20_n.jpg",
    "id_album": "1402713104",
    "description": "Landscape_866071",
    "title": "Landscape_866071",
    "link_img": "https://live.staticflickr.com/65535/49711838176_1bec1c33a7_o.jpg",
    "id_image": "Landscape_866071",
    "count_view": 0
  },
  {
    "link_thumb": "https://live.staticflickr.com/65535/49711760292_899815cde1_n.jpg",
    "id_album": "850176884",
    "description": "Dragon_387893",
    "title": "Dragon_387893",
    "link_img": "https://live.staticflickr.com/65535/49711760292_0a6c1a640a_o.jpg",
    "id_image": "Dragon_387893",
    "count_view": 0
  },
  {
    "link_thumb": "https://live.staticflickr.com/65535/49712029717_87de64f732_n.jpg",
    "id_album": "-1083189875",
    "description": "Forest_707124",
    "title": "Forest_707124",
    "link_img": "https://live.staticflickr.com/65535/49712029717_9053cec4dd_o.jpg",
    "id_image": "Forest_707124",
    "count_view": 0
  },
  {
    "link_thumb": "https://live.staticflickr.com/65535/49710633988_a268fc3e4f_n.jpg",
    "id_album": "-437872736",
    "description": "Creature_265614",
    "title": "Creature_265614",
    "link_img": "https://live.staticflickr.com/65535/49710633988_1f21f3faba_o.jpg",
    "id_image": "Creature_265614",
    "count_view": 0
  },
  {
    "link_thumb": "https://live.staticflickr.com/65535/49711283702_8611e1471b_n.jpg",
    "id_album": "523598895",
    "description": "Artistic_302843",
    "title": "Artistic_302843",
    "link_img": "https://live.staticflickr.com/65535/49711283702_3017bfca23_o.jpg",
    "id_image": "Artistic_302843",
    "count_view": 0
  },
  {
    "link_thumb": "https://live.staticflickr.com/65535/49712622492_3339932dcc_n.jpg",
    "id_album": "-709711865",
    "description": "Wolf_989258",
    "title": "Wolf_989258",
    "link_img": "https://live.staticflickr.com/65535/49712622492_e8bdf377c4_o.jpg",
    "id_image": "Wolf_989258",
    "count_view": 0
  },
  {
    "link_thumb": "https://live.staticflickr.com/65535/49710941741_00bb9557c1_n.jpg",
    "id_album": "523598895",
    "description": "Artistic_127798",
    "title": "Artistic_127798",
    "link_img": "https://live.staticflickr.com/65535/49710941741_5c49cfcb55_o.jpg",
    "id_image": "Artistic_127798",
    "count_view": 0
  },
  {
    "link_thumb": "https://live.staticflickr.com/65535/49711354822_f446f4d614_n.jpg",
    "id_album": "-1541846310",
    "description": "Castle_114446",
    "title": "Castle_114446",
    "link_img": "https://live.staticflickr.com/65535/49711354822_afeb378811_o.jpg",
    "id_image": "Castle_114446",
    "count_view": 0
  },
  {
    "link_thumb": "https://live.staticflickr.com/65535/49712154116_5e074e00bf_n.jpg",
    "id_album": "1186644325",
    "description": "Tattoo_201989",
    "title": "Tattoo_201989",
    "link_img": "https://live.staticflickr.com/65535/49712154116_44cd68075e_o.jpg",
    "id_image": "Tattoo_201989",
    "count_view": 0
  },
  {
    "link_thumb": "https://live.staticflickr.com/65535/49712123023_a9219ef2c1_n.jpg",
    "id_album": "-1675918237",
    "description": "WomenWarrior_703158",
    "title": "WomenWarrior_703158",
    "link_img": "https://live.staticflickr.com/65535/49712123023_d68347925c_o.jpg",
    "id_image": "WomenWarrior_703158",
    "count_view": 0
  },
  {
    "link_thumb": "https://live.staticflickr.com/65535/49710814798_aefa67378d_n.jpg",
    "id_album": "850176884",
    "description": "DRAGON26101916500838",
    "title": "DRAGON26101916500838",
    "link_img": "https://live.staticflickr.com/65535/49710814798_ba18052eb9_o.jpg",
    "id_image": "DRAGON26101916500838",
    "count_view": 0
  },
  {
    "link_thumb": "https://live.staticflickr.com/65535/49711591322_aa2346f959_n.jpg",
    "id_album": "-437872736",
    "description": "Creature_778582",
    "title": "Creature_778582",
    "link_img": "https://live.staticflickr.com/65535/49711591322_60f72b03c0_o.jpg",
    "id_image": "Creature_778582",
    "count_view": 0
  },
  {
    "link_thumb": "https://live.staticflickr.com/65535/49710939946_ccb932191d_n.jpg",
    "id_album": "523598895",
    "description": "Artistic_121546",
    "title": "Artistic_121546",
    "link_img": "https://live.staticflickr.com/65535/49710939946_ab222c3c0c_o.jpg",
    "id_image": "Artistic_121546",
    "count_view": 0
  },
  {
    "link_thumb": "https://live.staticflickr.com/65535/49711517443_4968710cc4_n.jpg",
    "id_album": "1892085513",
    "description": "Oriental_981688",
    "title": "Oriental_981688",
    "link_img": "https://live.staticflickr.com/65535/49711517443_5e9ac946dd_o.jpg",
    "id_image": "Oriental_981688",
    "count_view": 0
  },
  {
    "link_thumb": "https://live.staticflickr.com/65535/49711789702_dfcfddee97_n.jpg",
    "id_album": "850176884",
    "description": "Dragon_517931",
    "title": "Dragon_517931",
    "link_img": "https://live.staticflickr.com/65535/49711789702_5560f16aec_o.jpg",
    "id_image": "Dragon_517931",
    "count_view": 0
  },
  {
    "link_thumb": "https://live.staticflickr.com/65535/49711348166_aa1ea366c2_n.jpg",
    "id_album": "850176884",
    "description": "DRAGON26101916495932",
    "title": "DRAGON26101916495932",
    "link_img": "https://live.staticflickr.com/65535/49711348166_1424512a11_o.jpg",
    "id_image": "DRAGON26101916495932",
    "count_view": 0
  },
  {
    "link_thumb": "https://live.staticflickr.com/65535/49710904236_4110c43ede_n.jpg",
    "id_album": "-1913845949",
    "description": "Animal_618367",
    "title": "Animal_618367",
    "link_img": "https://live.staticflickr.com/65535/49710904236_49c4fb0962_o.jpg",
    "id_image": "Animal_618367",
    "count_view": 0
  },
  {
    "link_thumb": "https://live.staticflickr.com/65535/49711566386_72178d2c8e_n.jpg",
    "id_album": "850176884",
    "description": "Dragon_921690",
    "title": "Dragon_921690",
    "link_img": "https://live.staticflickr.com/65535/49711566386_6b7b944e97_o.jpg",
    "id_image": "Dragon_921690",
    "count_view": 0
  },
  {
    "link_thumb": "https://live.staticflickr.com/65535/49711157683_03a3c7bbb4_n.jpg",
    "id_album": "-1083189875",
    "description": "Forest_244085",
    "title": "Forest_244085",
    "link_img": "https://live.staticflickr.com/65535/49711157683_af40b50bc1_o.jpg",
    "id_image": "Forest_244085",
    "count_view": 0
  },
  {
    "link_thumb": "https://live.staticflickr.com/65535/49711973098_8851162896_n.jpg",
    "id_album": "-867594484",
    "description": "Women_562234",
    "title": "Women_562234",
    "link_img": "https://live.staticflickr.com/65535/49711973098_9ec45d9a13_o.jpg",
    "id_image": "Women_562234",
    "count_view": 0
  },
  {
    "link_thumb": "https://live.staticflickr.com/65535/49710950358_70bd06e899_n.jpg",
    "id_album": "850176884",
    "description": "Dragon_582406",
    "title": "Dragon_582406",
    "link_img": "https://live.staticflickr.com/65535/49710950358_1530095beb_o.jpg",
    "id_image": "Dragon_582406",
    "count_view": 0
  },
  {
    "link_thumb": "https://live.staticflickr.com/65535/49711065553_46c6869bfa_n.jpg",
    "id_album": "-1594184835",
    "description": "Dwarf_911262",
    "title": "Dwarf_911262",
    "link_img": "https://live.staticflickr.com/65535/49711065553_170067a474_o.jpg",
    "id_image": "Dwarf_911262",
    "count_view": 0
  },
  {
    "link_thumb": "https://live.staticflickr.com/65535/49712219137_0253a1ec5e_n.jpg",
    "id_album": "-833110404",
    "description": "Landscape_239871",
    "title": "Landscape_239871",
    "link_img": "https://live.staticflickr.com/65535/49712219137_6990880cae_o.jpg",
    "id_image": "Landscape_239871",
    "count_view": 0
  },
  {
    "link_thumb": "https://live.staticflickr.com/65535/49711227036_255333d818_n.jpg",
    "id_album": "-437872736",
    "description": "Creature_399473",
    "title": "Creature_399473",
    "link_img": "https://live.staticflickr.com/65535/49711227036_8254141d9c_o.jpg",
    "id_image": "Creature_399473",
    "count_view": 0
  },
  {
    "link_thumb": "https://live.staticflickr.com/65535/49711895976_80020cf2b5_n.jpg",
    "id_album": "-833110404",
    "description": "Landscape_240568",
    "title": "Landscape_240568",
    "link_img": "https://live.staticflickr.com/65535/49711895976_81119505a7_o.jpg",
    "id_image": "Landscape_240568",
    "count_view": 0
  },
  {
    "link_thumb": "https://live.staticflickr.com/65535/49712266741_58684ffe5a_n.jpg",
    "id_album": "-656526651",
    "description": "Wizard_264311",
    "title": "Wizard_264311",
    "link_img": "https://live.staticflickr.com/65535/49712266741_ebfb9e4ea6_o.jpg",
    "id_image": "Wizard_264311",
    "count_view": 0
  },
  {
    "link_thumb": "https://live.staticflickr.com/65535/49711468261_e967cb061a_n.jpg",
    "id_album": "850176884",
    "description": "Dragon_514763",
    "title": "Dragon_514763",
    "link_img": "https://live.staticflickr.com/65535/49711468261_384bfa8049_o.jpg",
    "id_image": "Dragon_514763",
    "count_view": 0
  },
  {
    "link_thumb": "https://live.staticflickr.com/65535/49710962226_97a523cc7e_n.jpg",
    "id_album": "523598895",
    "description": "Artistic_352734",
    "title": "Artistic_352734",
    "link_img": "https://live.staticflickr.com/65535/49710962226_08d36dc1c3_o.jpg",
    "id_image": "Artistic_352734",
    "count_view": 0
  },
  {
    "link_thumb": "https://live.staticflickr.com/65535/49710806983_6f432e9354_n.jpg",
    "id_album": "7198985",
    "description": "Demon_827422",
    "title": "Demon_827422",
    "link_img": "https://live.staticflickr.com/65535/49710806983_a31496671c_o.jpg",
    "id_image": "Demon_827422",
    "count_view": 0
  },
  {
    "link_thumb": "https://live.staticflickr.com/65535/49879232126_d0682ab45e_n.jpg",
    "id_album": "-1703946758",
    "description": "ANIME_PIC_d3224c4be8a881b2087b57c1ad3cc00c",
    "title": "ANIME_PIC_d3224c4be8a881b2087b57c1ad3cc00c",
    "link_img": "https://live.staticflickr.com/65535/49879232126_114ff30cae_o.jpg",
    "id_image": "ANIME_PIC_d3224c4be8a881b2087b57c1ad3cc00c",
    "count_view": 0
  },
  {
    "link_thumb": "https://live.staticflickr.com/65535/49710541393_92ae3f8849_n.jpg",
    "id_album": "430704260",
    "description": "Child_249225",
    "title": "Child_249225",
    "link_img": "https://live.staticflickr.com/65535/49710541393_a826163370_o.jpg",
    "id_image": "Child_249225",
    "count_view": 0
  },
  {
    "link_thumb": "https://live.staticflickr.com/65535/49711266632_be59d43133_n.jpg",
    "id_album": "523598895",
    "description": "Artistic_146053",
    "title": "Artistic_146053",
    "link_img": "https://live.staticflickr.com/65535/49711266632_ceefebba37_o.jpg",
    "id_image": "Artistic_146053",
    "count_view": 0
  },
  {
    "link_thumb": "https://live.staticflickr.com/65535/49711516903_c4e20c770b_n.jpg",
    "id_album": "1892085513",
    "description": "Oriental_978181",
    "title": "Oriental_978181",
    "link_img": "https://live.staticflickr.com/65535/49711516903_b285d5f535_o.jpg",
    "id_image": "Oriental_978181",
    "count_view": 0
  },
  {
    "link_thumb": "https://live.staticflickr.com/65535/49711317153_80be5852da_n.jpg",
    "id_album": "1402713104",
    "description": "Landscape_892774",
    "title": "Landscape_892774",
    "link_img": "https://live.staticflickr.com/65535/49711317153_b6f7d91e15_o.jpg",
    "id_image": "Landscape_892774",
    "count_view": 0
  },
  {
    "link_thumb": "https://live.staticflickr.com/65535/49711514657_01fbe0c7a5_n.jpg",
    "id_album": "-437872736",
    "description": "Creature_313364",
    "title": "Creature_313364",
    "link_img": "https://live.staticflickr.com/65535/49711514657_aedcabf31f_o.jpg",
    "id_image": "Creature_313364",
    "count_view": 0
  },
  {
    "link_thumb": "https://live.staticflickr.com/65535/49711270661_f8774964b1_n.jpg",
    "id_album": "-437872736",
    "description": "Creature_87657",
    "title": "Creature_87657",
    "link_img": "https://live.staticflickr.com/65535/49711270661_a12655e4f4_o.jpg",
    "id_image": "Creature_87657",
    "count_view": 0
  },
  {
    "link_thumb": "https://live.staticflickr.com/65535/49710479008_9a943654f5_n.jpg",
    "id_album": "1187037014",
    "description": "Battle_922845",
    "title": "Battle_922845",
    "link_img": "https://live.staticflickr.com/65535/49710479008_2b76855975_o.jpg",
    "id_image": "Battle_922845",
    "count_view": 0
  },
  {
    "link_thumb": "https://live.staticflickr.com/65535/49711412061_f45ec1847a_n.jpg",
    "id_album": "850176884",
    "description": "Dragon_29082",
    "title": "Dragon_29082",
    "link_img": "https://live.staticflickr.com/65535/49711412061_4c609e6da8_o.jpg",
    "id_image": "Dragon_29082",
    "count_view": 0
  },
  {
    "link_thumb": "https://live.staticflickr.com/65535/49711301882_afcf50b3d1_n.jpg",
    "id_album": "523598895",
    "description": "Artistic_685885",
    "title": "Artistic_685885",
    "link_img": "https://live.staticflickr.com/65535/49711301882_912b5bc0ac_o.jpg",
    "id_image": "Artistic_685885",
    "count_view": 0
  },
  {
    "link_thumb": "https://live.staticflickr.com/65535/49712070827_44ef8275ab_n.jpg",
    "id_album": "1131236559",
    "description": "Gods_871673",
    "title": "Gods_871673",
    "link_img": "https://live.staticflickr.com/65535/49712070827_9ec362824f_o.jpg",
    "id_image": "Gods_871673",
    "count_view": 0
  },
  {
    "link_thumb": "https://live.staticflickr.com/65535/49710452888_0657deca0e_n.jpg",
    "id_album": "1187037014",
    "description": "Battle_239108",
    "title": "Battle_239108",
    "link_img": "https://live.staticflickr.com/65535/49710452888_a6321527d0_o.jpg",
    "id_image": "Battle_239108",
    "count_view": 0
  },
  {
    "link_thumb": "https://live.staticflickr.com/65535/49711990401_a20d99d077_n.jpg",
    "id_album": "1006968559",
    "description": "LordoftheRings_494436",
    "title": "LordoftheRings_494436",
    "link_img": "https://live.staticflickr.com/65535/49711990401_4fdd6e0b61_o.jpg",
    "id_image": "LordoftheRings_494436",
    "count_view": 0
  },
  {
    "link_thumb": "https://live.staticflickr.com/65535/49711700668_51e03985ea_n.jpg",
    "id_album": "-1261420436",
    "description": "Warrior_922689",
    "title": "Warrior_922689",
    "link_img": "https://live.staticflickr.com/65535/49711700668_8d1e97e4bd_o.jpg",
    "id_image": "Warrior_922689",
    "count_view": 0
  },
  {
    "link_thumb": "https://live.staticflickr.com/65535/49711021671_12a08d1c0c_n.jpg",
    "id_album": "406431601",
    "description": "Building_117963",
    "title": "Building_117963",
    "link_img": "https://live.staticflickr.com/65535/49711021671_737219b500_o.jpg",
    "id_image": "Building_117963",
    "count_view": 0
  },
  {
    "link_thumb": "https://live.staticflickr.com/65535/49711837616_9dc74929f6_n.jpg",
    "id_album": "1402713104",
    "description": "Landscape_866053",
    "title": "Landscape_866053",
    "link_img": "https://live.staticflickr.com/65535/49711837616_2efc251a54_o.jpg",
    "id_image": "Landscape_866053",
    "count_view": 0
  },
  {
    "link_thumb": "https://live.staticflickr.com/65535/49711998626_e6d58e16cf_n.jpg",
    "id_album": "-1859457952",
    "description": "Love_948130",
    "title": "Love_948130",
    "link_img": "https://live.staticflickr.com/65535/49711998626_e33f791c3a_o.jpg",
    "id_image": "Love_948130",
    "count_view": 0
  },
  {
    "link_thumb": "https://live.staticflickr.com/65535/49712797992_b5d5106c3b_n.jpg",
    "id_album": "1861288871",
    "description": "Women_807616",
    "title": "Women_807616",
    "link_img": "https://live.staticflickr.com/65535/49712797992_5465b8bd28_o.jpg",
    "id_image": "Women_807616",
    "count_view": 0
  },
  {
    "link_thumb": "https://live.staticflickr.com/65535/49711396621_79c2b0bfaf_n.jpg",
    "id_album": "850176884",
    "description": "Dragon_243275",
    "title": "Dragon_243275",
    "link_img": "https://live.staticflickr.com/65535/49711396621_6bbbde6abe_o.jpg",
    "id_image": "Dragon_243275",
    "count_view": 0
  },
  {
    "link_thumb": "https://live.staticflickr.com/65535/49711439717_9ce57d8dbb_n.jpg",
    "id_album": "-1964113117",
    "description": "City_708220",
    "title": "City_708220",
    "link_img": "https://live.staticflickr.com/65535/49711439717_80aa3c21d3_o.jpg",
    "id_image": "City_708220",
    "count_view": 0
  }
]