[
  {
    "link_thumb": "https://live.staticflickr.com/65535/49712341227_a45504cec8_n.jpg",
    "id_album": "-222719689",
    "description": "Men_702078",
    "title": "Men_702078",
    "link_img": "https://live.staticflickr.com/65535/49712341227_a9fba5c049_o.jpg",
    "id_image": "Men_702078",
    "count_view": 0
  },
  {
    "link_thumb": "https://live.staticflickr.com/65535/49712072246_9ae53e6555_n.jpg",
    "id_album": "-1326601535",
    "description": "Phoenix_391648",
    "title": "Phoenix_391648",
    "link_img": "https://live.staticflickr.com/65535/49712072246_f118e8f044_o.jpg",
    "id_image": "Phoenix_391648",
    "count_view": 0
  },
  {
    "link_thumb": "https://live.staticflickr.com/65535/49711557331_f7e0c89de4_n.jpg",
    "id_album": "850176884",
    "description": "Dragon_907913",
    "title": "Dragon_907913",
    "link_img": "https://live.staticflickr.com/65535/49711557331_84feeeab79_o.jpg",
    "id_image": "Dragon_907913",
    "count_view": 0
  },
  {
    "link_thumb": "https://live.staticflickr.com/65535/49711788861_15f600d50c_n.jpg",
    "id_album": "469960528",
    "description": "Knight_872955",
    "title": "Knight_872955",
    "link_img": "https://live.staticflickr.com/65535/49711788861_9eaa4f12cc_o.jpg",
    "id_image": "Knight_872955",
    "count_view": 0
  },
  {
    "link_thumb": "https://live.staticflickr.com/65535/49711843447_becc9c2083_n.jpg",
    "id_album": "850176884",
    "description": "Dragon_774483",
    "title": "Dragon_774483",
    "link_img": "https://live.staticflickr.com/65535/49711843447_39eac917dd_o.jpg",
    "id_image": "Dragon_774483",
    "count_view": 0
  },
  {
    "link_thumb": "https://live.staticflickr.com/65535/49711003501_e94dc94bcd_n.jpg",
    "id_album": "1187037014",
    "description": "Battle_590964",
    "title": "Battle_590964",
    "link_img": "https://live.staticflickr.com/65535/49711003501_38e0eb1f59_o.jpg",
    "id_image": "Battle_590964",
    "count_view": 0
  },
  {
    "link_thumb": "https://live.staticflickr.com/65535/49712293671_2de35510dd_n.jpg",
    "id_album": "-709711865",
    "description": "Wolf_882855",
    "title": "Wolf_882855",
    "link_img": "https://live.staticflickr.com/65535/49712293671_de95127915_o.jpg",
    "id_image": "Wolf_882855",
    "count_view": 0
  },
  {
    "link_thumb": "https://live.staticflickr.com/65535/49711452176_96f09d51b4_n.jpg",
    "id_album": "850176884",
    "description": "Dragon_451197",
    "title": "Dragon_451197",
    "link_img": "https://live.staticflickr.com/65535/49711452176_5b3518c004_o.jpg",
    "id_image": "Dragon_451197",
    "count_view": 0
  },
  {
    "link_thumb": "https://live.staticflickr.com/65535/49710980296_9838bd6c0c_n.jpg",
    "id_album": "523598895",
    "description": "Artistic_806350",
    "title": "Artistic_806350",
    "link_img": "https://live.staticflickr.com/65535/49710980296_2c907b12f6_o.jpg",
    "id_image": "Artistic_806350",
    "count_view": 0
  },
  {
    "link_thumb": "https://live.staticflickr.com/65535/49710897841_8f7c094c3c_n.jpg",
    "id_album": "-1913845949",
    "description": "Animal_309411",
    "title": "Animal_309411",
    "link_img": "https://live.staticflickr.com/65535/49710897841_25c0af1928_o.jpg",
    "id_image": "Animal_309411",
    "count_view": 0
  },
  {
    "link_thumb": "https://live.staticflickr.com/65535/49711753218_6f52689d79_n.jpg",
    "id_album": "-709711865",
    "description": "Wolf_728255",
    "title": "Wolf_728255",
    "link_img": "https://live.staticflickr.com/65535/49711753218_702643b849_o.jpg",
    "id_image": "Wolf_728255",
    "count_view": 0
  },
  {
    "link_thumb": "https://live.staticflickr.com/65535/49710565648_aa643d69f7_n.jpg",
    "id_album": "-1964113117",
    "description": "City_445623",
    "title": "City_445623",
    "link_img": "https://live.staticflickr.com/65535/49710565648_ba4f2fc325_o.jpg",
    "id_image": "City_445623",
    "count_view": 0
  },
  {
    "link_thumb": "https://live.staticflickr.com/65535/49711924458_2f22c465fb_n.jpg",
    "id_album": "1861288871",
    "description": "Women_764840",
    "title": "Women_764840",
    "link_img": "https://live.staticflickr.com/65535/49711924458_d339c5462c_o.jpg",
    "id_image": "Women_764840",
    "count_view": 0
  },
  {
    "link_thumb": "https://live.staticflickr.com/65535/49711227477_4612efcd3d_n.jpg",
    "id_album": "-1913845949",
    "description": "Animal_559359",
    "title": "Animal_559359",
    "link_img": "https://live.staticflickr.com/65535/49711227477_051def6269_o.jpg",
    "id_image": "Animal_559359",
    "count_view": 0
  },
  {
    "link_thumb": "https://live.staticflickr.com/65535/49711794166_7dd132c69e_n.jpg",
    "id_album": "1402713104",
    "description": "Landscape_641975",
    "title": "Landscape_641975",
    "link_img": "https://live.staticflickr.com/65535/49711794166_3c14a0c538_o.jpg",
    "id_image": "Landscape_641975",
    "count_view": 0
  },
  {
    "link_thumb": "https://live.staticflickr.com/65535/49712044581_fc77a33cfa_n.jpg",
    "id_album": "1892085513",
    "description": "Oriental_322485",
    "title": "Oriental_322485",
    "link_img": "https://live.staticflickr.com/65535/49712044581_83c3bea9f0_o.jpg",
    "id_image": "Oriental_322485",
    "count_view": 0
  },
  {
    "link_thumb": "https://live.staticflickr.com/65535/49711052228_4f462ba1b4_n.jpg",
    "id_album": "850176884",
    "description": "Dragon_978831",
    "title": "Dragon_978831",
    "link_img": "https://live.staticflickr.com/65535/49711052228_8548bb21fb_o.jpg",
    "id_image": "Dragon_978831",
    "count_view": 0
  },
  {
    "link_thumb": "https://live.staticflickr.com/65535/49711186522_ac00c84148_n.jpg",
    "id_album": "-2109465612",
    "description": "Adventure_244177",
    "title": "Adventure_244177",
    "link_img": "https://live.staticflickr.com/65535/49711186522_1f02be5673_o.jpg",
    "id_image": "Adventure_244177",
    "count_view": 0
  },
  {
    "link_thumb": "https://live.staticflickr.com/65535/49710650668_b9d17bfd46_n.jpg",
    "id_album": "-437872736",
    "description": "Creature_309114",
    "title": "Creature_309114",
    "link_img": "https://live.staticflickr.com/65535/49710650668_9b26003bd9_o.jpg",
    "id_image": "Creature_309114",
    "count_view": 0
  },
  {
    "link_thumb": "https://live.staticflickr.com/65535/49710506763_29c6e2ca60_n.jpg",
    "id_album": "-1541846310",
    "description": "Castle_304255",
    "title": "Castle_304255",
    "link_img": "https://live.staticflickr.com/65535/49710506763_b51a041062_o.jpg",
    "id_image": "Castle_304255",
    "count_view": 0
  },
  {
    "link_thumb": "https://live.staticflickr.com/65535/49803120972_74c8960b16_n.jpg",
    "id_album": "-1703946758",
    "description": "ANIME_PIC_16ee79eba721d8fc0ec4b06921a08d2d",
    "title": "ANIME_PIC_16ee79eba721d8fc0ec4b06921a08d2d",
    "link_img": "https://live.staticflickr.com/65535/49803120972_f2c00021f7_o.jpg",
    "id_image": "ANIME_PIC_16ee79eba721d8fc0ec4b06921a08d2d",
    "count_view": 0
  },
  {
    "link_thumb": "https://live.staticflickr.com/65535/49711028636_b93b8bfeb9_n.jpg",
    "id_album": "406431601",
    "description": "Building_940173",
    "title": "Building_940173",
    "link_img": "https://live.staticflickr.com/65535/49711028636_208c0d056e_o.jpg",
    "id_image": "Building_940173",
    "count_view": 0
  },
  {
    "link_thumb": "https://live.staticflickr.com/65535/49712739487_82c7b9b646_n.jpg",
    "id_album": "295204930",
    "description": "Women_727587",
    "title": "Women_727587",
    "link_img": "https://live.staticflickr.com/65535/49712739487_79cc36948c_o.jpg",
    "id_image": "Women_727587",
    "count_view": 0
  },
  {
    "link_thumb": "https://live.staticflickr.com/65535/49711111143_146260f602_n.jpg",
    "id_album": "-1972042284",
    "description": "Fairy_143309",
    "title": "Fairy_143309",
    "link_img": "https://live.staticflickr.com/65535/49711111143_a9466f325c_o.jpg",
    "id_image": "Fairy_143309",
    "count_view": 0
  },
  {
    "link_thumb": "https://live.staticflickr.com/65535/49711725866_5db9dd24f0_n.jpg",
    "id_album": "-128218148",
    "description": "Fox_914702",
    "title": "Fox_914702",
    "link_img": "https://live.staticflickr.com/65535/49711725866_deeaaee8dd_o.jpg",
    "id_image": "Fox_914702",
    "count_view": 0
  },
  {
    "link_thumb": "https://live.staticflickr.com/65535/49710998798_7c90573ed8_n.jpg",
    "id_album": "850176884",
    "description": "Dragon_849381",
    "title": "Dragon_849381",
    "link_img": "https://live.staticflickr.com/65535/49710998798_0a35467e38_o.jpg",
    "id_image": "Dragon_849381",
    "count_view": 0
  },
  {
    "link_thumb": "https://live.staticflickr.com/65535/49712165833_7f8b977b68_n.jpg",
    "id_album": "-1675918237",
    "description": "WomenWarrior_921993",
    "title": "WomenWarrior_921993",
    "link_img": "https://live.staticflickr.com/65535/49712165833_8364634d29_o.jpg",
    "id_image": "WomenWarrior_921993",
    "count_view": 0
  },
  {
    "link_thumb": "https://live.staticflickr.com/65535/49711172931_49d5e0c739_n.jpg",
    "id_album": "-437872736",
    "description": "Creature_271120",
    "title": "Creature_271120",
    "link_img": "https://live.staticflickr.com/65535/49711172931_58e14011ff_o.jpg",
    "id_image": "Creature_271120",
    "count_view": 0
  },
  {
    "link_thumb": "https://live.staticflickr.com/65535/49711043351_f9a3e0228a_n.jpg",
    "id_album": "-1541846310",
    "description": "Castle_336945",
    "title": "Castle_336945",
    "link_img": "https://live.staticflickr.com/65535/49711043351_687f7aac5a_o.jpg",
    "id_image": "Castle_336945",
    "count_view": 0
  },
  {
    "link_thumb": "https://live.staticflickr.com/65535/49710569263_27e56f100e_n.jpg",
    "id_album": "-1964113117",
    "description": "City_523389",
    "title": "City_523389",
    "link_img": "https://live.staticflickr.com/65535/49710569263_d38a3e3732_o.jpg",
    "id_image": "City_523389",
    "count_view": 0
  },
  {
    "link_thumb": "https://live.staticflickr.com/65535/49712042406_67ea015e87_n.jpg",
    "id_album": "1892085513",
    "description": "Oriental_303593",
    "title": "Oriental_303593",
    "link_img": "https://live.staticflickr.com/65535/49712042406_5c0bd108d5_o.jpg",
    "id_image": "Oriental_303593",
    "count_view": 0
  },
  {
    "link_thumb": "https://live.staticflickr.com/65535/49712517602_4c299e4302_n.jpg",
    "id_album": "1215289234",
    "description": "WARIOR26101916513011",
    "title": "WARIOR26101916513011",
    "link_img": "https://live.staticflickr.com/65535/49712517602_c56726f009_o.jpg",
    "id_image": "WARIOR26101916513011",
    "count_view": 0
  },
  {
    "link_thumb": "https://live.staticflickr.com/65535/49712324831_43f741675e_n.jpg",
    "id_album": "-1126835654",
    "description": "Women_880524",
    "title": "Women_880524",
    "link_img": "https://live.staticflickr.com/65535/49712324831_81651a51b1_o.jpg",
    "id_image": "Women_880524",
    "count_view": 0
  },
  {
    "link_thumb": "https://live.staticflickr.com/65535/49711737022_2b768f188d_n.jpg",
    "id_album": "850176884",
    "description": "Dragon_310251",
    "title": "Dragon_310251",
    "link_img": "https://live.staticflickr.com/65535/49711737022_4c6f5751f9_o.jpg",
    "id_image": "Dragon_310251",
    "count_view": 0
  },
  {
    "link_thumb": "https://live.staticflickr.com/65535/49711055661_73c995c632_n.jpg",
    "id_album": "-1541846310",
    "description": "Castle_717281",
    "title": "Castle_717281",
    "link_img": "https://live.staticflickr.com/65535/49711055661_fb6938a954_o.jpg",
    "id_image": "Castle_717281",
    "count_view": 0
  },
  {
    "link_thumb": "https://live.staticflickr.com/65535/49711170656_58eb63e355_n.jpg",
    "id_album": "-437872736",
    "description": "Creature_269277",
    "title": "Creature_269277",
    "link_img": "https://live.staticflickr.com/65535/49711170656_037f886644_o.jpg",
    "id_image": "Creature_269277",
    "count_view": 0
  },
  {
    "link_thumb": "https://live.staticflickr.com/65535/49711302048_dc9945af31_n.jpg",
    "id_album": "1402713104",
    "description": "Landscape_864946",
    "title": "Landscape_864946",
    "link_img": "https://live.staticflickr.com/65535/49711302048_9b69c46e17_o.jpg",
    "id_image": "Landscape_864946",
    "count_view": 0
  },
  {
    "link_thumb": "https://live.staticflickr.com/65535/49712196756_1069e02e43_n.jpg",
    "id_album": "1215289234",
    "description": "WARIOR2610191651323",
    "title": "WARIOR2610191651323",
    "link_img": "https://live.staticflickr.com/65535/49712196756_f3d409b113_o.jpg",
    "id_image": "WARIOR2610191651323",
    "count_view": 0
  },
  {
    "link_thumb": "https://live.staticflickr.com/65535/49712596856_cc8df344da_n.jpg",
    "id_album": "-1675918237",
    "description": "WomenWarrior_455964",
    "title": "WomenWarrior_455964",
    "link_img": "https://live.staticflickr.com/65535/49712596856_48ae232ab6_o.jpg",
    "id_image": "WomenWarrior_455964",
    "count_view": 0
  },
  {
    "link_thumb": "https://live.staticflickr.com/65535/49711259633_d66baa4766_n.jpg",
    "id_album": "1402713104",
    "description": "Landscape_646636",
    "title": "Landscape_646636",
    "link_img": "https://live.staticflickr.com/65535/49711259633_1ac19ab2e7_o.jpg",
    "id_image": "Landscape_646636",
    "count_view": 0
  },
  {
    "link_thumb": "https://live.staticflickr.com/65535/49711549397_717d7b47cd_n.jpg",
    "id_album": "-437872736",
    "description": "Creature_385480",
    "title": "Creature_385480",
    "link_img": "https://live.staticflickr.com/65535/49711549397_79be465a89_o.jpg",
    "id_image": "Creature_385480",
    "count_view": 0
  },
  {
    "link_thumb": "https://live.staticflickr.com/65535/49711283147_eeda0f82fe_n.jpg",
    "id_album": "523598895",
    "description": "Artistic_288102",
    "title": "Artistic_288102",
    "link_img": "https://live.staticflickr.com/65535/49711283147_89c0d75d2f_o.jpg",
    "id_image": "Artistic_288102",
    "count_view": 0
  },
  {
    "link_thumb": "https://live.staticflickr.com/65535/49711373846_9091e6d6a9_n.jpg",
    "id_album": "850176884",
    "description": "Dragon_151151",
    "title": "Dragon_151151",
    "link_img": "https://live.staticflickr.com/65535/49711373846_34f4bfecbf_o.jpg",
    "id_image": "Dragon_151151",
    "count_view": 0
  },
  {
    "link_thumb": "https://live.staticflickr.com/65535/49711383278_b1df985c68_n.jpg",
    "id_album": "-833110404",
    "description": "Landscape_296286",
    "title": "Landscape_296286",
    "link_img": "https://live.staticflickr.com/65535/49711383278_a879dfa5d4_o.jpg",
    "id_image": "Landscape_296286",
    "count_view": 0
  },
  {
    "link_thumb": "https://live.staticflickr.com/65535/49712575662_27acb160a8_n.jpg",
    "id_album": "786934945",
    "description": "Whale_891430",
    "title": "Whale_891430",
    "link_img": "https://live.staticflickr.com/65535/49712575662_da7d3cea05_o.jpg",
    "id_image": "Whale_891430",
    "count_view": 0
  },
  {
    "link_thumb": "https://live.staticflickr.com/65535/49712110987_f73869f363_n.jpg",
    "id_album": "469960528",
    "description": "Knight_872952",
    "title": "Knight_872952",
    "link_img": "https://live.staticflickr.com/65535/49712110987_44334979b2_o.jpg",
    "id_image": "Knight_872952",
    "count_view": 0
  },
  {
    "link_thumb": "https://live.staticflickr.com/65535/49711202392_358cf76325_n.jpg",
    "id_album": "-1000175186",
    "description": "AngelWarrior_293462",
    "title": "AngelWarrior_293462",
    "link_img": "https://live.staticflickr.com/65535/49711202392_4323fe3897_o.jpg",
    "id_image": "AngelWarrior_293462",
    "count_view": 0
  },
  {
    "link_thumb": "https://live.staticflickr.com/65535/49710475438_ce0b2cd4de_n.jpg",
    "id_album": "1187037014",
    "description": "Battle_779581",
    "title": "Battle_779581",
    "link_img": "https://live.staticflickr.com/65535/49710475438_008a13ed0e_o.jpg",
    "id_image": "Battle_779581",
    "count_view": 0
  },
  {
    "link_thumb": "https://live.staticflickr.com/65535/49711497802_a9d7271377_n.jpg",
    "id_album": "-437872736",
    "description": "Creature_270090",
    "title": "Creature_270090",
    "link_img": "https://live.staticflickr.com/65535/49711497802_0fcdce1385_o.jpg",
    "id_image": "Creature_270090",
    "count_view": 0
  },
  {
    "link_thumb": "https://live.staticflickr.com/65535/49712686586_285da6c26a_n.jpg",
    "id_album": "-1675918237",
    "description": "WomenWarrior_864050",
    "title": "WomenWarrior_864050",
    "link_img": "https://live.staticflickr.com/65535/49712686586_331ccb664a_o.jpg",
    "id_image": "WomenWarrior_864050",
    "count_view": 0
  },
  {
    "link_thumb": "https://live.staticflickr.com/65535/49712300822_ff061aef94_n.jpg",
    "id_album": "-1284959130",
    "description": "LegendOfTheFiveRings_694624",
    "title": "LegendOfTheFiveRings_694624",
    "link_img": "https://live.staticflickr.com/65535/49712300822_a848190b16_o.jpg",
    "id_image": "LegendOfTheFiveRings_694624",
    "count_view": 0
  },
  {
    "link_thumb": "https://live.staticflickr.com/65535/49712361227_4fd49bf119_n.jpg",
    "id_album": "1892085513",
    "description": "Oriental_254125",
    "title": "Oriental_254125",
    "link_img": "https://live.staticflickr.com/65535/49712361227_8e353387a4_o.jpg",
    "id_image": "Oriental_254125",
    "count_view": 0
  },
  {
    "link_thumb": "https://live.staticflickr.com/65535/49711269212_b8143a2b89_n.jpg",
    "id_album": "523598895",
    "description": "Artistic_153413",
    "title": "Artistic_153413",
    "link_img": "https://live.staticflickr.com/65535/49711269212_88f5f2861f_o.jpg",
    "id_image": "Artistic_153413",
    "count_view": 0
  },
  {
    "link_thumb": "https://live.staticflickr.com/65535/49711736531_6a9bf1f649_n.jpg",
    "id_album": "402434752",
    "description": "Giant_741005",
    "title": "Giant_741005",
    "link_img": "https://live.staticflickr.com/65535/49711736531_c63ed69362_o.jpg",
    "id_image": "Giant_741005",
    "count_view": 0
  },
  {
    "link_thumb": "https://live.staticflickr.com/65535/49711450131_7633ec85c4_n.jpg",
    "id_album": "850176884",
    "description": "Dragon_448898",
    "title": "Dragon_448898",
    "link_img": "https://live.staticflickr.com/65535/49711450131_5bffc08c41_o.jpg",
    "id_image": "Dragon_448898",
    "count_view": 0
  },
  {
    "link_thumb": "https://live.staticflickr.com/65535/49711610477_2446df61e6_n.jpg",
    "id_album": "-437872736",
    "description": "Creature_958705",
    "title": "Creature_958705",
    "link_img": "https://live.staticflickr.com/65535/49711610477_3473db1633_o.jpg",
    "id_image": "Creature_958705",
    "count_view": 0
  },
  {
    "link_thumb": "https://live.staticflickr.com/65535/49711521642_dd4e32e519_n.jpg",
    "id_album": "-437872736",
    "description": "Creature_324941",
    "title": "Creature_324941",
    "link_img": "https://live.staticflickr.com/65535/49711521642_3fe46698f4_o.jpg",
    "id_image": "Creature_324941",
    "count_view": 0
  },
  {
    "link_thumb": "https://live.staticflickr.com/65535/49711275913_13db957723_n.jpg",
    "id_album": "1402713104",
    "description": "Landscape_711431",
    "title": "Landscape_711431",
    "link_img": "https://live.staticflickr.com/65535/49711275913_e06427b894_o.jpg",
    "id_image": "Landscape_711431",
    "count_view": 0
  },
  {
    "link_thumb": "https://live.staticflickr.com/65535/49711702362_1353f51fe1_n.jpg",
    "id_album": "850176884",
    "description": "Dragon_188285",
    "title": "Dragon_188285",
    "link_img": "https://live.staticflickr.com/65535/49711702362_f7dc2da054_o.jpg",
    "id_image": "Dragon_188285",
    "count_view": 0
  },
  {
    "link_thumb": "https://live.staticflickr.com/65535/49711194708_36ef1921ac_n.jpg",
    "id_album": "402434752",
    "description": "Giant_15689",
    "title": "Giant_15689",
    "link_img": "https://live.staticflickr.com/65535/49711194708_f76dcd85a5_o.jpg",
    "id_image": "Giant_15689",
    "count_view": 0
  },
  {
    "link_thumb": "https://live.staticflickr.com/65535/49711113856_2fd3145fc6_n.jpg",
    "id_album": "-1964113117",
    "description": "City_699949",
    "title": "City_699949",
    "link_img": "https://live.staticflickr.com/65535/49711113856_b2254c9574_o.jpg",
    "id_image": "City_699949",
    "count_view": 0
  },
  {
    "link_thumb": "https://live.staticflickr.com/65535/49711551116_dd0fa7e701_n.jpg",
    "id_album": "850176884",
    "description": "Dragon_888530",
    "title": "Dragon_888530",
    "link_img": "https://live.staticflickr.com/65535/49711551116_efdc581f09_o.jpg",
    "id_image": "Dragon_888530",
    "count_view": 0
  },
  {
    "link_thumb": "https://live.staticflickr.com/65535/49711475477_1e1fba587a_n.jpg",
    "id_album": "-437872736",
    "description": "Creature_167491",
    "title": "Creature_167491",
    "link_img": "https://live.staticflickr.com/65535/49711475477_f70733cee3_o.jpg",
    "id_image": "Creature_167491",
    "count_view": 0
  },
  {
    "link_thumb": "https://live.staticflickr.com/65535/49711166383_f2560bd488_n.jpg",
    "id_album": "-1083189875",
    "description": "Forest_568278",
    "title": "Forest_568278",
    "link_img": "https://live.staticflickr.com/65535/49711166383_a702c3d070_o.jpg",
    "id_image": "Forest_568278",
    "count_view": 0
  },
  {
    "link_thumb": "https://live.staticflickr.com/65535/49713031887_d9e23102d5_n.jpg",
    "id_album": "-1207759647",
    "description": "Zodiac_736018",
    "title": "Zodiac_736018",
    "link_img": "https://live.staticflickr.com/65535/49713031887_7e57425b20_o.jpg",
    "id_image": "Zodiac_736018",
    "count_view": 0
  },
  {
    "link_thumb": "https://live.staticflickr.com/65535/49711491346_6b4ab1e64e_n.jpg",
    "id_album": "850176884",
    "description": "Dragon_596517",
    "title": "Dragon_596517",
    "link_img": "https://live.staticflickr.com/65535/49711491346_edf3e03509_o.jpg",
    "id_image": "Dragon_596517",
    "count_view": 0
  },
  {
    "link_thumb": "https://live.staticflickr.com/65535/49710909568_f00cef7b98_n.jpg",
    "id_album": "850176884",
    "description": "Dragon_436897",
    "title": "Dragon_436897",
    "link_img": "https://live.staticflickr.com/65535/49710909568_763216b8c1_o.jpg",
    "id_image": "Dragon_436897",
    "count_view": 0
  },
  {
    "link_thumb": "https://live.staticflickr.com/65535/49712528006_aeda5deae2_n.jpg",
    "id_album": "-867594484",
    "description": "Women_669861",
    "title": "Women_669861",
    "link_img": "https://live.staticflickr.com/65535/49712528006_1a5f0be886_o.jpg",
    "id_image": "Women_669861",
    "count_view": 0
  },
  {
    "link_thumb": "https://live.staticflickr.com/65535/49798838201_74ee8e99e3_n.jpg",
    "id_album": "-1703946758",
    "description": "ANIME_PIC_c30033028447324305573219239e392f",
    "title": "ANIME_PIC_c30033028447324305573219239e392f",
    "link_img": "https://live.staticflickr.com/65535/49798838201_1ff34f3b05_o.jpg",
    "id_image": "ANIME_PIC_c30033028447324305573219239e392f",
    "count_view": 0
  },
  {
    "link_thumb": "https://live.staticflickr.com/65535/49711486506_6c9a4ce8b8_n.jpg",
    "id_album": "850176884",
    "description": "Dragon_582369",
    "title": "Dragon_582369",
    "link_img": "https://live.staticflickr.com/65535/49711486506_3896433e51_o.jpg",
    "id_image": "Dragon_582369",
    "count_view": 0
  },
  {
    "link_thumb": "https://live.staticflickr.com/65535/49711308818_9394e938d7_n.jpg",
    "id_album": "1402713104",
    "description": "Landscape_869189",
    "title": "Landscape_869189",
    "link_img": "https://live.staticflickr.com/65535/49711308818_944f848808_o.jpg",
    "id_image": "Landscape_869189",
    "count_view": 0
  },
  {
    "link_thumb": "https://live.staticflickr.com/65535/49710864886_8f15898837_n.jpg",
    "id_album": "-2109465612",
    "description": "Adventure_251243",
    "title": "Adventure_251243",
    "link_img": "https://live.staticflickr.com/65535/49710864886_468b6d1ebb_o.jpg",
    "id_image": "Adventure_251243",
    "count_view": 0
  },
  {
    "link_thumb": "https://live.staticflickr.com/65535/49711385237_653e911195_n.jpg",
    "id_album": "-1541846310",
    "description": "Castle_867579",
    "title": "Castle_867579",
    "link_img": "https://live.staticflickr.com/65535/49711385237_286731c5b4_o.jpg",
    "id_image": "Castle_867579",
    "count_view": 0
  },
  {
    "link_thumb": "https://live.staticflickr.com/65535/49712141017_2da48e565f_n.jpg",
    "id_album": "1402713104",
    "description": "Landscape_779392",
    "title": "Landscape_779392",
    "link_img": "https://live.staticflickr.com/65535/49712141017_a3eff21dfb_o.jpg",
    "id_image": "Landscape_779392",
    "count_view": 0
  },
  {
    "link_thumb": "https://live.staticflickr.com/65535/49711658386_4dd5557419_n.jpg",
    "id_album": "-1972042284",
    "description": "Fairy_342619",
    "title": "Fairy_342619",
    "link_img": "https://live.staticflickr.com/65535/49711658386_9595d20eba_o.jpg",
    "id_image": "Fairy_342619",
    "count_view": 0
  },
  {
    "link_thumb": "https://live.staticflickr.com/65535/49711575401_abda04d761_n.jpg",
    "id_album": "850176884",
    "description": "Dragon_949818",
    "title": "Dragon_949818",
    "link_img": "https://live.staticflickr.com/65535/49711575401_175e7df3f9_o.jpg",
    "id_image": "Dragon_949818",
    "count_view": 0
  },
  {
    "link_thumb": "https://live.staticflickr.com/65535/49711391057_2a5a44741b_n.jpg",
    "id_album": "-1541846310",
    "description": "Castle_907768",
    "title": "Castle_907768",
    "link_img": "https://live.staticflickr.com/65535/49711391057_c385019587_o.jpg",
    "id_image": "Castle_907768",
    "count_view": 0
  },
  {
    "link_thumb": "https://live.staticflickr.com/65535/49711592831_9ccdfe5576_n.jpg",
    "id_album": "850176884",
    "description": "Dragon_994710",
    "title": "Dragon_994710",
    "link_img": "https://live.staticflickr.com/65535/49711592831_eaa420dddb_o.jpg",
    "id_image": "Dragon_994710",
    "count_view": 0
  },
  {
    "link_thumb": "https://live.staticflickr.com/65535/49711175811_ac253c1071_n.jpg",
    "id_album": "-437872736",
    "description": "Creature_284309",
    "title": "Creature_284309",
    "link_img": "https://live.staticflickr.com/65535/49711175811_0bcc660b64_o.jpg",
    "id_image": "Creature_284309",
    "count_view": 0
  },
  {
    "link_thumb": "https://live.staticflickr.com/65535/49710820768_94fabb5fe1_n.jpg",
    "id_album": "850176884",
    "description": "Dragon_114865",
    "title": "Dragon_114865",
    "link_img": "https://live.staticflickr.com/65535/49710820768_cc2abbbacd_o.jpg",
    "id_image": "Dragon_114865",
    "count_view": 0
  },
  {
    "link_thumb": "https://live.staticflickr.com/65535/49711020016_1540d32eb2_n.jpg",
    "id_album": "-1846011410",
    "description": "Bird_922853",
    "title": "Bird_922853",
    "link_img": "https://live.staticflickr.com/65535/49711020016_b05a889e19_o.jpg",
    "id_image": "Bird_922853",
    "count_view": 0
  },
  {
    "link_thumb": "https://live.staticflickr.com/65535/49711444588_cb5ddae750_n.jpg",
    "id_album": "416744915",
    "description": "Lion_214927",
    "title": "Lion_214927",
    "link_img": "https://live.staticflickr.com/65535/49711444588_52edf1d33d_o.jpg",
    "id_image": "Lion_214927",
    "count_view": 0
  },
  {
    "link_thumb": "https://live.staticflickr.com/65535/49711612448_3920a3e7ba_n.jpg",
    "id_album": "1240974613",
    "description": "Sorceress_991354",
    "title": "Sorceress_991354",
    "link_img": "https://live.staticflickr.com/65535/49711612448_ed9a925a3f_o.jpg",
    "id_image": "Sorceress_991354",
    "count_view": 0
  },
  {
    "link_thumb": "https://live.staticflickr.com/65535/49710964871_bb045b4f85_n.jpg",
    "id_album": "523598895",
    "description": "Artistic_387366",
    "title": "Artistic_387366",
    "link_img": "https://live.staticflickr.com/65535/49710964871_1ea62e1e54_o.jpg",
    "id_image": "Artistic_387366",
    "count_view": 0
  },
  {
    "link_thumb": "https://live.staticflickr.com/65535/49711695928_deb8b75b56_n.jpg",
    "id_album": "-1261420436",
    "description": "Warrior_901636",
    "title": "Warrior_901636",
    "link_img": "https://live.staticflickr.com/65535/49711695928_cf8a9aa1af_o.jpg",
    "id_image": "Warrior_901636",
    "count_view": 0
  },
  {
    "link_thumb": "https://live.staticflickr.com/65535/49711484527_6fb64470b2_n.jpg",
    "id_album": "-437872736",
    "description": "Creature_219645",
    "title": "Creature_219645",
    "link_img": "https://live.staticflickr.com/65535/49711484527_b6b2f2ee37_o.jpg",
    "id_image": "Creature_219645",
    "count_view": 0
  },
  {
    "link_thumb": "https://live.staticflickr.com/65535/49711256576_16068b1ed7_n.jpg",
    "id_album": "-437872736",
    "description": "Creature_665577",
    "title": "Creature_665577",
    "link_img": "https://live.staticflickr.com/65535/49711256576_eb352448fa_o.jpg",
    "id_image": "Creature_665577",
    "count_view": 0
  },
  {
    "link_thumb": "https://live.staticflickr.com/65535/49710387278_588d2e48d2_n.jpg",
    "id_album": "-1913845949",
    "description": "Animal_898628",
    "title": "Animal_898628",
    "link_img": "https://live.staticflickr.com/65535/49710387278_a6624bfee8_o.jpg",
    "id_image": "Animal_898628",
    "count_view": 0
  },
  {
    "link_thumb": "https://live.staticflickr.com/65535/49712261161_a9397cf6cf_n.jpg",
    "id_album": "478331085",
    "description": "Witch_695604",
    "title": "Witch_695604",
    "link_img": "https://live.staticflickr.com/65535/49712261161_43bc4c5166_o.jpg",
    "id_image": "Witch_695604",
    "count_view": 0
  },
  {
    "link_thumb": "https://live.staticflickr.com/65535/49712796722_d06dc9d385_n.jpg",
    "id_album": "1861288871",
    "description": "Women_806223",
    "title": "Women_806223",
    "link_img": "https://live.staticflickr.com/65535/49712796722_a09886ec26_o.jpg",
    "id_image": "Women_806223",
    "count_view": 0
  },
  {
    "link_thumb": "https://live.staticflickr.com/65535/49710667838_8583348a52_n.jpg",
    "id_album": "-437872736",
    "description": "Creature_335824",
    "title": "Creature_335824",
    "link_img": "https://live.staticflickr.com/65535/49710667838_6297080fe3_o.jpg",
    "id_image": "Creature_335824",
    "count_view": 0
  },
  {
    "link_thumb": "https://live.staticflickr.com/65535/49799136117_0354501a24_n.jpg",
    "id_album": "-1703946758",
    "description": "ANIME_PIC_9517acfcbd36b3bda58bf982e31a734f",
    "title": "ANIME_PIC_9517acfcbd36b3bda58bf982e31a734f",
    "link_img": "https://live.staticflickr.com/65535/49799136117_616fbde429_o.jpg",
    "id_image": "ANIME_PIC_9517acfcbd36b3bda58bf982e31a734f",
    "count_view": 0
  },
  {
    "link_thumb": "https://live.staticflickr.com/65535/49711187607_41d7cce3e8_n.jpg",
    "id_album": "-2109465612",
    "description": "Adventure_245724",
    "title": "Adventure_245724",
    "link_img": "https://live.staticflickr.com/65535/49711187607_c381e914ef_o.jpg",
    "id_image": "Adventure_245724",
    "count_view": 0
  },
  {
    "link_thumb": "https://live.staticflickr.com/65535/49711036983_b9dbeb533c_n.jpg",
    "id_album": "850176884",
    "description": "Dragon_934607",
    "title": "Dragon_934607",
    "link_img": "https://live.staticflickr.com/65535/49711036983_07726ef765_o.jpg",
    "id_image": "Dragon_934607",
    "count_view": 0
  },
  {
    "link_thumb": "https://live.staticflickr.com/65535/49711866016_7ca5abc419_n.jpg",
    "id_album": "1402713104",
    "description": "Landscape_945961",
    "title": "Landscape_945961",
    "link_img": "https://live.staticflickr.com/65535/49711866016_b7ff8f98b9_o.jpg",
    "id_image": "Landscape_945961",
    "count_view": 0
  },
  {
    "link_thumb": "https://live.staticflickr.com/65535/49711207087_16168449b1_n.jpg",
    "id_album": "-1000175186",
    "description": "AngelWarrior_55565",
    "title": "AngelWarrior_55565",
    "link_img": "https://live.staticflickr.com/65535/49711207087_91f3c534fd_o.jpg",
    "id_image": "AngelWarrior_55565",
    "count_view": 0
  },
  {
    "link_thumb": "https://live.staticflickr.com/65535/49711777661_b11e370172_n.jpg",
    "id_album": "-1967191405",
    "description": "Hydra_99707",
    "title": "Hydra_99707",
    "link_img": "https://live.staticflickr.com/65535/49711777661_78d6e910a1_o.jpg",
    "id_image": "Hydra_99707",
    "count_view": 0
  },
  {
    "link_thumb": "https://live.staticflickr.com/65535/49711085666_a48c148ce7_n.jpg",
    "id_album": "430704260",
    "description": "Child_951099",
    "title": "Child_951099",
    "link_img": "https://live.staticflickr.com/65535/49711085666_0d963951c7_o.jpg",
    "id_image": "Child_951099",
    "count_view": 0
  },
  {
    "link_thumb": "https://live.staticflickr.com/65535/49711747492_5b5009e336_n.jpg",
    "id_album": "850176884",
    "description": "Dragon_331874",
    "title": "Dragon_331874",
    "link_img": "https://live.staticflickr.com/65535/49711747492_981f9e10a6_o.jpg",
    "id_image": "Dragon_331874",
    "count_view": 0
  },
  {
    "link_thumb": "https://live.staticflickr.com/65535/49710893578_bea5560c08_n.jpg",
    "id_album": "850176884",
    "description": "Dragon_345175",
    "title": "Dragon_345175",
    "link_img": "https://live.staticflickr.com/65535/49710893578_80bf3aa363_o.jpg",
    "id_image": "Dragon_345175",
    "count_view": 0
  },
  {
    "link_thumb": "https://live.staticflickr.com/65535/49711315336_60978a6281_n.jpg",
    "id_album": "2021464556",
    "description": "Dark_206136",
    "title": "Dark_206136",
    "link_img": "https://live.staticflickr.com/65535/49711315336_1f5310292b_o.jpg",
    "id_image": "Dark_206136",
    "count_view": 0
  },
  {
    "link_thumb": "https://live.staticflickr.com/65535/49711513346_48b0fc5e02_n.jpg",
    "id_album": "850176884",
    "description": "Dragon_713150",
    "title": "Dragon_713150",
    "link_img": "https://live.staticflickr.com/65535/49711513346_4acebf29bf_o.jpg",
    "id_image": "Dragon_713150",
    "count_view": 0
  },
  {
    "link_thumb": "https://live.staticflickr.com/65535/49712103702_ae1ae3482b_n.jpg",
    "id_album": "469960528",
    "description": "Knight_448114",
    "title": "Knight_448114",
    "link_img": "https://live.staticflickr.com/65535/49712103702_6dc32afe14_o.jpg",
    "id_image": "Knight_448114",
    "count_view": 0
  },
  {
    "link_thumb": "https://live.staticflickr.com/65535/49712716937_28fcfff95c_n.jpg",
    "id_album": "295204930",
    "description": "Women_404328",
    "title": "Women_404328",
    "link_img": "https://live.staticflickr.com/65535/49712716937_c8b52d93bb_o.jpg",
    "id_image": "Women_404328",
    "count_view": 0
  },
  {
    "link_thumb": "https://live.staticflickr.com/65535/49711511071_233c16e7c6_n.jpg",
    "id_album": "850176884",
    "description": "Dragon_703541",
    "title": "Dragon_703541",
    "link_img": "https://live.staticflickr.com/65535/49711511071_fafd1d169d_o.jpg",
    "id_image": "Dragon_703541",
    "count_view": 0
  },
  {
    "link_thumb": "https://live.staticflickr.com/65535/49710422248_307aaf46d8_n.jpg",
    "id_album": "523598895",
    "description": "Artistic_233568",
    "title": "Artistic_233568",
    "link_img": "https://live.staticflickr.com/65535/49710422248_d932320d42_o.jpg",
    "id_image": "Artistic_233568",
    "count_view": 0
  },
  {
    "link_thumb": "https://live.staticflickr.com/65535/49712134346_b479d08ec9_n.jpg",
    "id_album": "-395228614",
    "description": "Ship_423267",
    "title": "Ship_423267",
    "link_img": "https://live.staticflickr.com/65535/49712134346_54c73422e2_o.jpg",
    "id_image": "Ship_423267",
    "count_view": 0
  },
  {
    "link_thumb": "https://live.staticflickr.com/65535/49711438532_a1fb92c9b9_n.jpg",
    "id_album": "-1964113117",
    "description": "City_703061",
    "title": "City_703061",
    "link_img": "https://live.staticflickr.com/65535/49711438532_9deb7438e4_o.jpg",
    "id_image": "City_703061",
    "count_view": 0
  },
  {
    "link_thumb": "https://live.staticflickr.com/65535/49712223777_9ae58be7c7_n.jpg",
    "id_album": "-833110404",
    "description": "Landscape_252652",
    "title": "Landscape_252652",
    "link_img": "https://live.staticflickr.com/65535/49712223777_b7ff0d9ed9_o.jpg",
    "id_image": "Landscape_252652",
    "count_view": 0
  },
  {
    "link_thumb": "https://live.staticflickr.com/65535/49711313303_277b7d1848_n.jpg",
    "id_album": "1402713104",
    "description": "Landscape_874092",
    "title": "Landscape_874092",
    "link_img": "https://live.staticflickr.com/65535/49711313303_0ed7c4224a_o.jpg",
    "id_image": "Landscape_874092",
    "count_view": 0
  },
  {
    "link_thumb": "https://live.staticflickr.com/65535/49712376007_bbf134a7c8_n.jpg",
    "id_album": "1892085513",
    "description": "Oriental_979760",
    "title": "Oriental_979760",
    "link_img": "https://live.staticflickr.com/65535/49712376007_3ca3b6d88b_o.jpg",
    "id_image": "Oriental_979760",
    "count_view": 0
  },
  {
    "link_thumb": "https://live.staticflickr.com/65535/49711440057_ce978e290e_n.jpg",
    "id_album": "-1964113117",
    "description": "City_711416",
    "title": "City_711416",
    "link_img": "https://live.staticflickr.com/65535/49711440057_69049e8e62_o.jpg",
    "id_image": "City_711416",
    "count_view": 0
  },
  {
    "link_thumb": "https://live.staticflickr.com/65535/49711677693_369a35639d_n.jpg",
    "id_album": "-1261420436",
    "description": "Warrior_590956",
    "title": "Warrior_590956",
    "link_img": "https://live.staticflickr.com/65535/49711677693_1076fddd53_o.jpg",
    "id_image": "Warrior_590956",
    "count_view": 0
  },
  {
    "link_thumb": "https://live.staticflickr.com/65535/49710856581_8fdb5cae02_n.jpg",
    "id_album": "-218097820",
    "description": "ASongOfIceAndFire_245443",
    "title": "ASongOfIceAndFire_245443",
    "link_img": "https://live.staticflickr.com/65535/49710856581_9abe5212f3_o.jpg",
    "id_image": "ASongOfIceAndFire_245443",
    "count_view": 0
  },
  {
    "link_thumb": "https://live.staticflickr.com/65535/49711822463_7295c5743c_n.jpg",
    "id_album": "295204930",
    "description": "Women_138806",
    "title": "Women_138806",
    "link_img": "https://live.staticflickr.com/65535/49711822463_919e594df7_o.jpg",
    "id_image": "Women_138806",
    "count_view": 0
  },
  {
    "link_thumb": "https://live.staticflickr.com/65535/49712235946_1a3878b367_n.jpg",
    "id_album": "-1261420436",
    "description": "Warrior_919137",
    "title": "Warrior_919137",
    "link_img": "https://live.staticflickr.com/65535/49712235946_1a22637f4b_o.jpg",
    "id_image": "Warrior_919137",
    "count_view": 0
  },
  {
    "link_thumb": "https://live.staticflickr.com/65535/49711738406_5c3f38d0e9_n.jpg",
    "id_album": "402434752",
    "description": "Giant_907915",
    "title": "Giant_907915",
    "link_img": "https://live.staticflickr.com/65535/49711738406_fbc006cf40_o.jpg",
    "id_image": "Giant_907915",
    "count_view": 0
  },
  {
    "link_thumb": "https://live.staticflickr.com/65535/49711291446_6e4f99e343_n.jpg",
    "id_album": "-437872736",
    "description": "Creature_958873",
    "title": "Creature_958873",
    "link_img": "https://live.staticflickr.com/65535/49711291446_dc4e9d79ec_o.jpg",
    "id_image": "Creature_958873",
    "count_view": 0
  },
  {
    "link_thumb": "https://live.staticflickr.com/65535/49712164426_6606a4f2f0_n.jpg",
    "id_album": "405170427",
    "description": "Tiger_710731",
    "title": "Tiger_710731",
    "link_img": "https://live.staticflickr.com/65535/49712164426_f05a944e18_o.jpg",
    "id_image": "Tiger_710731",
    "count_view": 0
  },
  {
    "link_thumb": "https://live.staticflickr.com/65535/49712154932_4a9868e52e_n.jpg",
    "id_album": "1402713104",
    "description": "Landscape_863881",
    "title": "Landscape_863881",
    "link_img": "https://live.staticflickr.com/65535/49712154932_022ecce70a_o.jpg",
    "id_image": "Landscape_863881",
    "count_view": 0
  },
  {
    "link_thumb": "https://live.staticflickr.com/65535/49711288252_024aea69b2_n.jpg",
    "id_album": "523598895",
    "description": "Artistic_376353",
    "title": "Artistic_376353",
    "link_img": "https://live.staticflickr.com/65535/49711288252_76a92b9fae_o.jpg",
    "id_image": "Artistic_376353",
    "count_view": 0
  },
  {
    "link_thumb": "https://live.staticflickr.com/65535/49712493211_6717a6641e_n.jpg",
    "id_album": "-867594484",
    "description": "Women_518480",
    "title": "Women_518480",
    "link_img": "https://live.staticflickr.com/65535/49712493211_57602a0466_o.jpg",
    "id_image": "Women_518480",
    "count_view": 0
  },
  {
    "link_thumb": "https://live.staticflickr.com/65535/49711573096_6cdac3ab31_n.jpg",
    "id_album": "850176884",
    "description": "Dragon_942085",
    "title": "Dragon_942085",
    "link_img": "https://live.staticflickr.com/65535/49711573096_c0806befba_o.jpg",
    "id_image": "Dragon_942085",
    "count_view": 0
  },
  {
    "link_thumb": "https://live.staticflickr.com/65535/49710953013_7ef20ede94_n.jpg",
    "id_album": "850176884",
    "description": "Dragon_591163",
    "title": "Dragon_591163",
    "link_img": "https://live.staticflickr.com/65535/49710953013_f0b1044385_o.jpg",
    "id_image": "Dragon_591163",
    "count_view": 0
  },
  {
    "link_thumb": "https://live.staticflickr.com/65535/49711564683_3b0e7f2c02_n.jpg",
    "id_album": "1223576123",
    "description": "Ruin_964118",
    "title": "Ruin_964118",
    "link_img": "https://live.staticflickr.com/65535/49711564683_bb5076de33_o.jpg",
    "id_image": "Ruin_964118",
    "count_view": 0
  },
  {
    "link_thumb": "https://live.staticflickr.com/65535/49711262673_3ae2f0c819_n.jpg",
    "id_album": "1402713104",
    "description": "Landscape_672547",
    "title": "Landscape_672547",
    "link_img": "https://live.staticflickr.com/65535/49711262673_4ebb3279d6_o.jpg",
    "id_image": "Landscape_672547",
    "count_view": 0
  },
  {
    "link_thumb": "https://live.staticflickr.com/65535/49710563488_183af74b27_n.jpg",
    "id_album": "-1964113117",
    "description": "City_374876",
    "title": "City_374876",
    "link_img": "https://live.staticflickr.com/65535/49710563488_82c311e7eb_o.jpg",
    "id_image": "City_374876",
    "count_view": 0
  },
  {
    "link_thumb": "https://live.staticflickr.com/65535/49711532143_ddba141425_n.jpg",
    "id_album": "-639976841",
    "description": "Pegasus_98598",
    "title": "Pegasus_98598",
    "link_img": "https://live.staticflickr.com/65535/49711532143_4ce95cdea1_o.jpg",
    "id_image": "Pegasus_98598",
    "count_view": 0
  },
  {
    "link_thumb": "https://live.staticflickr.com/65535/49711697882_ec22435820_n.jpg",
    "id_album": "850176884",
    "description": "Dragon_166802",
    "title": "Dragon_166802",
    "link_img": "https://live.staticflickr.com/65535/49711697882_c965155ba7_o.jpg",
    "id_image": "Dragon_166802",
    "count_view": 0
  },
  {
    "link_thumb": "https://live.staticflickr.com/65535/49710989456_a5340f35e0_n.jpg",
    "id_album": "1187037014",
    "description": "Battle_274014",
    "title": "Battle_274014",
    "link_img": "https://live.staticflickr.com/65535/49710989456_04a229697b_o.jpg",
    "id_image": "Battle_274014",
    "count_view": 0
  },
  {
    "link_thumb": "https://live.staticflickr.com/65535/49710970546_894492580a_n.jpg",
    "id_album": "523598895",
    "description": "Artistic_499461",
    "title": "Artistic_499461",
    "link_img": "https://live.staticflickr.com/65535/49710970546_b880b97b43_o.jpg",
    "id_image": "Artistic_499461",
    "count_view": 0
  },
  {
    "link_thumb": "https://live.staticflickr.com/65535/49711080361_91b618b871_n.jpg",
    "id_album": "430704260",
    "description": "Child_730198",
    "title": "Child_730198",
    "link_img": "https://live.staticflickr.com/65535/49711080361_82721f28ab_o.jpg",
    "id_image": "Child_730198",
    "count_view": 0
  },
  {
    "link_thumb": "https://live.staticflickr.com/65535/49711269397_e02b3075bc_n.jpg",
    "id_album": "523598895",
    "description": "Artistic_153530",
    "title": "Artistic_153530",
    "link_img": "https://live.staticflickr.com/65535/49711269397_4cb04d2f28_o.jpg",
    "id_image": "Artistic_153530",
    "count_view": 0
  },
  {
    "link_thumb": "https://live.staticflickr.com/65535/49711243813_319cae1a24_n.jpg",
    "id_album": "469960528",
    "description": "Knight_243479",
    "title": "Knight_243479",
    "link_img": "https://live.staticflickr.com/65535/49711243813_449edebf71_o.jpg",
    "id_image": "Knight_243479",
    "count_view": 0
  },
  {
    "link_thumb": "https://live.staticflickr.com/65535/49710985618_e09034f047_n.jpg",
    "id_album": "850176884",
    "description": "Dragon_760862",
    "title": "Dragon_760862",
    "link_img": "https://live.staticflickr.com/65535/49710985618_80de99c819_o.jpg",
    "id_image": "Dragon_760862",
    "count_view": 0
  },
  {
    "link_thumb": "https://live.staticflickr.com/65535/49710563258_eae76d4271_n.jpg",
    "id_album": "-1964113117",
    "description": "City_37352",
    "title": "City_37352",
    "link_img": "https://live.staticflickr.com/65535/49710563258_75af006321_o.jpg",
    "id_image": "City_37352",
    "count_view": 0
  },
  {
    "link_thumb": "https://live.staticflickr.com/65535/49711144671_8b7af10854_n.jpg",
    "id_album": "-437872736",
    "description": "Creature_151986",
    "title": "Creature_151986",
    "link_img": "https://live.staticflickr.com/65535/49711144671_e5e6cd4767_o.jpg",
    "id_image": "Creature_151986",
    "count_view": 0
  },
  {
    "link_thumb": "https://live.staticflickr.com/65535/49711014466_49987270a5_n.jpg",
    "id_album": "-1846011410",
    "description": "Bird_112459",
    "title": "Bird_112459",
    "link_img": "https://live.staticflickr.com/65535/49711014466_09f1b70ea1_o.jpg",
    "id_image": "Bird_112459",
    "count_view": 0
  },
  {
    "link_thumb": "https://live.staticflickr.com/65535/49710719003_ba0cb24bf0_n.jpg",
    "id_album": "-437872736",
    "description": "Creature_640719",
    "title": "Creature_640719",
    "link_img": "https://live.staticflickr.com/65535/49710719003_ac318cc2b1_o.jpg",
    "id_image": "Creature_640719",
    "count_view": 0
  },
  {
    "link_thumb": "https://live.staticflickr.com/65535/49711199002_ab0042d6ea_n.jpg",
    "id_album": "-1000175186",
    "description": "AngelWarrior_154212",
    "title": "AngelWarrior_154212",
    "link_img": "https://live.staticflickr.com/65535/49711199002_8b501b5161_o.jpg",
    "id_image": "AngelWarrior_154212",
    "count_view": 0
  },
  {
    "link_thumb": "https://live.staticflickr.com/65535/49711422323_66e7cbacfd_n.jpg",
    "id_album": "-833110404",
    "description": "Landscape_516508",
    "title": "Landscape_516508",
    "link_img": "https://live.staticflickr.com/65535/49711422323_b54cce45f9_o.jpg",
    "id_image": "Landscape_516508",
    "count_view": 0
  },
  {
    "link_thumb": "https://live.staticflickr.com/65535/49712074386_cc0a699d9d_n.jpg",
    "id_album": "-1326601535",
    "description": "Phoenix_507383",
    "title": "Phoenix_507383",
    "link_img": "https://live.staticflickr.com/65535/49712074386_385b647b4f_o.jpg",
    "id_image": "Phoenix_507383",
    "count_view": 0
  },
  {
    "link_thumb": "https://live.staticflickr.com/65535/49711660338_6c6e2f080e_n.jpg",
    "id_album": "1215289234",
    "description": "WARIOR2610191651318",
    "title": "WARIOR2610191651318",
    "link_img": "https://live.staticflickr.com/65535/49711660338_65a4ff9212_o.jpg",
    "id_image": "WARIOR2610191651318",
    "count_view": 0
  },
  {
    "link_thumb": "https://live.staticflickr.com/65535/49711859007_b66bd08872_n.jpg",
    "id_album": "850176884",
    "description": "Dragon_857959",
    "title": "Dragon_857959",
    "link_img": "https://live.staticflickr.com/65535/49711859007_775c7beb68_o.jpg",
    "id_image": "Dragon_857959",
    "count_view": 0
  },
  {
    "link_thumb": "https://live.staticflickr.com/65535/49711552607_e25bb8f8cb_n.jpg",
    "id_album": "-437872736",
    "description": "Creature_400129",
    "title": "Creature_400129",
    "link_img": "https://live.staticflickr.com/65535/49711552607_a644597ec2_o.jpg",
    "id_image": "Creature_400129",
    "count_view": 0
  },
  {
    "link_thumb": "https://live.staticflickr.com/65535/49711574453_8f6cd2f5b8_n.jpg",
    "id_album": "-1611961467",
    "description": "Samurai_746330",
    "title": "Samurai_746330",
    "link_img": "https://live.staticflickr.com/65535/49711574453_072391710b_o.jpg",
    "id_image": "Samurai_746330",
    "count_view": 0
  },
  {
    "link_thumb": "https://live.staticflickr.com/65535/49711095996_49d5d785bb_n.jpg",
    "id_album": "-1964113117",
    "description": "City_314024",
    "title": "City_314024",
    "link_img": "https://live.staticflickr.com/65535/49711095996_250033b67c_o.jpg",
    "id_image": "City_314024",
    "count_view": 0
  },
  {
    "link_thumb": "https://live.staticflickr.com/65535/49711030603_5772289e3c_n.jpg",
    "id_album": "850176884",
    "description": "Dragon_918803",
    "title": "Dragon_918803",
    "link_img": "https://live.staticflickr.com/65535/49711030603_5cf37ffbe2_o.jpg",
    "id_image": "Dragon_918803",
    "count_view": 0
  },
  {
    "link_thumb": "https://live.staticflickr.com/65535/49711803717_e337024ddf_n.jpg",
    "id_album": "850176884",
    "description": "Dragon_562971",
    "title": "Dragon_562971",
    "link_img": "https://live.staticflickr.com/65535/49711803717_57686d4ebc_o.jpg",
    "id_image": "Dragon_562971",
    "count_view": 0
  },
  {
    "link_thumb": "https://live.staticflickr.com/65535/49711571732_2171d14f40_n.jpg",
    "id_album": "-437872736",
    "description": "Creature_553689",
    "title": "Creature_553689",
    "link_img": "https://live.staticflickr.com/65535/49711571732_089239fde1_o.jpg",
    "id_image": "Creature_553689",
    "count_view": 0
  },
  {
    "link_thumb": "https://live.staticflickr.com/65535/49711311608_1e7d773989_n.jpg",
    "id_album": "1402713104",
    "description": "Landscape_872384",
    "title": "Landscape_872384",
    "link_img": "https://live.staticflickr.com/65535/49711311608_7a003a3149_o.jpg",
    "id_image": "Landscape_872384",
    "count_view": 0
  },
  {
    "link_thumb": "https://live.staticflickr.com/65535/49711182232_7d4a49eb07_n.jpg",
    "id_album": "-218097820",
    "description": "ASongOfIceAndFire_748566",
    "title": "ASongOfIceAndFire_748566",
    "link_img": "https://live.staticflickr.com/65535/49711182232_15eec7aa76_o.jpg",
    "id_image": "ASongOfIceAndFire_748566",
    "count_view": 0
  },
  {
    "link_thumb": "https://live.staticflickr.com/65535/49710694603_4a13293124_n.jpg",
    "id_album": "-437872736",
    "description": "Creature_415702",
    "title": "Creature_415702",
    "link_img": "https://live.staticflickr.com/65535/49710694603_4b78f43c64_o.jpg",
    "id_image": "Creature_415702",
    "count_view": 0
  },
  {
    "link_thumb": "https://live.staticflickr.com/65535/49711412061_f45ec1847a_n.jpg",
    "id_album": "850176884",
    "description": "Dragon_29082",
    "title": "Dragon_29082",
    "link_img": "https://live.staticflickr.com/65535/49711412061_4c609e6da8_o.jpg",
    "id_image": "Dragon_29082",
    "count_view": 0
  },
  {
    "link_thumb": "https://live.staticflickr.com/65535/49711327278_6aa8950edf_n.jpg",
    "id_album": "1402713104",
    "description": "Landscape_940527",
    "title": "Landscape_940527",
    "link_img": "https://live.staticflickr.com/65535/49711327278_fecb232444_o.jpg",
    "id_image": "Landscape_940527",
    "count_view": 0
  },
  {
    "link_thumb": "https://live.staticflickr.com/65535/49710703688_4cc8579cc1_n.jpg",
    "id_album": "-437872736",
    "description": "Creature_511602",
    "title": "Creature_511602",
    "link_img": "https://live.staticflickr.com/65535/49710703688_c8368597a4_o.jpg",
    "id_image": "Creature_511602",
    "count_view": 0
  },
  {
    "link_thumb": "https://live.staticflickr.com/65535/49711146971_565f95cfeb_n.jpg",
    "id_album": "-437872736",
    "description": "Creature_155048",
    "title": "Creature_155048",
    "link_img": "https://live.staticflickr.com/65535/49711146971_442812683a_o.jpg",
    "id_image": "Creature_155048",
    "count_view": 0
  },
  {
    "link_thumb": "https://live.staticflickr.com/65535/49711023891_7375834ff6_n.jpg",
    "id_album": "406431601",
    "description": "Building_314252",
    "title": "Building_314252",
    "link_img": "https://live.staticflickr.com/65535/49711023891_c3fd03f9c1_o.jpg",
    "id_image": "Building_314252",
    "count_view": 0
  },
  {
    "link_thumb": "https://live.staticflickr.com/65535/49711359713_af7542cecc_n.jpg",
    "id_album": "-833110404",
    "description": "Landscape_238819",
    "title": "Landscape_238819",
    "link_img": "https://live.staticflickr.com/65535/49711359713_af3e7f8116_o.jpg",
    "id_image": "Landscape_238819",
    "count_view": 0
  },
  {
    "link_thumb": "https://live.staticflickr.com/65535/49711110271_b089911264_n.jpg",
    "id_album": "-1964113117",
    "description": "City_665361",
    "title": "City_665361",
    "link_img": "https://live.staticflickr.com/65535/49711110271_5d8b97b78f_o.jpg",
    "id_image": "City_665361",
    "count_view": 0
  },
  {
    "link_thumb": "https://live.staticflickr.com/65535/49711300208_432e0578a3_n.jpg",
    "id_album": "1402713104",
    "description": "Landscape_864270",
    "title": "Landscape_864270",
    "link_img": "https://live.staticflickr.com/65535/49711300208_339807bace_o.jpg",
    "id_image": "Landscape_864270",
    "count_view": 0
  },
  {
    "link_thumb": "https://live.staticflickr.com/65535/49712293981_fcbb95fef4_n.jpg",
    "id_album": "-709711865",
    "description": "Wolf_883175",
    "title": "Wolf_883175",
    "link_img": "https://live.staticflickr.com/65535/49712293981_5a9400e08b_o.jpg",
    "id_image": "Wolf_883175",
    "count_view": 0
  },
  {
    "link_thumb": "https://live.staticflickr.com/65535/49711367187_4f63fde93f_n.jpg",
    "id_album": "-1541846310",
    "description": "Castle_340819",
    "title": "Castle_340819",
    "link_img": "https://live.staticflickr.com/65535/49711367187_67d0a68a26_o.jpg",
    "id_image": "Castle_340819",
    "count_view": 0
  },
  {
    "link_thumb": "https://live.staticflickr.com/65535/49710840278_da0a59f860_n.jpg",
    "id_album": "850176884",
    "description": "Dragon_173419",
    "title": "Dragon_173419",
    "link_img": "https://live.staticflickr.com/65535/49710840278_d6dc1876e6_o.jpg",
    "id_image": "Dragon_173419",
    "count_view": 0
  },
  {
    "link_thumb": "https://live.staticflickr.com/65535/49712395732_678d499abc_n.jpg",
    "id_album": "-1326601535",
    "description": "Phoenix_472378",
    "title": "Phoenix_472378",
    "link_img": "https://live.staticflickr.com/65535/49712395732_6fa40f6f03_o.jpg",
    "id_image": "Phoenix_472378",
    "count_view": 0
  },
  {
    "link_thumb": "https://live.staticflickr.com/65535/49711801897_0db84f617a_n.jpg",
    "id_album": "850176884",
    "description": "Dragon_557282",
    "title": "Dragon_557282",
    "link_img": "https://live.staticflickr.com/65535/49711801897_8b571c2e72_o.jpg",
    "id_image": "Dragon_557282",
    "count_view": 0
  },
  {
    "link_thumb": "https://live.staticflickr.com/65535/49711874927_338b55f466_n.jpg",
    "id_album": "850176884",
    "description": "Dragon_894424",
    "title": "Dragon_894424",
    "link_img": "https://live.staticflickr.com/65535/49711874927_03e33740c3_o.jpg",
    "id_image": "Dragon_894424",
    "count_view": 0
  },
  {
    "link_thumb": "https://live.staticflickr.com/65535/49711104358_8277a7a777_n.jpg",
    "id_album": "134100487",
    "description": "Elf_890124",
    "title": "Elf_890124",
    "link_img": "https://live.staticflickr.com/65535/49711104358_6fd1975a5e_o.jpg",
    "id_image": "Elf_890124",
    "count_view": 0
  },
  {
    "link_thumb": "https://live.staticflickr.com/65535/49711777491_76668014aa_n.jpg",
    "id_album": "-1967191405",
    "description": "Hydra_911867",
    "title": "Hydra_911867",
    "link_img": "https://live.staticflickr.com/65535/49711777491_83b6a6bb97_o.jpg",
    "id_image": "Hydra_911867",
    "count_view": 0
  },
  {
    "link_thumb": "https://live.staticflickr.com/65535/49711094746_4fb506827e_n.jpg",
    "id_album": "-1964113117",
    "description": "City_294405",
    "title": "City_294405",
    "link_img": "https://live.staticflickr.com/65535/49711094746_9a698973b9_o.jpg",
    "id_image": "City_294405",
    "count_view": 0
  },
  {
    "link_thumb": "https://live.staticflickr.com/65535/49712676146_5fabc74bc1_n.jpg",
    "id_album": "-1675918237",
    "description": "WomenWarrior_807134",
    "title": "WomenWarrior_807134",
    "link_img": "https://live.staticflickr.com/65535/49712676146_ec52da3a61_o.jpg",
    "id_image": "WomenWarrior_807134",
    "count_view": 0
  },
  {
    "link_thumb": "https://live.staticflickr.com/65535/49712088732_ecbab53197_n.jpg",
    "id_album": "1957967226",
    "description": "House_511826",
    "title": "House_511826",
    "link_img": "https://live.staticflickr.com/65535/49712088732_abf8fa63e3_o.jpg",
    "id_image": "House_511826",
    "count_view": 0
  },
  {
    "link_thumb": "https://live.staticflickr.com/65535/49710950808_c54613b7d5_n.jpg",
    "id_album": "850176884",
    "description": "Dragon_585038",
    "title": "Dragon_585038",
    "link_img": "https://live.staticflickr.com/65535/49710950808_8a0b18237f_o.jpg",
    "id_image": "Dragon_585038",
    "count_view": 0
  },
  {
    "link_thumb": "https://live.staticflickr.com/65535/49710945096_a795384b02_n.jpg",
    "id_album": "523598895",
    "description": "Artistic_153570",
    "title": "Artistic_153570",
    "link_img": "https://live.staticflickr.com/65535/49710945096_73fe922c7d_o.jpg",
    "id_image": "Artistic_153570",
    "count_view": 0
  },
  {
    "link_thumb": "https://live.staticflickr.com/65535/49711823901_b8bdeba6a0_n.jpg",
    "id_album": "1402713104",
    "description": "Landscape_842658",
    "title": "Landscape_842658",
    "link_img": "https://live.staticflickr.com/65535/49711823901_21bee242a2_o.jpg",
    "id_image": "Landscape_842658",
    "count_view": 0
  },
  {
    "link_thumb": "https://live.staticflickr.com/65535/49711514853_58aed78f60_n.jpg",
    "id_album": "1892085513",
    "description": "Oriental_958049",
    "title": "Oriental_958049",
    "link_img": "https://live.staticflickr.com/65535/49711514853_253bd5d49a_o.jpg",
    "id_image": "Oriental_958049",
    "count_view": 0
  },
  {
    "link_thumb": "https://live.staticflickr.com/65535/49711690922_facd7a2144_n.jpg",
    "id_album": "850176884",
    "description": "Dragon_129822",
    "title": "Dragon_129822",
    "link_img": "https://live.staticflickr.com/65535/49711690922_0989c53c12_o.jpg",
    "id_image": "Dragon_129822",
    "count_view": 0
  },
  {
    "link_thumb": "https://live.staticflickr.com/65535/49711421752_deebcfa099_n.jpg",
    "id_album": "-1964113117",
    "description": "City_327449",
    "title": "City_327449",
    "link_img": "https://live.staticflickr.com/65535/49711421752_a8541d3fb0_o.jpg",
    "id_image": "City_327449",
    "count_view": 0
  },
  {
    "link_thumb": "https://live.staticflickr.com/65535/49711348017_9af9a96225_n.jpg",
    "id_album": "406431601",
    "description": "Building_373921",
    "title": "Building_373921",
    "link_img": "https://live.staticflickr.com/65535/49711348017_6a21126b5d_o.jpg",
    "id_image": "Building_373921",
    "count_view": 0
  },
  {
    "link_thumb": "https://live.staticflickr.com/65535/49711324727_07a7415f7d_n.jpg",
    "id_album": "1187037014",
    "description": "Battle_437191",
    "title": "Battle_437191",
    "link_img": "https://live.staticflickr.com/65535/49711324727_06b2947653_o.jpg",
    "id_image": "Battle_437191",
    "count_view": 0
  },
  {
    "link_thumb": "https://live.staticflickr.com/65535/49710446403_2b4dfa60e7_n.jpg",
    "id_album": "523598895",
    "description": "Artistic_778329",
    "title": "Artistic_778329",
    "link_img": "https://live.staticflickr.com/65535/49710446403_5312c140a2_o.jpg",
    "id_image": "Artistic_778329",
    "count_view": 0
  },
  {
    "link_thumb": "https://live.staticflickr.com/65535/49711582091_7448f28ec4_n.jpg",
    "id_album": "850176884",
    "description": "Dragon_969393",
    "title": "Dragon_969393",
    "link_img": "https://live.staticflickr.com/65535/49711582091_642f772b50_o.jpg",
    "id_image": "Dragon_969393",
    "count_view": 0
  },
  {
    "link_thumb": "https://live.staticflickr.com/65535/49710975191_88cd0cc8e5_n.jpg",
    "id_album": "523598895",
    "description": "Artistic_593172",
    "title": "Artistic_593172",
    "link_img": "https://live.staticflickr.com/65535/49710975191_b45c15c08b_o.jpg",
    "id_image": "Artistic_593172",
    "count_view": 0
  },
  {
    "link_thumb": "https://live.staticflickr.com/65535/49712417747_94840249a5_n.jpg",
    "id_album": "1223576123",
    "description": "Ruin_677226",
    "title": "Ruin_677226",
    "link_img": "https://live.staticflickr.com/65535/49712417747_6f8ea18a5e_o.jpg",
    "id_image": "Ruin_677226",
    "count_view": 0
  },
  {
    "link_thumb": "https://live.staticflickr.com/65535/49710569643_4036792bbe_n.jpg",
    "id_album": "-1964113117",
    "description": "City_527908",
    "title": "City_527908",
    "link_img": "https://live.staticflickr.com/65535/49710569643_2ae90bd7a9_o.jpg",
    "id_image": "City_527908",
    "count_view": 0
  },
  {
    "link_thumb": "https://live.staticflickr.com/65535/49710796153_0f4edce2ec_n.jpg",
    "id_album": "1903411565",
    "description": "Deer_977991",
    "title": "Deer_977991",
    "link_img": "https://live.staticflickr.com/65535/49710796153_8ce267c13b_o.jpg",
    "id_image": "Deer_977991",
    "count_view": 0
  },
  {
    "link_thumb": "https://live.staticflickr.com/65535/49711223513_e0ff1be04a_n.jpg",
    "id_album": "-1933715543",
    "description": "Horse_493009",
    "title": "Horse_493009",
    "link_img": "https://live.staticflickr.com/65535/49711223513_4cbc448b4f_o.jpg",
    "id_image": "Horse_493009",
    "count_view": 0
  },
  {
    "link_thumb": "https://live.staticflickr.com/65535/49711555301_6eefd2907b_n.jpg",
    "id_album": "850176884",
    "description": "Dragon_902753",
    "title": "Dragon_902753",
    "link_img": "https://live.staticflickr.com/65535/49711555301_f9406e2537_o.jpg",
    "id_image": "Dragon_902753",
    "count_view": 0
  },
  {
    "link_thumb": "https://live.staticflickr.com/65535/49711374711_65c1b3c488_n.jpg",
    "id_album": "850176884",
    "description": "Dragon_153463",
    "title": "Dragon_153463",
    "link_img": "https://live.staticflickr.com/65535/49711374711_2b2d6b3294_o.jpg",
    "id_image": "Dragon_153463",
    "count_view": 0
  },
  {
    "link_thumb": "https://live.staticflickr.com/65535/49712872252_de9d29e5d1_n.jpg",
    "id_album": "-1675918237",
    "description": "WomenWarrior_256649",
    "title": "WomenWarrior_256649",
    "link_img": "https://live.staticflickr.com/65535/49712872252_ac5e9f7b0b_o.jpg",
    "id_image": "WomenWarrior_256649",
    "count_view": 0
  },
  {
    "link_thumb": "https://live.staticflickr.com/65535/49711422733_7ac24d4965_n.jpg",
    "id_album": "-833110404",
    "description": "Landscape_516512",
    "title": "Landscape_516512",
    "link_img": "https://live.staticflickr.com/65535/49711422733_9c0fab6f6d_o.jpg",
    "id_image": "Landscape_516512",
    "count_view": 0
  },
  {
    "link_thumb": "https://live.staticflickr.com/65535/49712311901_b2406a7854_n.jpg",
    "id_album": "-1126835654",
    "description": "Women_863031",
    "title": "Women_863031",
    "link_img": "https://live.staticflickr.com/65535/49712311901_77418c98e8_o.jpg",
    "id_image": "Women_863031",
    "count_view": 0
  },
  {
    "link_thumb": "https://live.staticflickr.com/65535/49711487551_4dbf6fbff6_n.jpg",
    "id_album": "850176884",
    "description": "Dragon_585535",
    "title": "Dragon_585535",
    "link_img": "https://live.staticflickr.com/65535/49711487551_998b3f6539_o.jpg",
    "id_image": "Dragon_585535",
    "count_view": 0
  },
  {
    "link_thumb": "https://live.staticflickr.com/65535/49712344972_2bd37a80d9_n.jpg",
    "id_album": "-222719689",
    "description": "Men_977307",
    "title": "Men_977307",
    "link_img": "https://live.staticflickr.com/65535/49712344972_79e4874bc8_o.jpg",
    "id_image": "Men_977307",
    "count_view": 0
  },
  {
    "link_thumb": "https://live.staticflickr.com/65535/49711878482_e6f91bdcd4_n.jpg",
    "id_album": "850176884",
    "description": "Dragon_905116",
    "title": "Dragon_905116",
    "link_img": "https://live.staticflickr.com/65535/49711878482_d237a33641_o.jpg",
    "id_image": "Dragon_905116",
    "count_view": 0
  },
  {
    "link_thumb": "https://live.staticflickr.com/65535/49710996121_db180ab44c_n.jpg",
    "id_album": "1187037014",
    "description": "Battle_378320",
    "title": "Battle_378320",
    "link_img": "https://live.staticflickr.com/65535/49710996121_48c7ecc674_o.jpg",
    "id_image": "Battle_378320",
    "count_view": 0
  },
  {
    "link_thumb": "https://live.staticflickr.com/65535/49710418138_8967e30391_n.jpg",
    "id_album": "523598895",
    "description": "Artistic_205310",
    "title": "Artistic_205310",
    "link_img": "https://live.staticflickr.com/65535/49710418138_bca532fdca_o.jpg",
    "id_image": "Artistic_205310",
    "count_view": 0
  },
  {
    "link_thumb": "https://live.staticflickr.com/65535/49712338587_04a46b1bef_n.jpg",
    "id_album": "-222719689",
    "description": "Men_274035",
    "title": "Men_274035",
    "link_img": "https://live.staticflickr.com/65535/49712338587_8eb28533a0_o.jpg",
    "id_image": "Men_274035",
    "count_view": 0
  },
  {
    "link_thumb": "https://live.staticflickr.com/65535/49711160793_9da32d8f94_n.jpg",
    "id_album": "-1083189875",
    "description": "Forest_388418",
    "title": "Forest_388418",
    "link_img": "https://live.staticflickr.com/65535/49711160793_7a010de2ee_o.jpg",
    "id_image": "Forest_388418",
    "count_view": 0
  },
  {
    "link_thumb": "https://live.staticflickr.com/65535/49711224566_76e491fcf2_n.jpg",
    "id_album": "-437872736",
    "description": "Creature_387871",
    "title": "Creature_387871",
    "link_img": "https://live.staticflickr.com/65535/49711224566_95c6c8f38d_o.jpg",
    "id_image": "Creature_387871",
    "count_view": 0
  },
  {
    "link_thumb": "https://live.staticflickr.com/65535/49711875751_0ab943f07f_n.jpg",
    "id_album": "1402713104",
    "description": "Landscape_960712",
    "title": "Landscape_960712",
    "link_img": "https://live.staticflickr.com/65535/49711875751_3d273843ba_o.jpg",
    "id_image": "Landscape_960712",
    "count_view": 0
  },
  {
    "link_thumb": "https://live.staticflickr.com/65535/49712113112_5674986aa6_n.jpg",
    "id_album": "469960528",
    "description": "Knight_951671",
    "title": "Knight_951671",
    "link_img": "https://live.staticflickr.com/65535/49712113112_63d8290602_o.jpg",
    "id_image": "Knight_951671",
    "count_view": 0
  },
  {
    "link_thumb": "https://live.staticflickr.com/65535/49711536498_00ef7d0770_n.jpg",
    "id_album": "-1326601535",
    "description": "Phoenix_451367",
    "title": "Phoenix_451367",
    "link_img": "https://live.staticflickr.com/65535/49711536498_d69655f03e_o.jpg",
    "id_image": "Phoenix_451367",
    "count_view": 0
  },
  {
    "link_thumb": "https://live.staticflickr.com/65535/49711882637_ff4b577779_n.jpg",
    "id_album": "850176884",
    "description": "Dragon_910954",
    "title": "Dragon_910954",
    "link_img": "https://live.staticflickr.com/65535/49711882637_ab701ce05d_o.jpg",
    "id_image": "Dragon_910954",
    "count_view": 0
  },
  {
    "link_thumb": "https://live.staticflickr.com/65535/49710846293_fd2d8db2b7_n.jpg",
    "id_album": "850176884",
    "description": "Dragon_195653",
    "title": "Dragon_195653",
    "link_img": "https://live.staticflickr.com/65535/49710846293_bd17cf1148_o.jpg",
    "id_image": "Dragon_195653",
    "count_view": 0
  },
  {
    "link_thumb": "https://live.staticflickr.com/65535/49711141131_a477e70bb2_n.jpg",
    "id_album": "-437872736",
    "description": "Creature_129890",
    "title": "Creature_129890",
    "link_img": "https://live.staticflickr.com/65535/49711141131_ae57349531_o.jpg",
    "id_image": "Creature_129890",
    "count_view": 0
  },
  {
    "link_thumb": "https://live.staticflickr.com/65535/49710644343_afe89b695e_n.jpg",
    "id_album": "-437872736",
    "description": "Creature_297856",
    "title": "Creature_297856",
    "link_img": "https://live.staticflickr.com/65535/49710644343_fd52a2cc52_o.jpg",
    "id_image": "Creature_297856",
    "count_view": 0
  },
  {
    "link_thumb": "https://live.staticflickr.com/65535/49710557348_7151f55545_n.jpg",
    "id_album": "-1964113117",
    "description": "City_231216",
    "title": "City_231216",
    "link_img": "https://live.staticflickr.com/65535/49710557348_735d0bc1c8_o.jpg",
    "id_image": "City_231216",
    "count_view": 0
  },
  {
    "link_thumb": "https://live.staticflickr.com/65535/49711009681_d3d9468b8d_n.jpg",
    "id_album": "1187037014",
    "description": "Battle_798355",
    "title": "Battle_798355",
    "link_img": "https://live.staticflickr.com/65535/49711009681_d0d0c8ed08_o.jpg",
    "id_image": "Battle_798355",
    "count_view": 0
  },
  {
    "link_thumb": "https://live.staticflickr.com/65535/49711873292_8a56f4b4ea_n.jpg",
    "id_album": "850176884",
    "description": "Dragon_886642",
    "title": "Dragon_886642",
    "link_img": "https://live.staticflickr.com/65535/49711873292_5c014fbc90_o.jpg",
    "id_image": "Dragon_886642",
    "count_view": 0
  },
  {
    "link_thumb": "https://live.staticflickr.com/65535/49711503046_558bee6b30_n.jpg",
    "id_album": "850176884",
    "description": "Dragon_655779",
    "title": "Dragon_655779",
    "link_img": "https://live.staticflickr.com/65535/49711503046_3f44e2df73_o.jpg",
    "id_image": "Dragon_655779",
    "count_view": 0
  },
  {
    "link_thumb": "https://live.staticflickr.com/65535/49710407603_84ab847ef6_n.jpg",
    "id_album": "523598895",
    "description": "Artistic_121827",
    "title": "Artistic_121827",
    "link_img": "https://live.staticflickr.com/65535/49710407603_2a4508c74e_o.jpg",
    "id_image": "Artistic_121827",
    "count_view": 0
  },
  {
    "link_thumb": "https://live.staticflickr.com/65535/49710949428_1850b2a161_n.jpg",
    "id_album": "850176884",
    "description": "Dragon_572841",
    "title": "Dragon_572841",
    "link_img": "https://live.staticflickr.com/65535/49710949428_3d6b639bcc_o.jpg",
    "id_image": "Dragon_572841",
    "count_view": 0
  },
  {
    "link_thumb": "https://live.staticflickr.com/65535/49711490781_e2755730f6_n.jpg",
    "id_album": "850176884",
    "description": "Dragon_595233",
    "title": "Dragon_595233",
    "link_img": "https://live.staticflickr.com/65535/49711490781_f0606d4863_o.jpg",
    "id_image": "Dragon_595233",
    "count_view": 0
  },
  {
    "link_thumb": "https://live.staticflickr.com/65535/49710765678_ec78c90314_n.jpg",
    "id_album": "-437872736",
    "description": "Creature_958958",
    "title": "Creature_958958",
    "link_img": "https://live.staticflickr.com/65535/49710765678_f1702dbb0f_o.jpg",
    "id_image": "Creature_958958",
    "count_view": 0
  },
  {
    "link_thumb": "https://live.staticflickr.com/65535/49710735598_7988252cc0_n.jpg",
    "id_album": "-437872736",
    "description": "Creature_905113",
    "title": "Creature_905113",
    "link_img": "https://live.staticflickr.com/65535/49710735598_e675d08882_o.jpg",
    "id_image": "Creature_905113",
    "count_view": 0
  },
  {
    "link_thumb": "https://live.staticflickr.com/65535/49711814346_249febf184_n.jpg",
    "id_album": "1402713104",
    "description": "Landscape_732262",
    "title": "Landscape_732262",
    "link_img": "https://live.staticflickr.com/65535/49711814346_303f468789_o.jpg",
    "id_image": "Landscape_732262",
    "count_view": 0
  },
  {
    "link_thumb": "https://live.staticflickr.com/65535/49711889092_2ec213d1e3_n.jpg",
    "id_album": "850176884",
    "description": "Dragon_921704",
    "title": "Dragon_921704",
    "link_img": "https://live.staticflickr.com/65535/49711889092_30a8864c4d_o.jpg",
    "id_image": "Dragon_921704",
    "count_view": 0
  },
  {
    "link_thumb": "https://live.staticflickr.com/65535/49711312473_91c222d403_n.jpg",
    "id_album": "1402713104",
    "description": "Landscape_873670",
    "title": "Landscape_873670",
    "link_img": "https://live.staticflickr.com/65535/49711312473_eed80c3f70_o.jpg",
    "id_image": "Landscape_873670",
    "count_view": 0
  },
  {
    "link_thumb": "https://live.staticflickr.com/65535/49710627368_ce93705e82_n.jpg",
    "id_album": "-437872736",
    "description": "Creature_234071",
    "title": "Creature_234071",
    "link_img": "https://live.staticflickr.com/65535/49710627368_2b46e0e6e1_o.jpg",
    "id_image": "Creature_234071",
    "count_view": 0
  },
  {
    "link_thumb": "https://live.staticflickr.com/65535/49712774432_db6dcc19af_n.jpg",
    "id_album": "1861288871",
    "description": "Women_745743",
    "title": "Women_745743",
    "link_img": "https://live.staticflickr.com/65535/49712774432_f7d6f63511_o.jpg",
    "id_image": "Women_745743",
    "count_view": 0
  },
  {
    "link_thumb": "https://live.staticflickr.com/65535/49711364466_fdf826e55c_n.jpg",
    "id_album": "850176884",
    "description": "Dragon_122339",
    "title": "Dragon_122339",
    "link_img": "https://live.staticflickr.com/65535/49711364466_3490788893_o.jpg",
    "id_image": "Dragon_122339",
    "count_view": 0
  },
  {
    "link_thumb": "https://live.staticflickr.com/65535/49711701316_5fc87229e9_n.jpg",
    "id_album": "-1083189875",
    "description": "Forest_601704",
    "title": "Forest_601704",
    "link_img": "https://live.staticflickr.com/65535/49711701316_947b661497_o.jpg",
    "id_image": "Forest_601704",
    "count_view": 0
  },
  {
    "link_thumb": "https://live.staticflickr.com/65535/49711405238_8e88911787_n.jpg",
    "id_album": "-833110404",
    "description": "Landscape_417275",
    "title": "Landscape_417275",
    "link_img": "https://live.staticflickr.com/65535/49711405238_03d7a97181_o.jpg",
    "id_image": "Landscape_417275",
    "count_view": 0
  },
  {
    "link_thumb": "https://live.staticflickr.com/65535/49711530557_c1c12969e6_n.jpg",
    "id_album": "-437872736",
    "description": "Creature_339118",
    "title": "Creature_339118",
    "link_img": "https://live.staticflickr.com/65535/49711530557_e386506132_o.jpg",
    "id_image": "Creature_339118",
    "count_view": 0
  },
  {
    "link_thumb": "https://live.staticflickr.com/65535/49711227917_06667b9fe6_n.jpg",
    "id_album": "-1913845949",
    "description": "Animal_595059",
    "title": "Animal_595059",
    "link_img": "https://live.staticflickr.com/65535/49711227917_7dc6e928ff_o.jpg",
    "id_image": "Animal_595059",
    "count_view": 0
  },
  {
    "link_thumb": "https://live.staticflickr.com/65535/49711522051_d4e7e27b7f_n.jpg",
    "id_album": "850176884",
    "description": "Dragon_76707",
    "title": "Dragon_76707",
    "link_img": "https://live.staticflickr.com/65535/49711522051_4c49356414_o.jpg",
    "id_image": "Dragon_76707",
    "count_view": 0
  },
  {
    "link_thumb": "https://live.staticflickr.com/65535/49711264341_523daf87da_n.jpg",
    "id_album": "-437872736",
    "description": "Creature_711441",
    "title": "Creature_711441",
    "link_img": "https://live.staticflickr.com/65535/49711264341_e931f5319e_o.jpg",
    "id_image": "Creature_711441",
    "count_view": 0
  },
  {
    "link_thumb": "https://live.staticflickr.com/65535/49711483191_0ae2c2a177_n.jpg",
    "id_album": "850176884",
    "description": "Dragon_563005",
    "title": "Dragon_563005",
    "link_img": "https://live.staticflickr.com/65535/49711483191_a4e6cf080e_o.jpg",
    "id_image": "Dragon_563005",
    "count_view": 0
  },
  {
    "link_thumb": "https://live.staticflickr.com/65535/49711549156_8847ac4019_n.jpg",
    "id_album": "850176884",
    "description": "Dragon_881736",
    "title": "Dragon_881736",
    "link_img": "https://live.staticflickr.com/65535/49711549156_ee0154c94c_o.jpg",
    "id_image": "Dragon_881736",
    "count_view": 0
  },
  {
    "link_thumb": "https://live.staticflickr.com/65535/49710890646_2d2b7f0016_n.jpg",
    "id_album": "-1000175186",
    "description": "AngelWarrior_967888",
    "title": "AngelWarrior_967888",
    "link_img": "https://live.staticflickr.com/65535/49710890646_9017695edb_o.jpg",
    "id_image": "AngelWarrior_967888",
    "count_view": 0
  },
  {
    "link_thumb": "https://live.staticflickr.com/65535/49711655382_d46d5374ed_n.jpg",
    "id_album": "1903411565",
    "description": "Deer_971498",
    "title": "Deer_971498",
    "link_img": "https://live.staticflickr.com/65535/49711655382_38220099cd_o.jpg",
    "id_image": "Deer_971498",
    "count_view": 0
  },
  {
    "link_thumb": "https://live.staticflickr.com/65535/49710891396_c871ae92ac_n.jpg",
    "id_album": "-1000175186",
    "description": "AngelWarrior_992281",
    "title": "AngelWarrior_992281",
    "link_img": "https://live.staticflickr.com/65535/49710891396_5ac34c3b8e_o.jpg",
    "id_image": "AngelWarrior_992281",
    "count_view": 0
  },
  {
    "link_thumb": "https://live.staticflickr.com/65535/49712143081_953e9471cb_n.jpg",
    "id_album": "-5356651",
    "description": "Sorcerer_244277",
    "title": "Sorcerer_244277",
    "link_img": "https://live.staticflickr.com/65535/49712143081_898d59be6f_o.jpg",
    "id_image": "Sorcerer_244277",
    "count_view": 0
  },
  {
    "link_thumb": "https://live.staticflickr.com/65535/49711437582_2b3c0c9f37_n.jpg",
    "id_album": "-1964113117",
    "description": "City_699815",
    "title": "City_699815",
    "link_img": "https://live.staticflickr.com/65535/49711437582_e4dff7c8aa_o.jpg",
    "id_image": "City_699815",
    "count_view": 0
  },
  {
    "link_thumb": "https://live.staticflickr.com/65535/49711417923_c978500ef1_n.jpg",
    "id_album": "-833110404",
    "description": "Landscape_496079",
    "title": "Landscape_496079",
    "link_img": "https://live.staticflickr.com/65535/49711417923_44921c8a34_o.jpg",
    "id_image": "Landscape_496079",
    "count_view": 0
  },
  {
    "link_thumb": "https://live.staticflickr.com/65535/49711946088_9d3257412e_n.jpg",
    "id_album": "1861288871",
    "description": "Women_831524",
    "title": "Women_831524",
    "link_img": "https://live.staticflickr.com/65535/49711946088_82751644fc_o.jpg",
    "id_image": "Women_831524",
    "count_view": 0
  },
  {
    "link_thumb": "https://live.staticflickr.com/65535/49712090336_aec1545442_n.jpg",
    "id_album": "606798642",
    "description": "RedRidingHood_752059",
    "title": "RedRidingHood_752059",
    "link_img": "https://live.staticflickr.com/65535/49712090336_b3c14f2710_o.jpg",
    "id_image": "RedRidingHood_752059",
    "count_view": 0
  },
  {
    "link_thumb": "https://live.staticflickr.com/65535/49711315657_874133d120_n.jpg",
    "id_album": "1187037014",
    "description": "Battle_315048",
    "title": "Battle_315048",
    "link_img": "https://live.staticflickr.com/65535/49711315657_e3c3e62447_o.jpg",
    "id_image": "Battle_315048",
    "count_view": 0
  },
  {
    "link_thumb": "https://live.staticflickr.com/65535/49711019953_8e080e8884_n.jpg",
    "id_album": "850176884",
    "description": "Dragon_900234",
    "title": "Dragon_900234",
    "link_img": "https://live.staticflickr.com/65535/49711019953_879df673aa_o.jpg",
    "id_image": "Dragon_900234",
    "count_view": 0
  },
  {
    "link_thumb": "https://live.staticflickr.com/65535/49711093506_3de258fe00_n.jpg",
    "id_album": "-1964113117",
    "description": "City_272694",
    "title": "City_272694",
    "link_img": "https://live.staticflickr.com/65535/49711093506_90791b332f_o.jpg",
    "id_image": "City_272694",
    "count_view": 0
  },
  {
    "link_thumb": "https://live.staticflickr.com/65535/49712371336_e75731e5ff_n.jpg",
    "id_album": "295204930",
    "description": "Women_274242",
    "title": "Women_274242",
    "link_img": "https://live.staticflickr.com/65535/49712371336_78628f5325_o.jpg",
    "id_image": "Women_274242",
    "count_view": 0
  },
  {
    "link_thumb": "https://live.staticflickr.com/65535/49712133588_bbdc6a3dda_n.jpg",
    "id_album": "-1675918237",
    "description": "WomenWarrior_767133",
    "title": "WomenWarrior_767133",
    "link_img": "https://live.staticflickr.com/65535/49712133588_8428f93b8b_o.jpg",
    "id_image": "WomenWarrior_767133",
    "count_view": 0
  },
  {
    "link_thumb": "https://live.staticflickr.com/65535/49711507571_7c3dfec25c_n.jpg",
    "id_album": "850176884",
    "description": "Dragon_692327",
    "title": "Dragon_692327",
    "link_img": "https://live.staticflickr.com/65535/49711507571_22c258f563_o.jpg",
    "id_image": "Dragon_692327",
    "count_view": 0
  },
  {
    "link_thumb": "https://live.staticflickr.com/65535/49711221387_874e3cb5ff_n.jpg",
    "id_album": "-1913845949",
    "description": "Animal_240887",
    "title": "Animal_240887",
    "link_img": "https://live.staticflickr.com/65535/49711221387_74e66fcea9_o.jpg",
    "id_image": "Animal_240887",
    "count_view": 0
  },
  {
    "link_thumb": "https://live.staticflickr.com/65535/49711132363_8c190a8a44_n.jpg",
    "id_album": "-1972042284",
    "description": "Fairy_488473",
    "title": "Fairy_488473",
    "link_img": "https://live.staticflickr.com/65535/49711132363_d1bf881fc1_o.jpg",
    "id_image": "Fairy_488473",
    "count_view": 0
  },
  {
    "link_thumb": "https://live.staticflickr.com/65535/49712595877_b445b4646c_n.jpg",
    "id_album": "-709711865",
    "description": "Wolf_418940",
    "title": "Wolf_418940",
    "link_img": "https://live.staticflickr.com/65535/49712595877_67e47dc2f8_o.jpg",
    "id_image": "Wolf_418940",
    "count_view": 0
  },
  {
    "link_thumb": "https://live.staticflickr.com/65535/49712483371_6f090dcc69_n.jpg",
    "id_album": "-867594484",
    "description": "Women_496563",
    "title": "Women_496563",
    "link_img": "https://live.staticflickr.com/65535/49712483371_83fbfed380_o.jpg",
    "id_image": "Women_496563",
    "count_view": 0
  },
  {
    "link_thumb": "https://live.staticflickr.com/65535/49711362636_3dbc535f6f_n.jpg",
    "id_album": "850176884",
    "description": "Dragon_122316",
    "title": "Dragon_122316",
    "link_img": "https://live.staticflickr.com/65535/49711362636_50ff0e0be2_o.jpg",
    "id_image": "Dragon_122316",
    "count_view": 0
  },
  {
    "link_thumb": "https://live.staticflickr.com/65535/49710879206_0a2c814b5b_n.jpg",
    "id_album": "-1000175186",
    "description": "AngelWarrior_357590",
    "title": "AngelWarrior_357590",
    "link_img": "https://live.staticflickr.com/65535/49710879206_e390442689_o.jpg",
    "id_image": "AngelWarrior_357590",
    "count_view": 0
  }
]