[
  {
    "link_thumb": "https://live.staticflickr.com/65535/49711619456_3eb525afbd_n.jpg",
    "id_album": "134100487",
    "description": "Elf_542971",
    "title": "Elf_542971",
    "link_img": "https://live.staticflickr.com/65535/49711619456_5ac323f40f_o.jpg",
    "id_image": "Elf_542971",
    "count_view": 0
  },
  {
    "link_thumb": "https://live.staticflickr.com/65535/49711934008_2c21165656_n.jpg",
    "id_album": "1861288871",
    "description": "Women_785121",
    "title": "Women_785121",
    "link_img": "https://live.staticflickr.com/65535/49711934008_61bbb31edd_o.jpg",
    "id_image": "Women_785121",
    "count_view": 0
  },
  {
    "link_thumb": "https://live.staticflickr.com/65535/49710619938_2a0ea2a59f_n.jpg",
    "id_album": "-437872736",
    "description": "Creature_189753",
    "title": "Creature_189753",
    "link_img": "https://live.staticflickr.com/65535/49710619938_0386fef492_o.jpg",
    "id_image": "Creature_189753",
    "count_view": 0
  },
  {
    "link_thumb": "https://live.staticflickr.com/65535/49710410113_060014b4b9_n.jpg",
    "id_album": "523598895",
    "description": "Artistic_150283",
    "title": "Artistic_150283",
    "link_img": "https://live.staticflickr.com/65535/49710410113_e46ab70372_o.jpg",
    "id_image": "Artistic_150283",
    "count_view": 0
  },
  {
    "link_thumb": "https://live.staticflickr.com/65535/49711791286_eeabf152c4_n.jpg",
    "id_album": "469960528",
    "description": "Knight_980038",
    "title": "Knight_980038",
    "link_img": "https://live.staticflickr.com/65535/49711791286_30895329e4_o.jpg",
    "id_image": "Knight_980038",
    "count_view": 0
  },
  {
    "link_thumb": "https://live.staticflickr.com/65535/49711907037_634243026b_n.jpg",
    "id_album": "850176884",
    "description": "Dragon_974463",
    "title": "Dragon_974463",
    "link_img": "https://live.staticflickr.com/65535/49711907037_0015d3cb77_o.jpg",
    "id_image": "Dragon_974463",
    "count_view": 0
  },
  {
    "link_thumb": "https://live.staticflickr.com/65535/49710987371_50bf61df92_n.jpg",
    "id_album": "1187037014",
    "description": "Battle_242328",
    "title": "Battle_242328",
    "link_img": "https://live.staticflickr.com/65535/49710987371_09e2d05c8b_o.jpg",
    "id_image": "Battle_242328",
    "count_view": 0
  },
  {
    "link_thumb": "https://live.staticflickr.com/65535/49712544527_9ac7ba68ed_n.jpg",
    "id_album": "-1261420436",
    "description": "Warrior_711463",
    "title": "Warrior_711463",
    "link_img": "https://live.staticflickr.com/65535/49712544527_b316dd60c6_o.jpg",
    "id_image": "Warrior_711463",
    "count_view": 0
  },
  {
    "link_thumb": "https://live.staticflickr.com/65535/49712325717_491d7bf681_n.jpg",
    "id_album": "-1613076477",
    "description": "Magic_457396",
    "title": "Magic_457396",
    "link_img": "https://live.staticflickr.com/65535/49712325717_aa486d76ff_o.jpg",
    "id_image": "Magic_457396",
    "count_view": 0
  },
  {
    "link_thumb": "https://live.staticflickr.com/65535/49710392158_62086f09a1_n.jpg",
    "id_album": "-1913845949",
    "description": "Animal_974620",
    "title": "Animal_974620",
    "link_img": "https://live.staticflickr.com/65535/49710392158_92631c9218_o.jpg",
    "id_image": "Animal_974620",
    "count_view": 0
  },
  {
    "link_thumb": "https://live.staticflickr.com/65535/49711984126_67ef44db31_n.jpg",
    "id_album": "416744915",
    "description": "Lion_787677",
    "title": "Lion_787677",
    "link_img": "https://live.staticflickr.com/65535/49711984126_41645ca26b_o.jpg",
    "id_image": "Lion_787677",
    "count_view": 0
  },
  {
    "link_thumb": "https://live.staticflickr.com/65535/49711984676_6d4633f636_n.jpg",
    "id_album": "416744915",
    "description": "Lion_880053",
    "title": "Lion_880053",
    "link_img": "https://live.staticflickr.com/65535/49711984676_2c1285de13_o.jpg",
    "id_image": "Lion_880053",
    "count_view": 0
  },
  {
    "link_thumb": "https://live.staticflickr.com/65535/49712661577_cfd441c99f_n.jpg",
    "id_album": "-1126835654",
    "description": "Women_931571",
    "title": "Women_931571",
    "link_img": "https://live.staticflickr.com/65535/49712661577_006156c0a6_o.jpg",
    "id_image": "Women_931571",
    "count_view": 0
  },
  {
    "link_thumb": "https://live.staticflickr.com/65535/49712377372_43b7a735ea_n.jpg",
    "id_album": "-1862561193",
    "description": "Other_151303",
    "title": "Other_151303",
    "link_img": "https://live.staticflickr.com/65535/49712377372_2f4a51330e_o.jpg",
    "id_image": "Other_151303",
    "count_view": 0
  },
  {
    "link_thumb": "https://live.staticflickr.com/65535/49710693778_c074a070e2_n.jpg",
    "id_album": "-437872736",
    "description": "Creature_409672",
    "title": "Creature_409672",
    "link_img": "https://live.staticflickr.com/65535/49710693778_7ba4f29c2e_o.jpg",
    "id_image": "Creature_409672",
    "count_view": 0
  },
  {
    "link_thumb": "https://live.staticflickr.com/65535/49711957211_a453487b58_n.jpg",
    "id_album": "-833110404",
    "description": "Landscape_516505",
    "title": "Landscape_516505",
    "link_img": "https://live.staticflickr.com/65535/49711957211_6bda28ebbf_o.jpg",
    "id_image": "Landscape_516505",
    "count_view": 0
  },
  {
    "link_thumb": "https://live.staticflickr.com/65535/49711013518_d5b9cf666d_n.jpg",
    "id_album": "850176884",
    "description": "Dragon_878429",
    "title": "Dragon_878429",
    "link_img": "https://live.staticflickr.com/65535/49711013518_66cd0ff9c8_o.jpg",
    "id_image": "Dragon_878429",
    "count_view": 0
  },
  {
    "link_thumb": "https://live.staticflickr.com/65535/49711878867_ffd3af379a_n.jpg",
    "id_album": "850176884",
    "description": "Dragon_906332",
    "title": "Dragon_906332",
    "link_img": "https://live.staticflickr.com/65535/49711878867_91bf7617ca_o.jpg",
    "id_image": "Dragon_906332",
    "count_view": 0
  },
  {
    "link_thumb": "https://live.staticflickr.com/65535/49711407456_0ccc64864c_n.jpg",
    "id_album": "850176884",
    "description": "Dragon_272510",
    "title": "Dragon_272510",
    "link_img": "https://live.staticflickr.com/65535/49711407456_54b82cb26d_o.jpg",
    "id_image": "Dragon_272510",
    "count_view": 0
  },
  {
    "link_thumb": "https://live.staticflickr.com/65535/49711945333_44904396b4_n.jpg",
    "id_album": "1861288871",
    "description": "Women_830511",
    "title": "Women_830511",
    "link_img": "https://live.staticflickr.com/65535/49711945333_1f54193474_o.jpg",
    "id_image": "Women_830511",
    "count_view": 0
  },
  {
    "link_thumb": "https://live.staticflickr.com/65535/49711135306_00bec92fc6_n.jpg",
    "id_album": "-1964113117",
    "description": "City_964230",
    "title": "City_964230",
    "link_img": "https://live.staticflickr.com/65535/49711135306_fb6622f410_o.jpg",
    "id_image": "City_964230",
    "count_view": 0
  },
  {
    "link_thumb": "https://live.staticflickr.com/65535/49710979921_130c343341_n.jpg",
    "id_album": "523598895",
    "description": "Artistic_774486",
    "title": "Artistic_774486",
    "link_img": "https://live.staticflickr.com/65535/49710979921_b3b00633d0_o.jpg",
    "id_image": "Artistic_774486",
    "count_view": 0
  },
  {
    "link_thumb": "https://live.staticflickr.com/65535/49711732943_34af15a09d_n.jpg",
    "id_album": "-656526651",
    "description": "Wizard_631988",
    "title": "Wizard_631988",
    "link_img": "https://live.staticflickr.com/65535/49711732943_4bf93236fa_o.jpg",
    "id_image": "Wizard_631988",
    "count_view": 0
  },
  {
    "link_thumb": "https://live.staticflickr.com/65535/49712163093_1cfaf2ae08_n.jpg",
    "id_album": "-1675918237",
    "description": "WomenWarrior_900658",
    "title": "WomenWarrior_900658",
    "link_img": "https://live.staticflickr.com/65535/49712163093_837df87618_o.jpg",
    "id_image": "WomenWarrior_900658",
    "count_view": 0
  },
  {
    "link_thumb": "https://live.staticflickr.com/65535/49711033298_44a32862a8_n.jpg",
    "id_album": "850176884",
    "description": "Dragon_922838",
    "title": "Dragon_922838",
    "link_img": "https://live.staticflickr.com/65535/49711033298_36c274ecb4_o.jpg",
    "id_image": "Dragon_922838",
    "count_view": 0
  },
  {
    "link_thumb": "https://live.staticflickr.com/65535/49711998626_e6d58e16cf_n.jpg",
    "id_album": "-1859457952",
    "description": "Love_948130",
    "title": "Love_948130",
    "link_img": "https://live.staticflickr.com/65535/49711998626_e33f791c3a_o.jpg",
    "id_image": "Love_948130",
    "count_view": 0
  },
  {
    "link_thumb": "https://live.staticflickr.com/65535/49712135766_f2cef518e5_n.jpg",
    "id_album": "-395228614",
    "description": "Ship_525240",
    "title": "Ship_525240",
    "link_img": "https://live.staticflickr.com/65535/49712135766_58143fffd2_o.jpg",
    "id_image": "Ship_525240",
    "count_view": 0
  },
  {
    "link_thumb": "https://live.staticflickr.com/65535/49710407603_84ab847ef6_n.jpg",
    "id_album": "523598895",
    "description": "Artistic_121827",
    "title": "Artistic_121827",
    "link_img": "https://live.staticflickr.com/65535/49710407603_2a4508c74e_o.jpg",
    "id_image": "Artistic_121827",
    "count_view": 0
  },
  {
    "link_thumb": "https://live.staticflickr.com/65535/49711877861_3cdde2b540_n.jpg",
    "id_album": "1402713104",
    "description": "Landscape_969682",
    "title": "Landscape_969682",
    "link_img": "https://live.staticflickr.com/65535/49711877861_ff0ce80e7d_o.jpg",
    "id_image": "Landscape_969682",
    "count_view": 0
  },
  {
    "link_thumb": "https://live.staticflickr.com/65535/49711400062_cd00c7603b_n.jpg",
    "id_album": "-1741487325",
    "description": "Cat_995231",
    "title": "Cat_995231",
    "link_img": "https://live.staticflickr.com/65535/49711400062_32aaba9808_o.jpg",
    "id_image": "Cat_995231",
    "count_view": 0
  },
  {
    "link_thumb": "https://live.staticflickr.com/65535/49711003236_74f29b1884_n.jpg",
    "id_album": "1187037014",
    "description": "Battle_587501",
    "title": "Battle_587501",
    "link_img": "https://live.staticflickr.com/65535/49711003236_4d23ca9410_o.jpg",
    "id_image": "Battle_587501",
    "count_view": 0
  },
  {
    "link_thumb": "https://live.staticflickr.com/65535/49711095683_a2a8f81ccd_n.jpg",
    "id_album": "134100487",
    "description": "Elf_705428",
    "title": "Elf_705428",
    "link_img": "https://live.staticflickr.com/65535/49711095683_ea967e88de_o.jpg",
    "id_image": "Elf_705428",
    "count_view": 0
  },
  {
    "link_thumb": "https://live.staticflickr.com/65535/49711358081_c129d85da8_n.jpg",
    "id_album": "850176884",
    "description": "Dragon_118811",
    "title": "Dragon_118811",
    "link_img": "https://live.staticflickr.com/65535/49711358081_cd7b2920d6_o.jpg",
    "id_image": "Dragon_118811",
    "count_view": 0
  },
  {
    "link_thumb": "https://live.staticflickr.com/65535/49711336837_5e72005489_n.jpg",
    "id_album": "1187037014",
    "description": "Battle_914420",
    "title": "Battle_914420",
    "link_img": "https://live.staticflickr.com/65535/49711336837_5c1507cc8e_o.jpg",
    "id_image": "Battle_914420",
    "count_view": 0
  },
  {
    "link_thumb": "https://live.staticflickr.com/65535/49711187607_41d7cce3e8_n.jpg",
    "id_album": "-2109465612",
    "description": "Adventure_245724",
    "title": "Adventure_245724",
    "link_img": "https://live.staticflickr.com/65535/49711187607_c381e914ef_o.jpg",
    "id_image": "Adventure_245724",
    "count_view": 0
  },
  {
    "link_thumb": "https://live.staticflickr.com/65535/49711577956_54cc222f8a_n.jpg",
    "id_album": "850176884",
    "description": "Dragon_958222",
    "title": "Dragon_958222",
    "link_img": "https://live.staticflickr.com/65535/49711577956_fc9eac6ffb_o.jpg",
    "id_image": "Dragon_958222",
    "count_view": 0
  },
  {
    "link_thumb": "https://live.staticflickr.com/65535/49712111367_ac2d9b26b0_n.jpg",
    "id_album": "469960528",
    "description": "Knight_910940",
    "title": "Knight_910940",
    "link_img": "https://live.staticflickr.com/65535/49712111367_995e48caa4_o.jpg",
    "id_image": "Knight_910940",
    "count_view": 0
  },
  {
    "link_thumb": "https://live.staticflickr.com/65535/49711664373_d263283ca7_n.jpg",
    "id_album": "-1261420436",
    "description": "Warrior_203126",
    "title": "Warrior_203126",
    "link_img": "https://live.staticflickr.com/65535/49711664373_35b26b7b5a_o.jpg",
    "id_image": "Warrior_203126",
    "count_view": 0
  },
  {
    "link_thumb": "https://live.staticflickr.com/65535/49711742923_fffce333d6_n.jpg",
    "id_album": "-709711865",
    "description": "Wolf_558910",
    "title": "Wolf_558910",
    "link_img": "https://live.staticflickr.com/65535/49711742923_3cc32d8a18_o.jpg",
    "id_image": "Wolf_558910",
    "count_view": 0
  },
  {
    "link_thumb": "https://live.staticflickr.com/65535/49711291887_f805776a1c_n.jpg",
    "id_album": "523598895",
    "description": "Artistic_433896",
    "title": "Artistic_433896",
    "link_img": "https://live.staticflickr.com/65535/49711291887_e7e8187c18_o.jpg",
    "id_image": "Artistic_433896",
    "count_view": 0
  },
  {
    "link_thumb": "https://live.staticflickr.com/65535/49711842181_528e323558_n.jpg",
    "id_album": "1402713104",
    "description": "Landscape_868401",
    "title": "Landscape_868401",
    "link_img": "https://live.staticflickr.com/65535/49711842181_6eebf79482_o.jpg",
    "id_image": "Landscape_868401",
    "count_view": 0
  },
  {
    "link_thumb": "https://live.staticflickr.com/65535/49711580981_cb1b39ae9f_n.jpg",
    "id_album": "850176884",
    "description": "Dragon_96628",
    "title": "Dragon_96628",
    "link_img": "https://live.staticflickr.com/65535/49711580981_ecda80b060_o.jpg",
    "id_image": "Dragon_96628",
    "count_view": 0
  },
  {
    "link_thumb": "https://live.staticflickr.com/65535/49711805017_f6e0565523_n.jpg",
    "id_album": "850176884",
    "description": "Dragon_563393",
    "title": "Dragon_563393",
    "link_img": "https://live.staticflickr.com/65535/49711805017_7dd28282c6_o.jpg",
    "id_image": "Dragon_563393",
    "count_view": 0
  },
  {
    "link_thumb": "https://live.staticflickr.com/65535/49710813628_86c8100942_n.jpg",
    "id_album": "850176884",
    "description": "DRAGON26101916500129",
    "title": "DRAGON26101916500129",
    "link_img": "https://live.staticflickr.com/65535/49710813628_3d9e44ac00_o.jpg",
    "id_image": "DRAGON26101916500129",
    "count_view": 0
  },
  {
    "link_thumb": "https://live.staticflickr.com/65535/49711936533_e9c74e3418_n.jpg",
    "id_album": "1861288871",
    "description": "Women_789298",
    "title": "Women_789298",
    "link_img": "https://live.staticflickr.com/65535/49711936533_f82ef1f314_o.jpg",
    "id_image": "Women_789298",
    "count_view": 0
  },
  {
    "link_thumb": "https://live.staticflickr.com/65535/49711330707_d9b84d98b7_n.jpg",
    "id_album": "1187037014",
    "description": "Battle_686771",
    "title": "Battle_686771",
    "link_img": "https://live.staticflickr.com/65535/49711330707_cc80b20d90_o.jpg",
    "id_image": "Battle_686771",
    "count_view": 0
  },
  {
    "link_thumb": "https://live.staticflickr.com/65535/49712379067_a946952eab_n.jpg",
    "id_album": "-1862561193",
    "description": "Other_237002",
    "title": "Other_237002",
    "link_img": "https://live.staticflickr.com/65535/49712379067_d32d929fee_o.jpg",
    "id_image": "Other_237002",
    "count_view": 0
  },
  {
    "link_thumb": "https://live.staticflickr.com/65535/49711765597_d4c5e4f12a_n.jpg",
    "id_album": "850176884",
    "description": "Dragon_421417",
    "title": "Dragon_421417",
    "link_img": "https://live.staticflickr.com/65535/49711765597_24930a3a08_o.jpg",
    "id_image": "Dragon_421417",
    "count_view": 0
  },
  {
    "link_thumb": "https://live.staticflickr.com/65535/49712831492_2173234c4d_n.jpg",
    "id_album": "-867594484",
    "description": "Women_564483",
    "title": "Women_564483",
    "link_img": "https://live.staticflickr.com/65535/49712831492_1d6801f019_o.jpg",
    "id_image": "Women_564483",
    "count_view": 0
  },
  {
    "link_thumb": "https://live.staticflickr.com/65535/49712163791_455f5b3240_n.jpg",
    "id_album": "405170427",
    "description": "Tiger_709890",
    "title": "Tiger_709890",
    "link_img": "https://live.staticflickr.com/65535/49712163791_689e879a20_o.jpg",
    "id_image": "Tiger_709890",
    "count_view": 0
  },
  {
    "link_thumb": "https://live.staticflickr.com/65535/49711422733_7ac24d4965_n.jpg",
    "id_album": "-833110404",
    "description": "Landscape_516512",
    "title": "Landscape_516512",
    "link_img": "https://live.staticflickr.com/65535/49711422733_9c0fab6f6d_o.jpg",
    "id_image": "Landscape_516512",
    "count_view": 0
  },
  {
    "link_thumb": "https://live.staticflickr.com/65535/49711263376_32c93beae6_n.jpg",
    "id_album": "-437872736",
    "description": "Creature_711415",
    "title": "Creature_711415",
    "link_img": "https://live.staticflickr.com/65535/49711263376_f04a32cb03_o.jpg",
    "id_image": "Creature_711415",
    "count_view": 0
  },
  {
    "link_thumb": "https://live.staticflickr.com/65535/49712416966_36afcdd895_n.jpg",
    "id_album": "295204930",
    "description": "Women_728488",
    "title": "Women_728488",
    "link_img": "https://live.staticflickr.com/65535/49712416966_c637d50f69_o.jpg",
    "id_image": "Women_728488",
    "count_view": 0
  },
  {
    "link_thumb": "https://live.staticflickr.com/65535/49711290026_5a35df7b3f_n.jpg",
    "id_album": "-437872736",
    "description": "Creature_958719",
    "title": "Creature_958719",
    "link_img": "https://live.staticflickr.com/65535/49711290026_9121ab4614_o.jpg",
    "id_image": "Creature_958719",
    "count_view": 0
  },
  {
    "link_thumb": "https://live.staticflickr.com/65535/49711795833_ea37ac24e6_n.jpg",
    "id_album": "-1126835654",
    "description": "Women_889345",
    "title": "Women_889345",
    "link_img": "https://live.staticflickr.com/65535/49711795833_4bfe810cfe_o.jpg",
    "id_image": "Women_889345",
    "count_view": 0
  },
  {
    "link_thumb": "https://live.staticflickr.com/65535/49712869967_f568a9e626_n.jpg",
    "id_album": "-1675918237",
    "description": "WomenWarrior_246585",
    "title": "WomenWarrior_246585",
    "link_img": "https://live.staticflickr.com/65535/49712869967_51608295ef_o.jpg",
    "id_image": "WomenWarrior_246585",
    "count_view": 0
  },
  {
    "link_thumb": "https://live.staticflickr.com/65535/49711743232_4820c07095_n.jpg",
    "id_album": "850176884",
    "description": "Dragon_325374",
    "title": "Dragon_325374",
    "link_img": "https://live.staticflickr.com/65535/49711743232_c1ef4312e3_o.jpg",
    "id_image": "Dragon_325374",
    "count_view": 0
  },
  {
    "link_thumb": "https://live.staticflickr.com/65535/49710436073_3ee2833650_n.jpg",
    "id_album": "523598895",
    "description": "Artistic_487166",
    "title": "Artistic_487166",
    "link_img": "https://live.staticflickr.com/65535/49710436073_293f990cb7_o.jpg",
    "id_image": "Artistic_487166",
    "count_view": 0
  },
  {
    "link_thumb": "https://live.staticflickr.com/65535/49711559118_f564742de7_n.jpg",
    "id_album": "1223576123",
    "description": "Ruin_372777",
    "title": "Ruin_372777",
    "link_img": "https://live.staticflickr.com/65535/49711559118_8fed02fb69_o.jpg",
    "id_image": "Ruin_372777",
    "count_view": 0
  },
  {
    "link_thumb": "https://live.staticflickr.com/65535/49711828131_5d406e3583_n.jpg",
    "id_album": "1402713104",
    "description": "Landscape_857602",
    "title": "Landscape_857602",
    "link_img": "https://live.staticflickr.com/65535/49711828131_febf830433_o.jpg",
    "id_image": "Landscape_857602",
    "count_view": 0
  },
  {
    "link_thumb": "https://live.staticflickr.com/65535/49711115333_c293de0f2e_n.jpg",
    "id_album": "-1972042284",
    "description": "Fairy_229244",
    "title": "Fairy_229244",
    "link_img": "https://live.staticflickr.com/65535/49711115333_08579c4a9f_o.jpg",
    "id_image": "Fairy_229244",
    "count_view": 0
  },
  {
    "link_thumb": "https://live.staticflickr.com/65535/49712050618_3282450642_n.jpg",
    "id_album": "-1675918237",
    "description": "WomenWarrior_331570",
    "title": "WomenWarrior_331570",
    "link_img": "https://live.staticflickr.com/65535/49712050618_e4f07af58f_o.jpg",
    "id_image": "WomenWarrior_331570",
    "count_view": 0
  },
  {
    "link_thumb": "https://live.staticflickr.com/65535/49712223777_9ae58be7c7_n.jpg",
    "id_album": "-833110404",
    "description": "Landscape_252652",
    "title": "Landscape_252652",
    "link_img": "https://live.staticflickr.com/65535/49712223777_b7ff0d9ed9_o.jpg",
    "id_image": "Landscape_252652",
    "count_view": 0
  },
  {
    "link_thumb": "https://live.staticflickr.com/65535/49711124006_d2e2e6bc45_n.jpg",
    "id_album": "-1964113117",
    "description": "City_869805",
    "title": "City_869805",
    "link_img": "https://live.staticflickr.com/65535/49711124006_3a29028613_o.jpg",
    "id_image": "City_869805",
    "count_view": 0
  },
  {
    "link_thumb": "https://live.staticflickr.com/65535/49711351096_6afdca2ace_n.jpg",
    "id_album": "850176884",
    "description": "DRAGON26101916502160",
    "title": "DRAGON26101916502160",
    "link_img": "https://live.staticflickr.com/65535/49711351096_4f54427346_o.jpg",
    "id_image": "DRAGON26101916502160",
    "count_view": 0
  },
  {
    "link_thumb": "https://live.staticflickr.com/65535/49711749228_25425b357a_n.jpg",
    "id_album": "-709711865",
    "description": "Wolf_655550",
    "title": "Wolf_655550",
    "link_img": "https://live.staticflickr.com/65535/49711749228_f1679b7f9b_o.jpg",
    "id_image": "Wolf_655550",
    "count_view": 0
  },
  {
    "link_thumb": "https://live.staticflickr.com/65535/49713020322_79a3bc8fc3_n.jpg",
    "id_album": "-1675918237",
    "description": "WomenWarrior_897440",
    "title": "WomenWarrior_897440",
    "link_img": "https://live.staticflickr.com/65535/49713020322_44b529de2f_o.jpg",
    "id_image": "WomenWarrior_897440",
    "count_view": 0
  },
  {
    "link_thumb": "https://live.staticflickr.com/65535/49711057221_725c2bcce0_n.jpg",
    "id_album": "-1541846310",
    "description": "Castle_777017",
    "title": "Castle_777017",
    "link_img": "https://live.staticflickr.com/65535/49711057221_4535d3ecde_o.jpg",
    "id_image": "Castle_777017",
    "count_view": 0
  },
  {
    "link_thumb": "https://live.staticflickr.com/65535/49711658923_61920189af_n.jpg",
    "id_album": "19263973",
    "description": "Viking_996988",
    "title": "Viking_996988",
    "link_img": "https://live.staticflickr.com/65535/49711658923_d572c6306e_o.jpg",
    "id_image": "Viking_996988",
    "count_view": 0
  },
  {
    "link_thumb": "https://live.staticflickr.com/65535/49710878583_e5e6371e65_n.jpg",
    "id_album": "850176884",
    "description": "Dragon_309288",
    "title": "Dragon_309288",
    "link_img": "https://live.staticflickr.com/65535/49710878583_e7ab11327b_o.jpg",
    "id_image": "Dragon_309288",
    "count_view": 0
  },
  {
    "link_thumb": "https://live.staticflickr.com/65535/49712005243_bea2970b1f_n.jpg",
    "id_album": "-867594484",
    "description": "Women_694478",
    "title": "Women_694478",
    "link_img": "https://live.staticflickr.com/65535/49712005243_a0c344e877_o.jpg",
    "id_image": "Women_694478",
    "count_view": 0
  },
  {
    "link_thumb": "https://live.staticflickr.com/65535/49712210517_b4e42de7e9_n.jpg",
    "id_album": "-833110404",
    "description": "Landscape_112449",
    "title": "Landscape_112449",
    "link_img": "https://live.staticflickr.com/65535/49712210517_1a588d4a38_o.jpg",
    "id_image": "Landscape_112449",
    "count_view": 0
  },
  {
    "link_thumb": "https://live.staticflickr.com/65535/49987742132_4d1a5577f6_n.jpg",
    "id_album": "-1703946758",
    "description": "ANIME_PIC_02e15c7b2f1d09ff991bada89a50ac3a",
    "title": "ANIME_PIC_02e15c7b2f1d09ff991bada89a50ac3a",
    "link_img": "https://live.staticflickr.com/65535/49987742132_f1c52b25a8_o.jpg",
    "id_image": "ANIME_PIC_02e15c7b2f1d09ff991bada89a50ac3a",
    "count_view": 0
  },
  {
    "link_thumb": "https://live.staticflickr.com/65535/49711417163_857b439dd3_n.jpg",
    "id_album": "-833110404",
    "description": "Landscape_493116",
    "title": "Landscape_493116",
    "link_img": "https://live.staticflickr.com/65535/49711417163_79d995e584_o.jpg",
    "id_image": "Landscape_493116",
    "count_view": 0
  },
  {
    "link_thumb": "https://live.staticflickr.com/65535/49711797082_82aca25c23_n.jpg",
    "id_album": "850176884",
    "description": "Dragon_534636",
    "title": "Dragon_534636",
    "link_img": "https://live.staticflickr.com/65535/49711797082_1b3c495d06_o.jpg",
    "id_image": "Dragon_534636",
    "count_view": 0
  },
  {
    "link_thumb": "https://live.staticflickr.com/65535/49712032751_2dface43c3_n.jpg",
    "id_album": "-14582214",
    "description": "Ocean_335223",
    "title": "Ocean_335223",
    "link_img": "https://live.staticflickr.com/65535/49712032751_28eef3855a_o.jpg",
    "id_image": "Ocean_335223",
    "count_view": 0
  },
  {
    "link_thumb": "https://live.staticflickr.com/65535/49711112158_7f60623036_n.jpg",
    "id_album": "-1972042284",
    "description": "Fairy_154167",
    "title": "Fairy_154167",
    "link_img": "https://live.staticflickr.com/65535/49711112158_0e420195af_o.jpg",
    "id_image": "Fairy_154167",
    "count_view": 0
  },
  {
    "link_thumb": "https://live.staticflickr.com/65535/49711437582_2b3c0c9f37_n.jpg",
    "id_album": "-1964113117",
    "description": "City_699815",
    "title": "City_699815",
    "link_img": "https://live.staticflickr.com/65535/49711437582_e4dff7c8aa_o.jpg",
    "id_image": "City_699815",
    "count_view": 0
  },
  {
    "link_thumb": "https://live.staticflickr.com/65535/49710856773_c2f7570d4b_n.jpg",
    "id_album": "850176884",
    "description": "Dragon_236499",
    "title": "Dragon_236499",
    "link_img": "https://live.staticflickr.com/65535/49710856773_a9d66841a5_o.jpg",
    "id_image": "Dragon_236499",
    "count_view": 0
  },
  {
    "link_thumb": "https://live.staticflickr.com/65535/49710340413_cbd52a6a9b_n.jpg",
    "id_album": "-1000175186",
    "description": "AngelWarrior_151974",
    "title": "AngelWarrior_151974",
    "link_img": "https://live.staticflickr.com/65535/49710340413_b8d3425789_o.jpg",
    "id_image": "AngelWarrior_151974",
    "count_view": 0
  },
  {
    "link_thumb": "https://live.staticflickr.com/65535/49710327348_52ebaab0fc_n.jpg",
    "id_album": "-2109465612",
    "description": "Adventure_239360",
    "title": "Adventure_239360",
    "link_img": "https://live.staticflickr.com/65535/49710327348_681ff4dd81_o.jpg",
    "id_image": "Adventure_239360",
    "count_view": 0
  },
  {
    "link_thumb": "https://live.staticflickr.com/65535/49712162903_a9f29bb725_n.jpg",
    "id_album": "-1675918237",
    "description": "WomenWarrior_900326",
    "title": "WomenWarrior_900326",
    "link_img": "https://live.staticflickr.com/65535/49712162903_7e4a0f4d79_o.jpg",
    "id_image": "WomenWarrior_900326",
    "count_view": 0
  },
  {
    "link_thumb": "https://live.staticflickr.com/65535/49711897963_ede3c1ee0b_n.jpg",
    "id_album": "1861288871",
    "description": "Women_208868",
    "title": "Women_208868",
    "link_img": "https://live.staticflickr.com/65535/49711897963_4c314e6cf4_o.jpg",
    "id_image": "Women_208868",
    "count_view": 0
  },
  {
    "link_thumb": "https://live.staticflickr.com/65535/49711760997_e28ebddfe2_n.jpg",
    "id_album": "850176884",
    "description": "Dragon_391103",
    "title": "Dragon_391103",
    "link_img": "https://live.staticflickr.com/65535/49711760997_9f963f7a32_o.jpg",
    "id_image": "Dragon_391103",
    "count_view": 0
  },
  {
    "link_thumb": "https://live.staticflickr.com/65535/49711979578_44300aa648_n.jpg",
    "id_album": "-867594484",
    "description": "Women_581998",
    "title": "Women_581998",
    "link_img": "https://live.staticflickr.com/65535/49711979578_186207d70a_o.jpg",
    "id_image": "Women_581998",
    "count_view": 0
  },
  {
    "link_thumb": "https://live.staticflickr.com/65535/49711739971_9605aab64e_n.jpg",
    "id_album": "402434752",
    "description": "Giant_987361",
    "title": "Giant_987361",
    "link_img": "https://live.staticflickr.com/65535/49711739971_c5f5d6e59a_o.jpg",
    "id_image": "Giant_987361",
    "count_view": 0
  },
  {
    "link_thumb": "https://live.staticflickr.com/65535/49711284147_69cfa9c987_n.jpg",
    "id_album": "523598895",
    "description": "Artistic_312408",
    "title": "Artistic_312408",
    "link_img": "https://live.staticflickr.com/65535/49711284147_326835e7da_o.jpg",
    "id_image": "Artistic_312408",
    "count_view": 0
  },
  {
    "link_thumb": "https://live.staticflickr.com/65535/49712378162_923f446d63_n.jpg",
    "id_album": "-1862561193",
    "description": "Other_176506",
    "title": "Other_176506",
    "link_img": "https://live.staticflickr.com/65535/49712378162_22d514062b_o.jpg",
    "id_image": "Other_176506",
    "count_view": 0
  },
  {
    "link_thumb": "https://live.staticflickr.com/65535/49799117512_091361ab13_n.jpg",
    "id_album": "-1703946758",
    "description": "ANIME_PIC_32b5ff757f9e30710bbbece5b00a8ccf",
    "title": "ANIME_PIC_32b5ff757f9e30710bbbece5b00a8ccf",
    "link_img": "https://live.staticflickr.com/65535/49799117512_e85ee42f24_o.jpg",
    "id_image": "ANIME_PIC_32b5ff757f9e30710bbbece5b00a8ccf",
    "count_view": 0
  },
  {
    "link_thumb": "https://live.staticflickr.com/65535/49711327116_c2e3d22eba_n.jpg",
    "id_album": "1903411565",
    "description": "Deer_642274",
    "title": "Deer_642274",
    "link_img": "https://live.staticflickr.com/65535/49711327116_7a6d53c007_o.jpg",
    "id_image": "Deer_642274",
    "count_view": 0
  },
  {
    "link_thumb": "https://live.staticflickr.com/65535/49711052673_9fd361bb2e_n.jpg",
    "id_album": "850176884",
    "description": "Dragon_979756",
    "title": "Dragon_979756",
    "link_img": "https://live.staticflickr.com/65535/49711052673_6de6035293_o.jpg",
    "id_image": "Dragon_979756",
    "count_view": 0
  },
  {
    "link_thumb": "https://live.staticflickr.com/65535/49711311486_73b0d59427_n.jpg",
    "id_album": "2021464556",
    "description": "Dark_101613",
    "title": "Dark_101613",
    "link_img": "https://live.staticflickr.com/65535/49711311486_c6f2d9dafa_o.jpg",
    "id_image": "Dark_101613",
    "count_view": 0
  },
  {
    "link_thumb": "https://live.staticflickr.com/65535/49711499652_3c70c529a4_n.jpg",
    "id_album": "-437872736",
    "description": "Creature_275462",
    "title": "Creature_275462",
    "link_img": "https://live.staticflickr.com/65535/49711499652_2a0846eaff_o.jpg",
    "id_image": "Creature_275462",
    "count_view": 0
  },
  {
    "link_thumb": "https://live.staticflickr.com/65535/49711880062_4e39e1d952_n.jpg",
    "id_album": "850176884",
    "description": "Dragon_907916",
    "title": "Dragon_907916",
    "link_img": "https://live.staticflickr.com/65535/49711880062_f81cd50f29_o.jpg",
    "id_image": "Dragon_907916",
    "count_view": 0
  },
  {
    "link_thumb": "https://live.staticflickr.com/65535/49711463402_63480fb29b_n.jpg",
    "id_album": "-437872736",
    "description": "Creature_112761",
    "title": "Creature_112761",
    "link_img": "https://live.staticflickr.com/65535/49711463402_59d9549b44_o.jpg",
    "id_image": "Creature_112761",
    "count_view": 0
  },
  {
    "link_thumb": "https://live.staticflickr.com/65535/49711047363_54bb860198_n.jpg",
    "id_album": "850176884",
    "description": "Dragon_968288",
    "title": "Dragon_968288",
    "link_img": "https://live.staticflickr.com/65535/49711047363_9c1906b14a_o.jpg",
    "id_image": "Dragon_968288",
    "count_view": 0
  },
  {
    "link_thumb": "https://live.staticflickr.com/65535/49711872776_a64c4ebb49_n.jpg",
    "id_album": "1402713104",
    "description": "Landscape_957073",
    "title": "Landscape_957073",
    "link_img": "https://live.staticflickr.com/65535/49711872776_df9d48d076_o.jpg",
    "id_image": "Landscape_957073",
    "count_view": 0
  },
  {
    "link_thumb": "https://live.staticflickr.com/65535/49711867143_d5e1b8c148_n.jpg",
    "id_album": "295204930",
    "description": "Women_461858",
    "title": "Women_461858",
    "link_img": "https://live.staticflickr.com/65535/49711867143_a83fa98139_o.jpg",
    "id_image": "Women_461858",
    "count_view": 0
  },
  {
    "link_thumb": "https://live.staticflickr.com/65535/49711327876_3c04b3cf8e_n.jpg",
    "id_album": "1903411565",
    "description": "Deer_855296",
    "title": "Deer_855296",
    "link_img": "https://live.staticflickr.com/65535/49711327876_6b9e6d8b51_o.jpg",
    "id_image": "Deer_855296",
    "count_view": 0
  },
  {
    "link_thumb": "https://live.staticflickr.com/65535/49711077196_364ae8d74d_n.jpg",
    "id_album": "430704260",
    "description": "Child_566148",
    "title": "Child_566148",
    "link_img": "https://live.staticflickr.com/65535/49711077196_c8a27696c4_o.jpg",
    "id_image": "Child_566148",
    "count_view": 0
  },
  {
    "link_thumb": "https://live.staticflickr.com/65535/49710739223_cee772409a_n.jpg",
    "id_album": "-437872736",
    "description": "Creature_925015",
    "title": "Creature_925015",
    "link_img": "https://live.staticflickr.com/65535/49710739223_57073b58ac_o.jpg",
    "id_image": "Creature_925015",
    "count_view": 0
  },
  {
    "link_thumb": "https://live.staticflickr.com/65535/49710484558_eb238882ff_n.jpg",
    "id_album": "-1846011410",
    "description": "Bird_852177",
    "title": "Bird_852177",
    "link_img": "https://live.staticflickr.com/65535/49710484558_82b271c6cd_o.jpg",
    "id_image": "Bird_852177",
    "count_view": 0
  },
  {
    "link_thumb": "https://live.staticflickr.com/65535/49711901142_921361c08c_n.jpg",
    "id_album": "850176884",
    "description": "Dragon_958580",
    "title": "Dragon_958580",
    "link_img": "https://live.staticflickr.com/65535/49711901142_a4f556ff0e_o.jpg",
    "id_image": "Dragon_958580",
    "count_view": 0
  },
  {
    "link_thumb": "https://live.staticflickr.com/65535/49711262956_7a5386a72f_n.jpg",
    "id_album": "-437872736",
    "description": "Creature_706866",
    "title": "Creature_706866",
    "link_img": "https://live.staticflickr.com/65535/49711262956_e0e17fbddc_o.jpg",
    "id_image": "Creature_706866",
    "count_view": 0
  },
  {
    "link_thumb": "https://live.staticflickr.com/65535/49711771801_4e79d3be14_n.jpg",
    "id_album": "1957967226",
    "description": "House_864731",
    "title": "House_864731",
    "link_img": "https://live.staticflickr.com/65535/49711771801_2d28b9dc71_o.jpg",
    "id_image": "House_864731",
    "count_view": 0
  },
  {
    "link_thumb": "https://live.staticflickr.com/65535/49711870197_f1517a9a4c_n.jpg",
    "id_album": "850176884",
    "description": "Dragon_878306",
    "title": "Dragon_878306",
    "link_img": "https://live.staticflickr.com/65535/49711870197_29a55554e1_o.jpg",
    "id_image": "Dragon_878306",
    "count_view": 0
  },
  {
    "link_thumb": "https://live.staticflickr.com/65535/49712113112_5674986aa6_n.jpg",
    "id_album": "469960528",
    "description": "Knight_951671",
    "title": "Knight_951671",
    "link_img": "https://live.staticflickr.com/65535/49712113112_63d8290602_o.jpg",
    "id_image": "Knight_951671",
    "count_view": 0
  },
  {
    "link_thumb": "https://live.staticflickr.com/65535/49712179536_7bb783f6c6_n.jpg",
    "id_album": "431597977",
    "description": "Unicorn_448922",
    "title": "Unicorn_448922",
    "link_img": "https://live.staticflickr.com/65535/49712179536_808070d6c1_o.jpg",
    "id_image": "Unicorn_448922",
    "count_view": 0
  },
  {
    "link_thumb": "https://live.staticflickr.com/65535/49711475477_1e1fba587a_n.jpg",
    "id_album": "-437872736",
    "description": "Creature_167491",
    "title": "Creature_167491",
    "link_img": "https://live.staticflickr.com/65535/49711475477_f70733cee3_o.jpg",
    "id_image": "Creature_167491",
    "count_view": 0
  },
  {
    "link_thumb": "https://live.staticflickr.com/65535/49712499141_a835c6e6fe_n.jpg",
    "id_album": "-867594484",
    "description": "Women_528451",
    "title": "Women_528451",
    "link_img": "https://live.staticflickr.com/65535/49712499141_2d9602799f_o.jpg",
    "id_image": "Women_528451",
    "count_view": 0
  },
  {
    "link_thumb": "https://live.staticflickr.com/65535/49711536006_4b33db2d08_n.jpg",
    "id_album": "850176884",
    "description": "Dragon_857303",
    "title": "Dragon_857303",
    "link_img": "https://live.staticflickr.com/65535/49711536006_904d614ddc_o.jpg",
    "id_image": "Dragon_857303",
    "count_view": 0
  },
  {
    "link_thumb": "https://live.staticflickr.com/65535/49712384102_4727594664_n.jpg",
    "id_album": "-639976841",
    "description": "Pegasus_245919",
    "title": "Pegasus_245919",
    "link_img": "https://live.staticflickr.com/65535/49712384102_b8f82e1432_o.jpg",
    "id_image": "Pegasus_245919",
    "count_view": 0
  },
  {
    "link_thumb": "https://live.staticflickr.com/65535/49710944383_65e5fc360b_n.jpg",
    "id_album": "850176884",
    "description": "Dragon_556566",
    "title": "Dragon_556566",
    "link_img": "https://live.staticflickr.com/65535/49710944383_e0bb37e9da_o.jpg",
    "id_image": "Dragon_556566",
    "count_view": 0
  },
  {
    "link_thumb": "https://live.staticflickr.com/65535/49712332612_1c0e6dc5ea_n.jpg",
    "id_album": "-447542718",
    "description": "Medusa_492033",
    "title": "Medusa_492033",
    "link_img": "https://live.staticflickr.com/65535/49712332612_1fbfe1f1f3_o.jpg",
    "id_image": "Medusa_492033",
    "count_view": 0
  },
  {
    "link_thumb": "https://live.staticflickr.com/65535/49711560628_922cfc7bb5_n.jpg",
    "id_album": "1223576123",
    "description": "Ruin_681132",
    "title": "Ruin_681132",
    "link_img": "https://live.staticflickr.com/65535/49711560628_2ce840fc8f_o.jpg",
    "id_image": "Ruin_681132",
    "count_view": 0
  },
  {
    "link_thumb": "https://live.staticflickr.com/65535/49711867546_fe101556c4_n.jpg",
    "id_album": "1402713104",
    "description": "Landscape_949175",
    "title": "Landscape_949175",
    "link_img": "https://live.staticflickr.com/65535/49711867546_eb1ae174b2_o.jpg",
    "id_image": "Landscape_949175",
    "count_view": 0
  },
  {
    "link_thumb": "https://live.staticflickr.com/65535/49712591617_0208b8a24c_n.jpg",
    "id_album": "-709711865",
    "description": "Wolf_112379",
    "title": "Wolf_112379",
    "link_img": "https://live.staticflickr.com/65535/49712591617_7051c6c6bf_o.jpg",
    "id_image": "Wolf_112379",
    "count_view": 0
  },
  {
    "link_thumb": "https://live.staticflickr.com/65535/49711514906_797eda146a_n.jpg",
    "id_album": "850176884",
    "description": "Dragon_720209",
    "title": "Dragon_720209",
    "link_img": "https://live.staticflickr.com/65535/49711514906_df37745740_o.jpg",
    "id_image": "Dragon_720209",
    "count_view": 0
  },
  {
    "link_thumb": "https://live.staticflickr.com/65535/49713025327_22715ff238_n.jpg",
    "id_album": "-1675918237",
    "description": "WomenWarrior_932550",
    "title": "WomenWarrior_932550",
    "link_img": "https://live.staticflickr.com/65535/49713025327_0e473d25dd_o.jpg",
    "id_image": "WomenWarrior_932550",
    "count_view": 0
  },
  {
    "link_thumb": "https://live.staticflickr.com/65535/49711851087_721d2f17c2_n.jpg",
    "id_album": "850176884",
    "description": "Dragon_803330",
    "title": "Dragon_803330",
    "link_img": "https://live.staticflickr.com/65535/49711851087_e64cff5770_o.jpg",
    "id_image": "Dragon_803330",
    "count_view": 0
  },
  {
    "link_thumb": "https://live.staticflickr.com/65535/49710428373_e02e4fe34d_n.jpg",
    "id_album": "523598895",
    "description": "Artistic_343805",
    "title": "Artistic_343805",
    "link_img": "https://live.staticflickr.com/65535/49710428373_5e9e9bcd01_o.jpg",
    "id_image": "Artistic_343805",
    "count_view": 0
  },
  {
    "link_thumb": "https://live.staticflickr.com/65535/49711339362_90a0c68a9a_n.jpg",
    "id_album": "-1846011410",
    "description": "Bird_243754",
    "title": "Bird_243754",
    "link_img": "https://live.staticflickr.com/65535/49711339362_544232c0e3_o.jpg",
    "id_image": "Bird_243754",
    "count_view": 0
  },
  {
    "link_thumb": "https://live.staticflickr.com/65535/49710465418_3c0793bc0f_n.jpg",
    "id_album": "1187037014",
    "description": "Battle_399158",
    "title": "Battle_399158",
    "link_img": "https://live.staticflickr.com/65535/49710465418_40eccb124b_o.jpg",
    "id_image": "Battle_399158",
    "count_view": 0
  },
  {
    "link_thumb": "https://live.staticflickr.com/65535/49711856586_f32da3cbe6_n.jpg",
    "id_album": "1402713104",
    "description": "Landscape_915566",
    "title": "Landscape_915566",
    "link_img": "https://live.staticflickr.com/65535/49711856586_a930cb6685_o.jpg",
    "id_image": "Landscape_915566",
    "count_view": 0
  },
  {
    "link_thumb": "https://live.staticflickr.com/65535/49711799568_ab91bc706c_n.jpg",
    "id_album": "-1126835654",
    "description": "Women_904405",
    "title": "Women_904405",
    "link_img": "https://live.staticflickr.com/65535/49711799568_c5ac3becb7_o.jpg",
    "id_image": "Women_904405",
    "count_view": 0
  },
  {
    "link_thumb": "https://live.staticflickr.com/65535/49712509441_2b5ef7c0bb_n.jpg",
    "id_album": "-867594484",
    "description": "Women_567066",
    "title": "Women_567066",
    "link_img": "https://live.staticflickr.com/65535/49712509441_1367f7c067_o.jpg",
    "id_image": "Women_567066",
    "count_view": 0
  },
  {
    "link_thumb": "https://live.staticflickr.com/65535/49711651448_2547bb9df2_n.jpg",
    "id_album": "431597977",
    "description": "Unicorn_993677",
    "title": "Unicorn_993677",
    "link_img": "https://live.staticflickr.com/65535/49711651448_f4dd99e039_o.jpg",
    "id_image": "Unicorn_993677",
    "count_view": 0
  },
  {
    "link_thumb": "https://live.staticflickr.com/65535/49711357358_1a870e3c45_n.jpg",
    "id_album": "-833110404",
    "description": "Landscape_204570",
    "title": "Landscape_204570",
    "link_img": "https://live.staticflickr.com/65535/49711357358_f6bc566866_o.jpg",
    "id_image": "Landscape_204570",
    "count_view": 0
  },
  {
    "link_thumb": "https://live.staticflickr.com/65535/49711901011_48aa851c64_n.jpg",
    "id_album": "-833110404",
    "description": "Landscape_263163",
    "title": "Landscape_263163",
    "link_img": "https://live.staticflickr.com/65535/49711901011_d15cfd2e35_o.jpg",
    "id_image": "Landscape_263163",
    "count_view": 0
  },
  {
    "link_thumb": "https://live.staticflickr.com/65535/49710345718_27453f2624_n.jpg",
    "id_album": "-1000175186",
    "description": "AngelWarrior_430215",
    "title": "AngelWarrior_430215",
    "link_img": "https://live.staticflickr.com/65535/49710345718_c2d9f9cb9f_o.jpg",
    "id_image": "AngelWarrior_430215",
    "count_view": 0
  },
  {
    "link_thumb": "https://live.staticflickr.com/65535/49711782608_c37cded4bb_n.jpg",
    "id_album": "-1126835654",
    "description": "Women_875501",
    "title": "Women_875501",
    "link_img": "https://live.staticflickr.com/65535/49711782608_7782410d19_o.jpg",
    "id_image": "Women_875501",
    "count_view": 0
  },
  {
    "link_thumb": "https://live.staticflickr.com/65535/49710388998_52292c408b_n.jpg",
    "id_album": "-1913845949",
    "description": "Animal_928191",
    "title": "Animal_928191",
    "link_img": "https://live.staticflickr.com/65535/49710388998_a975857902_o.jpg",
    "id_image": "Animal_928191",
    "count_view": 0
  },
  {
    "link_thumb": "https://live.staticflickr.com/65535/49711597723_1d9c711fd3_n.jpg",
    "id_album": "-395228614",
    "description": "Ship_309767",
    "title": "Ship_309767",
    "link_img": "https://live.staticflickr.com/65535/49711597723_ece266a52f_o.jpg",
    "id_image": "Ship_309767",
    "count_view": 0
  },
  {
    "link_thumb": "https://live.staticflickr.com/65535/49710397113_df834f5c21_n.jpg",
    "id_album": "-1560111795",
    "description": "Archer_321203",
    "title": "Archer_321203",
    "link_img": "https://live.staticflickr.com/65535/49710397113_5ab4fa6ab3_o.jpg",
    "id_image": "Archer_321203",
    "count_view": 0
  },
  {
    "link_thumb": "https://live.staticflickr.com/65535/49712833962_e8c314c5b0_n.jpg",
    "id_album": "-867594484",
    "description": "Women_567073",
    "title": "Women_567073",
    "link_img": "https://live.staticflickr.com/65535/49712833962_503a85d15d_o.jpg",
    "id_image": "Women_567073",
    "count_view": 0
  },
  {
    "link_thumb": "https://live.staticflickr.com/65535/49711706947_e350c778e7_n.jpg",
    "id_album": "850176884",
    "description": "Dragon_203860",
    "title": "Dragon_203860",
    "link_img": "https://live.staticflickr.com/65535/49711706947_3a2c76e557_o.jpg",
    "id_image": "Dragon_203860",
    "count_view": 0
  },
  {
    "link_thumb": "https://live.staticflickr.com/65535/49712768062_aac981c3d9_n.jpg",
    "id_album": "1861288871",
    "description": "Women_488053",
    "title": "Women_488053",
    "link_img": "https://live.staticflickr.com/65535/49712768062_1d3f7447c9_o.jpg",
    "id_image": "Women_488053",
    "count_view": 0
  },
  {
    "link_thumb": "https://live.staticflickr.com/65535/49711913417_a3962d76e0_n.jpg",
    "id_album": "850176884",
    "description": "Dragon_988774",
    "title": "Dragon_988774",
    "link_img": "https://live.staticflickr.com/65535/49711913417_f322650126_o.jpg",
    "id_image": "Dragon_988774",
    "count_view": 0
  },
  {
    "link_thumb": "https://live.staticflickr.com/65535/49712786097_e9a69bf631_n.jpg",
    "id_album": "1861288871",
    "description": "Women_772333",
    "title": "Women_772333",
    "link_img": "https://live.staticflickr.com/65535/49712786097_f3cd65278a_o.jpg",
    "id_image": "Women_772333",
    "count_view": 0
  },
  {
    "link_thumb": "https://live.staticflickr.com/65535/49711716192_0e2e37046f_n.jpg",
    "id_album": "850176884",
    "description": "Dragon_239283",
    "title": "Dragon_239283",
    "link_img": "https://live.staticflickr.com/65535/49711716192_887737358b_o.jpg",
    "id_image": "Dragon_239283",
    "count_view": 0
  },
  {
    "link_thumb": "https://live.staticflickr.com/65535/49710422248_307aaf46d8_n.jpg",
    "id_album": "523598895",
    "description": "Artistic_233568",
    "title": "Artistic_233568",
    "link_img": "https://live.staticflickr.com/65535/49710422248_d932320d42_o.jpg",
    "id_image": "Artistic_233568",
    "count_view": 0
  },
  {
    "link_thumb": "https://live.staticflickr.com/65535/49711217787_986df146a4_n.jpg",
    "id_album": "-1913845949",
    "description": "Animal_157959",
    "title": "Animal_157959",
    "link_img": "https://live.staticflickr.com/65535/49711217787_2d760a4b18_o.jpg",
    "id_image": "Animal_157959",
    "count_view": 0
  },
  {
    "link_thumb": "https://live.staticflickr.com/65535/49712139941_6e67f95ab4_n.jpg",
    "id_album": "-395228614",
    "description": "Ship_972994",
    "title": "Ship_972994",
    "link_img": "https://live.staticflickr.com/65535/49712139941_58a05c31c7_o.jpg",
    "id_image": "Ship_972994",
    "count_view": 0
  },
  {
    "link_thumb": "https://live.staticflickr.com/65535/49711059001_28fc87b65f_n.jpg",
    "id_album": "-1541846310",
    "description": "Castle_856046",
    "title": "Castle_856046",
    "link_img": "https://live.staticflickr.com/65535/49711059001_fcb4d1b904_o.jpg",
    "id_image": "Castle_856046",
    "count_view": 0
  },
  {
    "link_thumb": "https://live.staticflickr.com/65535/49711211752_d9daea80e5_n.jpg",
    "id_album": "-1000175186",
    "description": "AngelWarrior_830999",
    "title": "AngelWarrior_830999",
    "link_img": "https://live.staticflickr.com/65535/49711211752_8f8f6688bf_o.jpg",
    "id_image": "AngelWarrior_830999",
    "count_view": 0
  },
  {
    "link_thumb": "https://live.staticflickr.com/65535/49711868013_9e5c287df6_n.jpg",
    "id_album": "295204930",
    "description": "Women_696330",
    "title": "Women_696330",
    "link_img": "https://live.staticflickr.com/65535/49711868013_8e6e98aec5_o.jpg",
    "id_image": "Women_696330",
    "count_view": 0
  },
  {
    "link_thumb": "https://live.staticflickr.com/65535/49711742941_d8c0cf4e1a_n.jpg",
    "id_album": "1131236559",
    "description": "Gods_238431",
    "title": "Gods_238431",
    "link_img": "https://live.staticflickr.com/65535/49711742941_1e11b39db0_o.jpg",
    "id_image": "Gods_238431",
    "count_view": 0
  },
  {
    "link_thumb": "https://live.staticflickr.com/65535/49710739588_4d04cfe212_n.jpg",
    "id_album": "-437872736",
    "description": "Creature_925023",
    "title": "Creature_925023",
    "link_img": "https://live.staticflickr.com/65535/49710739588_7ef878407a_o.jpg",
    "id_image": "Creature_925023",
    "count_view": 0
  },
  {
    "link_thumb": "https://live.staticflickr.com/65535/49712022287_279471593c_n.jpg",
    "id_album": "-1083189875",
    "description": "Forest_526737",
    "title": "Forest_526737",
    "link_img": "https://live.staticflickr.com/65535/49712022287_d71b433631_o.jpg",
    "id_image": "Forest_526737",
    "count_view": 0
  },
  {
    "link_thumb": "https://live.staticflickr.com/65535/49711176458_8c37b64ebb_n.jpg",
    "id_album": "-1083189875",
    "description": "Forest_749302",
    "title": "Forest_749302",
    "link_img": "https://live.staticflickr.com/65535/49711176458_2cf9ec6b39_o.jpg",
    "id_image": "Forest_749302",
    "count_view": 0
  },
  {
    "link_thumb": "https://live.staticflickr.com/65535/49711031493_7563dd7b27_n.jpg",
    "id_album": "850176884",
    "description": "Dragon_920329",
    "title": "Dragon_920329",
    "link_img": "https://live.staticflickr.com/65535/49711031493_a107db04ac_o.jpg",
    "id_image": "Dragon_920329",
    "count_view": 0
  },
  {
    "link_thumb": "https://live.staticflickr.com/65535/49711814346_249febf184_n.jpg",
    "id_album": "1402713104",
    "description": "Landscape_732262",
    "title": "Landscape_732262",
    "link_img": "https://live.staticflickr.com/65535/49711814346_303f468789_o.jpg",
    "id_image": "Landscape_732262",
    "count_view": 0
  },
  {
    "link_thumb": "https://live.staticflickr.com/65535/49712192767_90c3602dae_n.jpg",
    "id_album": "1402713104",
    "description": "Landscape_955942",
    "title": "Landscape_955942",
    "link_img": "https://live.staticflickr.com/65535/49712192767_c381e746c8_o.jpg",
    "id_image": "Landscape_955942",
    "count_view": 0
  },
  {
    "link_thumb": "https://live.staticflickr.com/65535/49710610588_0f9e06da8c_n.jpg",
    "id_album": "-437872736",
    "description": "Creature_154765",
    "title": "Creature_154765",
    "link_img": "https://live.staticflickr.com/65535/49710610588_78113d01fb_o.jpg",
    "id_image": "Creature_154765",
    "count_view": 0
  },
  {
    "link_thumb": "https://live.staticflickr.com/65535/49711692241_a4ecb90396_n.jpg",
    "id_album": "-1083189875",
    "description": "Forest_284057",
    "title": "Forest_284057",
    "link_img": "https://live.staticflickr.com/65535/49711692241_1e774ff6b9_o.jpg",
    "id_image": "Forest_284057",
    "count_view": 0
  },
  {
    "link_thumb": "https://live.staticflickr.com/65535/49711556148_c36de690fb_n.jpg",
    "id_album": "606798642",
    "description": "RedRidingHood_854055",
    "title": "RedRidingHood_854055",
    "link_img": "https://live.staticflickr.com/65535/49711556148_1f8d70327e_o.jpg",
    "id_image": "RedRidingHood_854055",
    "count_view": 0
  },
  {
    "link_thumb": "https://live.staticflickr.com/65535/49711504383_32533311bc_n.jpg",
    "id_album": "1892085513",
    "description": "Oriental_290262",
    "title": "Oriental_290262",
    "link_img": "https://live.staticflickr.com/65535/49711504383_8555878dc8_o.jpg",
    "id_image": "Oriental_290262",
    "count_view": 0
  },
  {
    "link_thumb": "https://live.staticflickr.com/65535/49711709731_6fbc2625c0_n.jpg",
    "id_album": "-1083189875",
    "description": "Forest_740031",
    "title": "Forest_740031",
    "link_img": "https://live.staticflickr.com/65535/49711709731_e2656d9d5d_o.jpg",
    "id_image": "Forest_740031",
    "count_view": 0
  },
  {
    "link_thumb": "https://live.staticflickr.com/65535/49711197133_019e04b916_n.jpg",
    "id_album": "402434752",
    "description": "Giant_307871",
    "title": "Giant_307871",
    "link_img": "https://live.staticflickr.com/65535/49711197133_89ee447b84_o.jpg",
    "id_image": "Giant_307871",
    "count_view": 0
  },
  {
    "link_thumb": "https://live.staticflickr.com/65535/49711682077_a42aaa4c12_n.jpg",
    "id_album": "850176884",
    "description": "Dragon_120552",
    "title": "Dragon_120552",
    "link_img": "https://live.staticflickr.com/65535/49711682077_bbe375b756_o.jpg",
    "id_image": "Dragon_120552",
    "count_view": 0
  },
  {
    "link_thumb": "https://live.staticflickr.com/65535/49710505848_2f95dddc7d_n.jpg",
    "id_album": "-1541846310",
    "description": "Castle_282476",
    "title": "Castle_282476",
    "link_img": "https://live.staticflickr.com/65535/49710505848_b46ec7e00c_o.jpg",
    "id_image": "Castle_282476",
    "count_view": 0
  },
  {
    "link_thumb": "https://live.staticflickr.com/65535/49711663012_7651c16216_n.jpg",
    "id_album": "7198985",
    "description": "Demon_616986",
    "title": "Demon_616986",
    "link_img": "https://live.staticflickr.com/65535/49711663012_8fa148f05b_o.jpg",
    "id_image": "Demon_616986",
    "count_view": 0
  },
  {
    "link_thumb": "https://live.staticflickr.com/65535/49711507027_0ec070333e_n.jpg",
    "id_album": "-437872736",
    "description": "Creature_302385",
    "title": "Creature_302385",
    "link_img": "https://live.staticflickr.com/65535/49711507027_29a387694f_o.jpg",
    "id_image": "Creature_302385",
    "count_view": 0
  },
  {
    "link_thumb": "https://live.staticflickr.com/65535/49711901757_97dd3a9496_n.jpg",
    "id_album": "850176884",
    "description": "Dragon_959234",
    "title": "Dragon_959234",
    "link_img": "https://live.staticflickr.com/65535/49711901757_fbf33ea195_o.jpg",
    "id_image": "Dragon_959234",
    "count_view": 0
  },
  {
    "link_thumb": "https://live.staticflickr.com/65535/49711073606_1cef5f0119_n.jpg",
    "id_album": "-1741487325",
    "description": "Cat_885319",
    "title": "Cat_885319",
    "link_img": "https://live.staticflickr.com/65535/49711073606_161a629e58_o.jpg",
    "id_image": "Cat_885319",
    "count_view": 0
  },
  {
    "link_thumb": "https://live.staticflickr.com/65535/49711517532_5606b5f993_n.jpg",
    "id_album": "-437872736",
    "description": "Creature_319644",
    "title": "Creature_319644",
    "link_img": "https://live.staticflickr.com/65535/49711517532_abc604058b_o.jpg",
    "id_image": "Creature_319644",
    "count_view": 0
  },
  {
    "link_thumb": "https://live.staticflickr.com/65535/49712092177_b53c3e2225_n.jpg",
    "id_album": "1957967226",
    "description": "House_703226",
    "title": "House_703226",
    "link_img": "https://live.staticflickr.com/65535/49712092177_88b6aacb23_o.jpg",
    "id_image": "House_703226",
    "count_view": 0
  },
  {
    "link_thumb": "https://live.staticflickr.com/65535/49712084901_92900cd3d5_n.jpg",
    "id_album": "1587588550",
    "description": "Place_242347",
    "title": "Place_242347",
    "link_img": "https://live.staticflickr.com/65535/49712084901_f21253d761_o.jpg",
    "id_image": "Place_242347",
    "count_view": 0
  },
  {
    "link_thumb": "https://live.staticflickr.com/65535/49710358283_cfdb1da09c_n.jpg",
    "id_album": "-1000175186",
    "description": "AngelWarrior_996276",
    "title": "AngelWarrior_996276",
    "link_img": "https://live.staticflickr.com/65535/49710358283_df5aabd136_o.jpg",
    "id_image": "AngelWarrior_996276",
    "count_view": 0
  },
  {
    "link_thumb": "https://live.staticflickr.com/65535/49711530932_2a7cb0d879_n.jpg",
    "id_album": "-437872736",
    "description": "Creature_339942",
    "title": "Creature_339942",
    "link_img": "https://live.staticflickr.com/65535/49711530932_68c16694a1_o.jpg",
    "id_image": "Creature_339942",
    "count_view": 0
  },
  {
    "link_thumb": "https://live.staticflickr.com/65535/49711357517_89bf0b0e06_n.jpg",
    "id_album": "-1541846310",
    "description": "Castle_159289",
    "title": "Castle_159289",
    "link_img": "https://live.staticflickr.com/65535/49711357517_78e7956a1b_o.jpg",
    "id_image": "Castle_159289",
    "count_view": 0
  },
  {
    "link_thumb": "https://live.staticflickr.com/65535/49712275036_f1272044fd_n.jpg",
    "id_album": "-709711865",
    "description": "Wolf_493414",
    "title": "Wolf_493414",
    "link_img": "https://live.staticflickr.com/65535/49712275036_23ac201fda_o.jpg",
    "id_image": "Wolf_493414",
    "count_view": 0
  },
  {
    "link_thumb": "https://live.staticflickr.com/65535/49711691647_f31717756c_n.jpg",
    "id_album": "850176884",
    "description": "Dragon_134152",
    "title": "Dragon_134152",
    "link_img": "https://live.staticflickr.com/65535/49711691647_74d39f7c5b_o.jpg",
    "id_image": "Dragon_134152",
    "count_view": 0
  },
  {
    "link_thumb": "https://live.staticflickr.com/65535/49711854448_720efdbab4_n.jpg",
    "id_album": "295204930",
    "description": "Women_393166",
    "title": "Women_393166",
    "link_img": "https://live.staticflickr.com/65535/49711854448_de626c3c06_o.jpg",
    "id_image": "Women_393166",
    "count_view": 0
  },
  {
    "link_thumb": "https://live.staticflickr.com/65535/49711299318_55d8dc7b2c_n.jpg",
    "id_album": "1402713104",
    "description": "Landscape_864147",
    "title": "Landscape_864147",
    "link_img": "https://live.staticflickr.com/65535/49711299318_cabe18a925_o.jpg",
    "id_image": "Landscape_864147",
    "count_view": 0
  },
  {
    "link_thumb": "https://live.staticflickr.com/65535/49711388921_1644b732f0_n.jpg",
    "id_album": "850176884",
    "description": "Dragon_224429",
    "title": "Dragon_224429",
    "link_img": "https://live.staticflickr.com/65535/49711388921_5f0ddf405d_o.jpg",
    "id_image": "Dragon_224429",
    "count_view": 0
  },
  {
    "link_thumb": "https://live.staticflickr.com/65535/49712458191_e1a4d55f22_n.jpg",
    "id_album": "1861288871",
    "description": "Women_764590",
    "title": "Women_764590",
    "link_img": "https://live.staticflickr.com/65535/49712458191_8ebb85458a_o.jpg",
    "id_image": "Women_764590",
    "count_view": 0
  },
  {
    "link_thumb": "https://live.staticflickr.com/65535/49711671187_7586179ff1_n.jpg",
    "id_album": "850176884",
    "description": "DRAGON26101916494417",
    "title": "DRAGON26101916494417",
    "link_img": "https://live.staticflickr.com/65535/49711671187_a33bfe7c11_o.jpg",
    "id_image": "DRAGON26101916494417",
    "count_view": 0
  },
  {
    "link_thumb": "https://live.staticflickr.com/65535/49711802968_da613f60c4_n.jpg",
    "id_album": "-1126835654",
    "description": "Women_923692",
    "title": "Women_923692",
    "link_img": "https://live.staticflickr.com/65535/49711802968_61ee816fcb_o.jpg",
    "id_image": "Women_923692",
    "count_view": 0
  },
  {
    "link_thumb": "https://live.staticflickr.com/65535/49711356311_be9257f40e_n.jpg",
    "id_album": "850176884",
    "description": "Dragon_117053",
    "title": "Dragon_117053",
    "link_img": "https://live.staticflickr.com/65535/49711356311_ba1b72a9d5_o.jpg",
    "id_image": "Dragon_117053",
    "count_view": 0
  },
  {
    "link_thumb": "https://live.staticflickr.com/65535/49710410408_98f497fe22_n.jpg",
    "id_album": "523598895",
    "description": "Artistic_151071",
    "title": "Artistic_151071",
    "link_img": "https://live.staticflickr.com/65535/49710410408_b315df9fc2_o.jpg",
    "id_image": "Artistic_151071",
    "count_view": 0
  },
  {
    "link_thumb": "https://live.staticflickr.com/65535/49710475438_ce0b2cd4de_n.jpg",
    "id_album": "1187037014",
    "description": "Battle_779581",
    "title": "Battle_779581",
    "link_img": "https://live.staticflickr.com/65535/49710475438_008a13ed0e_o.jpg",
    "id_image": "Battle_779581",
    "count_view": 0
  },
  {
    "link_thumb": "https://live.staticflickr.com/65535/49711882993_ba1af8eedf_n.jpg",
    "id_album": "295204930",
    "description": "Women_732171",
    "title": "Women_732171",
    "link_img": "https://live.staticflickr.com/65535/49711882993_eb4e7d51d8_o.jpg",
    "id_image": "Women_732171",
    "count_view": 0
  },
  {
    "link_thumb": "https://live.staticflickr.com/65535/49712015728_5f3161ea17_n.jpg",
    "id_album": "-1675918237",
    "description": "WomenWarrior_261835",
    "title": "WomenWarrior_261835",
    "link_img": "https://live.staticflickr.com/65535/49712015728_d803f5250e_o.jpg",
    "id_image": "WomenWarrior_261835",
    "count_view": 0
  },
  {
    "link_thumb": "https://live.staticflickr.com/65535/49711141828_608144c4a4_n.jpg",
    "id_album": "-1972042284",
    "description": "Fairy_701320",
    "title": "Fairy_701320",
    "link_img": "https://live.staticflickr.com/65535/49711141828_a5184ace0d_o.jpg",
    "id_image": "Fairy_701320",
    "count_view": 0
  },
  {
    "link_thumb": "https://live.staticflickr.com/65535/49711447502_ea06884819_n.jpg",
    "id_album": "-1964113117",
    "description": "City_863849",
    "title": "City_863849",
    "link_img": "https://live.staticflickr.com/65535/49711447502_a3a44fb5f2_o.jpg",
    "id_image": "City_863849",
    "count_view": 0
  },
  {
    "link_thumb": "https://live.staticflickr.com/65535/49712510431_66453c9b11_n.jpg",
    "id_album": "-867594484",
    "description": "Women_568380",
    "title": "Women_568380",
    "link_img": "https://live.staticflickr.com/65535/49712510431_c8d302e739_o.jpg",
    "id_image": "Women_568380",
    "count_view": 0
  },
  {
    "link_thumb": "https://live.staticflickr.com/65535/49710335958_575f910770_n.jpg",
    "id_album": "-956471126",
    "description": "AliceInWonderland_12408",
    "title": "AliceInWonderland_12408",
    "link_img": "https://live.staticflickr.com/65535/49710335958_1e99c338be_o.jpg",
    "id_image": "AliceInWonderland_12408",
    "count_view": 0
  },
  {
    "link_thumb": "https://live.staticflickr.com/65535/49711794792_c02685796c_n.jpg",
    "id_album": "850176884",
    "description": "Dragon_528596",
    "title": "Dragon_528596",
    "link_img": "https://live.staticflickr.com/65535/49711794792_bbe95b4017_o.jpg",
    "id_image": "Dragon_528596",
    "count_view": 0
  },
  {
    "link_thumb": "https://live.staticflickr.com/65535/49712863732_c91c728140_n.jpg",
    "id_album": "-867594484",
    "description": "Women_694479",
    "title": "Women_694479",
    "link_img": "https://live.staticflickr.com/65535/49712863732_6cfacc72ff_o.jpg",
    "id_image": "Women_694479",
    "count_view": 0
  },
  {
    "link_thumb": "https://live.staticflickr.com/65535/49711076131_8bd835da0d_n.jpg",
    "id_album": "430704260",
    "description": "Child_158922",
    "title": "Child_158922",
    "link_img": "https://live.staticflickr.com/65535/49711076131_b3ab095343_o.jpg",
    "id_image": "Child_158922",
    "count_view": 0
  },
  {
    "link_thumb": "https://live.staticflickr.com/65535/49711863486_35e3511d70_n.jpg",
    "id_album": "1402713104",
    "description": "Landscape_943134",
    "title": "Landscape_943134",
    "link_img": "https://live.staticflickr.com/65535/49711863486_ee35b89765_o.jpg",
    "id_image": "Landscape_943134",
    "count_view": 0
  },
  {
    "link_thumb": "https://live.staticflickr.com/65535/49711296993_a99011eccf_n.jpg",
    "id_album": "1402713104",
    "description": "Landscape_863880",
    "title": "Landscape_863880",
    "link_img": "https://live.staticflickr.com/65535/49711296993_0943474c50_o.jpg",
    "id_image": "Landscape_863880",
    "count_view": 0
  },
  {
    "link_thumb": "https://live.staticflickr.com/65535/49711181828_24a32e6935_n.jpg",
    "id_album": "-1083189875",
    "description": "Forest_867446",
    "title": "Forest_867446",
    "link_img": "https://live.staticflickr.com/65535/49711181828_0f1660d204_o.jpg",
    "id_image": "Forest_867446",
    "count_view": 0
  },
  {
    "link_thumb": "https://live.staticflickr.com/65535/49712978267_92e38c47e6_n.jpg",
    "id_album": "-1675918237",
    "description": "WomenWarrior_693904",
    "title": "WomenWarrior_693904",
    "link_img": "https://live.staticflickr.com/65535/49712978267_ee19af3fd7_o.jpg",
    "id_image": "WomenWarrior_693904",
    "count_view": 0
  },
  {
    "link_thumb": "https://live.staticflickr.com/65535/49711017091_e4b5e0cab7_n.jpg",
    "id_album": "-1846011410",
    "description": "Bird_566779",
    "title": "Bird_566779",
    "link_img": "https://live.staticflickr.com/65535/49711017091_8e9f069b86_o.jpg",
    "id_image": "Bird_566779",
    "count_view": 0
  },
  {
    "link_thumb": "https://live.staticflickr.com/65535/49710992641_f42f83d5cf_n.jpg",
    "id_album": "1187037014",
    "description": "Battle_323129",
    "title": "Battle_323129",
    "link_img": "https://live.staticflickr.com/65535/49710992641_29eefebd2b_o.jpg",
    "id_image": "Battle_323129",
    "count_view": 0
  },
  {
    "link_thumb": "https://live.staticflickr.com/65535/49710888596_0468fed005_n.jpg",
    "id_album": "-1000175186",
    "description": "AngelWarrior_866366",
    "title": "AngelWarrior_866366",
    "link_img": "https://live.staticflickr.com/65535/49710888596_2ffd33e241_o.jpg",
    "id_image": "AngelWarrior_866366",
    "count_view": 0
  },
  {
    "link_thumb": "https://live.staticflickr.com/65535/49711110271_b089911264_n.jpg",
    "id_album": "-1964113117",
    "description": "City_665361",
    "title": "City_665361",
    "link_img": "https://live.staticflickr.com/65535/49711110271_5d8b97b78f_o.jpg",
    "id_image": "City_665361",
    "count_view": 0
  },
  {
    "link_thumb": "https://live.staticflickr.com/65535/49711853313_94f37c5a5a_n.jpg",
    "id_album": "295204930",
    "description": "Women_389094",
    "title": "Women_389094",
    "link_img": "https://live.staticflickr.com/65535/49711853313_70253e6034_o.jpg",
    "id_image": "Women_389094",
    "count_view": 0
  },
  {
    "link_thumb": "https://live.staticflickr.com/65535/49711014383_00735a4615_n.jpg",
    "id_album": "850176884",
    "description": "Dragon_881068",
    "title": "Dragon_881068",
    "link_img": "https://live.staticflickr.com/65535/49711014383_5907eabfe9_o.jpg",
    "id_image": "Dragon_881068",
    "count_view": 0
  },
  {
    "link_thumb": "https://live.staticflickr.com/65535/49712241736_f0a1d74254_n.jpg",
    "id_album": "1173975892",
    "description": "Werewolf_152011",
    "title": "Werewolf_152011",
    "link_img": "https://live.staticflickr.com/65535/49712241736_1ac3066486_o.jpg",
    "id_image": "Werewolf_152011",
    "count_view": 0
  },
  {
    "link_thumb": "https://live.staticflickr.com/65535/49712148486_43c1f53357_n.jpg",
    "id_album": "1240974613",
    "description": "Sorceress_962164",
    "title": "Sorceress_962164",
    "link_img": "https://live.staticflickr.com/65535/49712148486_816c0f3709_o.jpg",
    "id_image": "Sorceress_962164",
    "count_view": 0
  },
  {
    "link_thumb": "https://live.staticflickr.com/65535/49711382222_6ffd329fe2_n.jpg",
    "id_album": "-1541846310",
    "description": "Castle_854312",
    "title": "Castle_854312",
    "link_img": "https://live.staticflickr.com/65535/49711382222_c1d8a7ac8d_o.jpg",
    "id_image": "Castle_854312",
    "count_view": 0
  },
  {
    "link_thumb": "https://live.staticflickr.com/65535/49711559953_58bb0ef1de_n.jpg",
    "id_album": "1223576123",
    "description": "Ruin_594679",
    "title": "Ruin_594679",
    "link_img": "https://live.staticflickr.com/65535/49711559953_09c4d9c2b3_o.jpg",
    "id_image": "Ruin_594679",
    "count_view": 0
  },
  {
    "link_thumb": "https://live.staticflickr.com/65535/49712079916_347c06c647_n.jpg",
    "id_album": "-1326601535",
    "description": "Phoenix_926744",
    "title": "Phoenix_926744",
    "link_img": "https://live.staticflickr.com/65535/49712079916_3e47a6b8f5_o.jpg",
    "id_image": "Phoenix_926744",
    "count_view": 0
  },
  {
    "link_thumb": "https://live.staticflickr.com/65535/49712103068_a301500786_n.jpg",
    "id_album": "-1675918237",
    "description": "WomenWarrior_557496",
    "title": "WomenWarrior_557496",
    "link_img": "https://live.staticflickr.com/65535/49712103068_62772c4e29_o.jpg",
    "id_image": "WomenWarrior_557496",
    "count_view": 0
  },
  {
    "link_thumb": "https://live.staticflickr.com/65535/49711109236_a5a0f10c00_n.jpg",
    "id_album": "-1964113117",
    "description": "City_616603",
    "title": "City_616603",
    "link_img": "https://live.staticflickr.com/65535/49711109236_4cfaabec68_o.jpg",
    "id_image": "City_616603",
    "count_view": 0
  },
  {
    "link_thumb": "https://live.staticflickr.com/65535/49711932466_32e86d4a43_n.jpg",
    "id_album": "-833110404",
    "description": "Landscape_393498",
    "title": "Landscape_393498",
    "link_img": "https://live.staticflickr.com/65535/49711932466_a39227c43f_o.jpg",
    "id_image": "Landscape_393498",
    "count_view": 0
  },
  {
    "link_thumb": "https://live.staticflickr.com/65535/49711721323_507c801a39_n.jpg",
    "id_album": "478331085",
    "description": "Witch_176745",
    "title": "Witch_176745",
    "link_img": "https://live.staticflickr.com/65535/49711721323_45ed70b944_o.jpg",
    "id_image": "Witch_176745",
    "count_view": 0
  },
  {
    "link_thumb": "https://live.staticflickr.com/65535/49711410126_11158baa0d_n.jpg",
    "id_album": "850176884",
    "description": "Dragon_283691",
    "title": "Dragon_283691",
    "link_img": "https://live.staticflickr.com/65535/49711410126_0de7bfbd21_o.jpg",
    "id_image": "Dragon_283691",
    "count_view": 0
  },
  {
    "link_thumb": "https://live.staticflickr.com/65535/49711232832_135fd1a7ac_n.jpg",
    "id_album": "-1913845949",
    "description": "Animal_636055",
    "title": "Animal_636055",
    "link_img": "https://live.staticflickr.com/65535/49711232832_5d1d6a2150_o.jpg",
    "id_image": "Animal_636055",
    "count_view": 0
  },
  {
    "link_thumb": "https://live.staticflickr.com/65535/49710943118_9a2db8695c_n.jpg",
    "id_album": "850176884",
    "description": "Dragon_552912",
    "title": "Dragon_552912",
    "link_img": "https://live.staticflickr.com/65535/49710943118_61a56b563e_o.jpg",
    "id_image": "Dragon_552912",
    "count_view": 0
  },
  {
    "link_thumb": "https://live.staticflickr.com/65535/49711362337_b52606bba5_n.jpg",
    "id_album": "-1541846310",
    "description": "Castle_229727",
    "title": "Castle_229727",
    "link_img": "https://live.staticflickr.com/65535/49711362337_06a55ba400_o.jpg",
    "id_image": "Castle_229727",
    "count_view": 0
  },
  {
    "link_thumb": "https://live.staticflickr.com/65535/49710658463_b4e3a783bc_n.jpg",
    "id_album": "-437872736",
    "description": "Creature_322079",
    "title": "Creature_322079",
    "link_img": "https://live.staticflickr.com/65535/49710658463_f366c57498_o.jpg",
    "id_image": "Creature_322079",
    "count_view": 0
  },
  {
    "link_thumb": "https://live.staticflickr.com/65535/49711229343_efb522e051_n.jpg",
    "id_album": "-1933715543",
    "description": "Horse_995513",
    "title": "Horse_995513",
    "link_img": "https://live.staticflickr.com/65535/49711229343_2ebf39e67e_o.jpg",
    "id_image": "Horse_995513",
    "count_view": 0
  },
  {
    "link_thumb": "https://live.staticflickr.com/65535/49712518066_0dd8107f1e_n.jpg",
    "id_album": "-867594484",
    "description": "Women_599814",
    "title": "Women_599814",
    "link_img": "https://live.staticflickr.com/65535/49712518066_c16b41bf15_o.jpg",
    "id_image": "Women_599814",
    "count_view": 0
  },
  {
    "link_thumb": "https://live.staticflickr.com/65535/49710718228_5a10e62bba_n.jpg",
    "id_album": "-437872736",
    "description": "Creature_618652",
    "title": "Creature_618652",
    "link_img": "https://live.staticflickr.com/65535/49710718228_40b4cb19a7_o.jpg",
    "id_image": "Creature_618652",
    "count_view": 0
  },
  {
    "link_thumb": "https://live.staticflickr.com/65535/49711664018_8ea4a3b7ba_n.jpg",
    "id_album": "-1261420436",
    "description": "Warrior_193570",
    "title": "Warrior_193570",
    "link_img": "https://live.staticflickr.com/65535/49711664018_b65bcb811e_o.jpg",
    "id_image": "Warrior_193570",
    "count_view": 0
  },
  {
    "link_thumb": "https://live.staticflickr.com/65535/49710333328_05f26e4a7c_n.jpg",
    "id_album": "-2109465612",
    "description": "Adventure_312391",
    "title": "Adventure_312391",
    "link_img": "https://live.staticflickr.com/65535/49710333328_d283c73ba0_o.jpg",
    "id_image": "Adventure_312391",
    "count_view": 0
  },
  {
    "link_thumb": "https://live.staticflickr.com/65535/49711451521_6914a77f70_n.jpg",
    "id_album": "850176884",
    "description": "Dragon_451186",
    "title": "Dragon_451186",
    "link_img": "https://live.staticflickr.com/65535/49711451521_d3ebc7eb94_o.jpg",
    "id_image": "Dragon_451186",
    "count_view": 0
  },
  {
    "link_thumb": "https://live.staticflickr.com/65535/49711650187_1a1d974850_n.jpg",
    "id_album": "1903411565",
    "description": "Deer_233564",
    "title": "Deer_233564",
    "link_img": "https://live.staticflickr.com/65535/49711650187_cdc1cb160f_o.jpg",
    "id_image": "Deer_233564",
    "count_view": 0
  },
  {
    "link_thumb": "https://live.staticflickr.com/65535/49711338298_42d3a00034_n.jpg",
    "id_album": "1402713104",
    "description": "Landscape_958302",
    "title": "Landscape_958302",
    "link_img": "https://live.staticflickr.com/65535/49711338298_55f2746b19_o.jpg",
    "id_image": "Landscape_958302",
    "count_view": 0
  },
  {
    "link_thumb": "https://live.staticflickr.com/65535/49711349467_8e95eb87d5_n.jpg",
    "id_album": "406431601",
    "description": "Building_860866",
    "title": "Building_860866",
    "link_img": "https://live.staticflickr.com/65535/49711349467_174188bca2_o.jpg",
    "id_image": "Building_860866",
    "count_view": 0
  },
  {
    "link_thumb": "https://live.staticflickr.com/65535/49711580523_f7270d43fa_n.jpg",
    "id_album": "-1611961467",
    "description": "Samurai_987362",
    "title": "Samurai_987362",
    "link_img": "https://live.staticflickr.com/65535/49711580523_b06a142f69_o.jpg",
    "id_image": "Samurai_987362",
    "count_view": 0
  },
  {
    "link_thumb": "https://live.staticflickr.com/65535/49711195093_50ed97b7c5_n.jpg",
    "id_album": "402434752",
    "description": "Giant_223018",
    "title": "Giant_223018",
    "link_img": "https://live.staticflickr.com/65535/49711195093_a10b9db748_o.jpg",
    "id_image": "Giant_223018",
    "count_view": 0
  },
  {
    "link_thumb": "https://live.staticflickr.com/65535/49712026747_fce3b843b3_n.jpg",
    "id_album": "-1083189875",
    "description": "Forest_677203",
    "title": "Forest_677203",
    "link_img": "https://live.staticflickr.com/65535/49712026747_16f8726e70_o.jpg",
    "id_image": "Forest_677203",
    "count_view": 0
  },
  {
    "link_thumb": "https://live.staticflickr.com/65535/49712568402_a8d98c2173_n.jpg",
    "id_album": "1173975892",
    "description": "Werewolf_534462",
    "title": "Werewolf_534462",
    "link_img": "https://live.staticflickr.com/65535/49712568402_a18d94c608_o.jpg",
    "id_image": "Werewolf_534462",
    "count_view": 0
  },
  {
    "link_thumb": "https://live.staticflickr.com/65535/49712140131_fe7f4555cc_n.jpg",
    "id_album": "-395228614",
    "description": "Ship_977113",
    "title": "Ship_977113",
    "link_img": "https://live.staticflickr.com/65535/49712140131_1aea57da45_o.jpg",
    "id_image": "Ship_977113",
    "count_view": 0
  },
  {
    "link_thumb": "https://live.staticflickr.com/65535/49711208048_fccfa38884_n.jpg",
    "id_album": "1131236559",
    "description": "Gods_229828",
    "title": "Gods_229828",
    "link_img": "https://live.staticflickr.com/65535/49711208048_383cbb64dc_o.jpg",
    "id_image": "Gods_229828",
    "count_view": 0
  },
  {
    "link_thumb": "https://live.staticflickr.com/65535/49711470546_d8df1f6ef7_n.jpg",
    "id_album": "850176884",
    "description": "Dragon_518584",
    "title": "Dragon_518584",
    "link_img": "https://live.staticflickr.com/65535/49711470546_c58a4cbca8_o.jpg",
    "id_image": "Dragon_518584",
    "count_view": 0
  },
  {
    "link_thumb": "https://live.staticflickr.com/65535/49711823411_58d03ba810_n.jpg",
    "id_album": "1402713104",
    "description": "Landscape_842650",
    "title": "Landscape_842650",
    "link_img": "https://live.staticflickr.com/65535/49711823411_e8be05a124_o.jpg",
    "id_image": "Landscape_842650",
    "count_view": 0
  },
  {
    "link_thumb": "https://live.staticflickr.com/65535/49712103852_d3aa8eca1e_n.jpg",
    "id_album": "469960528",
    "description": "Knight_448116",
    "title": "Knight_448116",
    "link_img": "https://live.staticflickr.com/65535/49712103852_eab1ee15d7_o.jpg",
    "id_image": "Knight_448116",
    "count_view": 0
  },
  {
    "link_thumb": "https://live.staticflickr.com/65535/49712511722_7daa7e6cb0_n.jpg",
    "id_album": "43335239",
    "description": "Vampire_695010",
    "title": "Vampire_695010",
    "link_img": "https://live.staticflickr.com/65535/49712511722_601f6aac35_o.jpg",
    "id_image": "Vampire_695010",
    "count_view": 0
  },
  {
    "link_thumb": "https://live.staticflickr.com/65535/49711335497_6c3210571b_n.jpg",
    "id_album": "1187037014",
    "description": "Battle_870363",
    "title": "Battle_870363",
    "link_img": "https://live.staticflickr.com/65535/49711335497_7616b8a2f5_o.jpg",
    "id_image": "Battle_870363",
    "count_view": 0
  },
  {
    "link_thumb": "https://live.staticflickr.com/65535/49711036811_a05d3a6a18_n.jpg",
    "id_album": "-1541846310",
    "description": "Castle_193652",
    "title": "Castle_193652",
    "link_img": "https://live.staticflickr.com/65535/49711036811_630108ed7c_o.jpg",
    "id_image": "Castle_193652",
    "count_view": 0
  },
  {
    "link_thumb": "https://live.staticflickr.com/65535/49712315462_7af8a7f552_n.jpg",
    "id_album": "-1859457952",
    "description": "Love_174014",
    "title": "Love_174014",
    "link_img": "https://live.staticflickr.com/65535/49712315462_0935910ef1_o.jpg",
    "id_image": "Love_174014",
    "count_view": 0
  },
  {
    "link_thumb": "https://live.staticflickr.com/65535/49712215172_5a151a171e_n.jpg",
    "id_album": "-833110404",
    "description": "Landscape_202889",
    "title": "Landscape_202889",
    "link_img": "https://live.staticflickr.com/65535/49712215172_7316923221_o.jpg",
    "id_image": "Landscape_202889",
    "count_view": 0
  },
  {
    "link_thumb": "https://live.staticflickr.com/65535/49712430042_81a54b2c86_n.jpg",
    "id_album": "-1611961467",
    "description": "Samurai_528051",
    "title": "Samurai_528051",
    "link_img": "https://live.staticflickr.com/65535/49712430042_d4794eb3cc_o.jpg",
    "id_image": "Samurai_528051",
    "count_view": 0
  },
  {
    "link_thumb": "https://live.staticflickr.com/65535/49712027247_5040499e8f_n.jpg",
    "id_album": "-1083189875",
    "description": "Forest_679748",
    "title": "Forest_679748",
    "link_img": "https://live.staticflickr.com/65535/49712027247_877f14b9c1_o.jpg",
    "id_image": "Forest_679748",
    "count_view": 0
  },
  {
    "link_thumb": "https://live.staticflickr.com/65535/49711193618_5019410535_n.jpg",
    "id_album": "-128218148",
    "description": "Fox_973766",
    "title": "Fox_973766",
    "link_img": "https://live.staticflickr.com/65535/49711193618_76e0f6e6a4_o.jpg",
    "id_image": "Fox_973766",
    "count_view": 0
  },
  {
    "link_thumb": "https://live.staticflickr.com/65535/49711415576_1e72e389ce_n.jpg",
    "id_album": "850176884",
    "description": "Dragon_310241",
    "title": "Dragon_310241",
    "link_img": "https://live.staticflickr.com/65535/49711415576_770b944424_o.jpg",
    "id_image": "Dragon_310241",
    "count_view": 0
  },
  {
    "link_thumb": "https://live.staticflickr.com/65535/49710567638_6ff0d75d9a_n.jpg",
    "id_album": "-1964113117",
    "description": "City_477582",
    "title": "City_477582",
    "link_img": "https://live.staticflickr.com/65535/49710567638_439675f943_o.jpg",
    "id_image": "City_477582",
    "count_view": 0
  },
  {
    "link_thumb": "https://live.staticflickr.com/65535/49711745877_6f5276eeea_n.jpg",
    "id_album": "850176884",
    "description": "Dragon_328908",
    "title": "Dragon_328908",
    "link_img": "https://live.staticflickr.com/65535/49711745877_21f1d192a6_o.jpg",
    "id_image": "Dragon_328908",
    "count_view": 0
  },
  {
    "link_thumb": "https://live.staticflickr.com/65535/49710676243_43352bf16c_n.jpg",
    "id_album": "-437872736",
    "description": "Creature_350155",
    "title": "Creature_350155",
    "link_img": "https://live.staticflickr.com/65535/49710676243_cd21035991_o.jpg",
    "id_image": "Creature_350155",
    "count_view": 0
  },
  {
    "link_thumb": "https://live.staticflickr.com/65535/49711230836_28b4df325e_n.jpg",
    "id_album": "-437872736",
    "description": "Creature_447052",
    "title": "Creature_447052",
    "link_img": "https://live.staticflickr.com/65535/49711230836_4bae1e7ace_o.jpg",
    "id_image": "Creature_447052",
    "count_view": 0
  },
  {
    "link_thumb": "https://live.staticflickr.com/65535/49712091676_ef783f3b52_n.jpg",
    "id_album": "606798642",
    "description": "RedRidingHood_852683",
    "title": "RedRidingHood_852683",
    "link_img": "https://live.staticflickr.com/65535/49712091676_773e68b240_o.jpg",
    "id_image": "RedRidingHood_852683",
    "count_view": 0
  },
  {
    "link_thumb": "https://live.staticflickr.com/65535/49712095143_13b02c62b5_n.jpg",
    "id_album": "-1675918237",
    "description": "WomenWarrior_529692",
    "title": "WomenWarrior_529692",
    "link_img": "https://live.staticflickr.com/65535/49712095143_55c9953f5f_o.jpg",
    "id_image": "WomenWarrior_529692",
    "count_view": 0
  },
  {
    "link_thumb": "https://live.staticflickr.com/65535/49711801213_773568c7f5_n.jpg",
    "id_album": "-1126835654",
    "description": "Women_911245",
    "title": "Women_911245",
    "link_img": "https://live.staticflickr.com/65535/49711801213_fb9af164bd_o.jpg",
    "id_image": "Women_911245",
    "count_view": 0
  },
  {
    "link_thumb": "https://live.staticflickr.com/65535/49711674001_788c430251_n.jpg",
    "id_album": "-1972042284",
    "description": "Fairy_686802",
    "title": "Fairy_686802",
    "link_img": "https://live.staticflickr.com/65535/49711674001_fa9739258e_o.jpg",
    "id_image": "Fairy_686802",
    "count_view": 0
  }
]