[
  {
    "total_img": 0,
    "number_page": 0,
    "title": "Women Warrior",
    "tag": "Women Warrior,",
    "description": "Women Warrior",
    "link_thumb": "https://live.staticflickr.com/65535/49712542066_e92f4bf88d_n.jpg",
    "id_album": "-1675918237",
    "total_view": 207
  }
]